%!PS-Adobe-2.0 EPSF-1.2
%%Creator: MATLAB, The MathWorks, Inc. Version 8.3.0.532 (R2014a). Operating System: Microsoft Windows 7 Enterprise .
%%Title: D:\codes\PHTdynamic\2D\figures\kh_cirplateIGA.eps
%%CreationDate: 09/11/2016  12:02:30
%%DocumentNeededFonts: Helvetica
%%DocumentProcessColors: Cyan Magenta Yellow Black
%%Extensions: CMYK
%%Pages: 1
%%BoundingBox:   190   277   446   533
%%EndComments

%%BeginProlog
% MathWorks dictionary
/MathWorks 160 dict begin
% definition operators
/bdef {bind def} bind def
/ldef {load def} bind def
/xdef {exch def} bdef
/xstore {exch store} bdef
% operator abbreviations
/c  /clip ldef
/cc /concat ldef
/cp /closepath ldef
/gr /grestore ldef
/gs /gsave ldef
/mt /moveto ldef
/np /newpath ldef
/cm /currentmatrix ldef
/sm /setmatrix ldef
/rm /rmoveto ldef
/rl /rlineto ldef
/s {show newpath} bdef
/sc {setcmykcolor} bdef
/sr /setrgbcolor ldef
/sg /setgray ldef
/w /setlinewidth ldef
/j /setlinejoin ldef
/cap /setlinecap ldef
/rc {rectclip} bdef
/rf {rectfill} bdef
% page state control
/pgsv () def
/bpage {/pgsv save def} bdef
/epage {pgsv restore} bdef
/bplot /gsave ldef
/eplot {stroke grestore} bdef
% orientation switch
/portraitMode 0 def /landscapeMode 1 def /rotateMode 2 def
% coordinate system mappings
/dpi2point 0 def
% font control
/FontSize 0 def
/FMS {/FontSize xstore findfont [FontSize 0 0 FontSize neg 0 0]
  makefont setfont} bdef
/ISOLatin1Encoding where {pop /WindowsLatin1Encoding 256 array bdef
ISOLatin1Encoding WindowsLatin1Encoding copy pop
/.notdef/.notdef/quotesinglbase/florin/quotedblbase/ellipsis/dagger
/daggerdbl/circumflex/perthousand/Scaron/guilsinglleft/OE/.notdef/.notdef
/.notdef/.notdef/quoteleft/quoteright/quotedblleft/quotedblright/bullet
/endash/emdash/tilde/trademark/scaron/guilsinglright/oe/.notdef/.notdef
/Ydieresis WindowsLatin1Encoding 128 32 getinterval astore pop}
{/WindowsLatin1Encoding StandardEncoding bdef} ifelse
/reencode {exch dup where {pop load} {pop StandardEncoding} ifelse
  exch dup 3 1 roll findfont dup length dict begin
  { 1 index /FID ne {def}{pop pop} ifelse } forall
  /Encoding exch def currentdict end definefont pop} bdef
/isroman {findfont /CharStrings get /Agrave known} bdef
/FMSR {3 1 roll 1 index dup isroman {reencode} {pop pop} ifelse
  exch FMS} bdef
/csm {1 dpi2point div -1 dpi2point div scale neg translate
 dup landscapeMode eq {pop -90 rotate}
  {rotateMode eq {90 rotate} if} ifelse} bdef
% line types: solid, dotted, dashed, dotdash
/SO { [] 0 setdash } bdef
/DO { [.5 dpi2point mul 4 dpi2point mul] 0 setdash } bdef
/DA { [6 dpi2point mul] 0 setdash } bdef
/DD { [.5 dpi2point mul 4 dpi2point mul 6 dpi2point mul 4
  dpi2point mul] 0 setdash } bdef
% macros for lines and objects
/L {lineto stroke} bdef
/MP {3 1 roll moveto 1 sub {rlineto} repeat} bdef
/AP {{rlineto} repeat} bdef
/PDlw -1 def
/W {/PDlw currentlinewidth def setlinewidth} def
/PP {closepath eofill} bdef
/DP {closepath stroke} bdef
/MR {4 -2 roll moveto dup  0 exch rlineto exch 0 rlineto
  neg 0 exch rlineto closepath} bdef
/FR {MR stroke} bdef
/PR {MR fill} bdef
/L1i {{currentfile picstr readhexstring pop} image} bdef
/tMatrix matrix def
/MakeOval {newpath tMatrix currentmatrix pop translate scale
0 0 1 0 360 arc tMatrix setmatrix} bdef
/FO {MakeOval stroke} bdef
/PO {MakeOval fill} bdef
/PD {currentlinewidth 2 div 0 360 arc fill
   PDlw -1 eq not {PDlw w /PDlw -1 def} if} def
/FA {newpath tMatrix currentmatrix pop translate scale
  0 0 1 5 -2 roll arc tMatrix setmatrix stroke} bdef
/PA {newpath tMatrix currentmatrix pop	translate 0 0 moveto scale
  0 0 1 5 -2 roll arc closepath tMatrix setmatrix fill} bdef
/FAn {newpath tMatrix currentmatrix pop translate scale
  0 0 1 5 -2 roll arcn tMatrix setmatrix stroke} bdef
/PAn {newpath tMatrix currentmatrix pop translate 0 0 moveto scale
  0 0 1 5 -2 roll arcn closepath tMatrix setmatrix fill} bdef
/vradius 0 def /hradius 0 def /lry 0 def
/lrx 0 def /uly 0 def /ulx 0 def /rad 0 def
/MRR {/vradius xdef /hradius xdef /lry xdef /lrx xdef /uly xdef
  /ulx xdef newpath tMatrix currentmatrix pop ulx hradius add uly
  vradius add translate hradius vradius scale 0 0 1 180 270 arc 
  tMatrix setmatrix lrx hradius sub uly vradius add translate
  hradius vradius scale 0 0 1 270 360 arc tMatrix setmatrix
  lrx hradius sub lry vradius sub translate hradius vradius scale
  0 0 1 0 90 arc tMatrix setmatrix ulx hradius add lry vradius sub
  translate hradius vradius scale 0 0 1 90 180 arc tMatrix setmatrix
  closepath} bdef
/FRR {MRR stroke } bdef
/PRR {MRR fill } bdef
/MlrRR {/lry xdef /lrx xdef /uly xdef /ulx xdef /rad lry uly sub 2 div def
  newpath tMatrix currentmatrix pop ulx rad add uly rad add translate
  rad rad scale 0 0 1 90 270 arc tMatrix setmatrix lrx rad sub lry rad
  sub translate rad rad scale 0 0 1 270 90 arc tMatrix setmatrix
  closepath} bdef
/FlrRR {MlrRR stroke } bdef
/PlrRR {MlrRR fill } bdef
/MtbRR {/lry xdef /lrx xdef /uly xdef /ulx xdef /rad lrx ulx sub 2 div def
  newpath tMatrix currentmatrix pop ulx rad add uly rad add translate
  rad rad scale 0 0 1 180 360 arc tMatrix setmatrix lrx rad sub lry rad
  sub translate rad rad scale 0 0 1 0 180 arc tMatrix setmatrix
  closepath} bdef
/FtbRR {MtbRR stroke } bdef
/PtbRR {MtbRR fill } bdef
/stri 6 array def /dtri 6 array def
/smat 6 array def /dmat 6 array def
/tmat1 6 array def /tmat2 6 array def /dif 3 array def
/asub {/ind2 exch def /ind1 exch def dup dup
  ind1 get exch ind2 get sub exch } bdef
/tri_to_matrix {
  2 0 asub 3 1 asub 4 0 asub 5 1 asub
  dup 0 get exch 1 get 7 -1 roll astore } bdef
/compute_transform {
  dmat dtri tri_to_matrix tmat1 invertmatrix 
  smat stri tri_to_matrix tmat2 concatmatrix } bdef
/ds {stri astore pop} bdef
/dt {dtri astore pop} bdef
/db {2 copy /cols xdef /rows xdef mul dup 3 mul string
  currentfile exch readhexstring pop
  dup 0 3 index getinterval /rbmap xdef
  dup 2 index dup getinterval /gbmap xdef
  1 index dup 2 mul exch getinterval /bbmap xdef pop pop}bdef
/it {gs np dtri aload pop moveto lineto lineto cp c
  cols rows 8 compute_transform 
  rbmap gbmap bbmap true 3 colorimage gr}bdef
/il {newpath moveto lineto stroke}bdef
currentdict end def
%%EndProlog

%%BeginSetup
MathWorks begin

0 cap

end
%%EndSetup

%%Page: 1 1
%%BeginPageSetup
%%PageBoundingBox:   190   277   446   533
MathWorks begin
bpage
%%EndPageSetup

%%BeginObject: obj1
bplot

/dpi2point 12 def
portraitMode 0216 7344 csm

 2070   944  3068  3069 MR c np
85 dict begin %Colortable dictionary
/c0 { 0.000000 0.000000 0.000000 sr} bdef
/c1 { 1.000000 1.000000 1.000000 sr} bdef
/c2 { 0.900000 0.000000 0.000000 sr} bdef
/c3 { 0.000000 0.820000 0.000000 sr} bdef
/c4 { 0.000000 0.000000 0.800000 sr} bdef
/c5 { 0.910000 0.820000 0.320000 sr} bdef
/c6 { 1.000000 0.260000 0.820000 sr} bdef
/c7 { 0.000000 0.820000 0.820000 sr} bdef
c0
1 j
1 sg
   0    0 6919 5187 PR
6 w
gs 1466 389 4228 4228 MR c np
14.4 w
/c8 { 0.000000 0.000000 1.000000 sr} bdef
c8
-15 -15 -15 -16 -15 -16 -15 -16 -14 -17 -14 -16 -14 -17 -14 -18 
-14 -17 -14 -18 -13 -19 -13 -18 -13 -19 -13 -19 -12 -19 -12 -20 
-12 -20 -12 -20 -11 -21 -11 -21 -11 -21 -11 -21 -10 -21 -10 -22 
-9 -22 -10 -22 -9 -23 -8 -22 -9 -23 -7 -23 -8 -23 -7 -23 
-7 -24 -7 -24 -6 -24 -5 -24 -6 -24 -5 -24 -4 -24 -4 -25 
-4 -24 -3 -25 -3 -25 -3 -25 -2 -25 -1 -25 -2 -24 0 -25 
-1 -25 0 -26 1 -25 0 -25 2 -24 1 -25 2 -25 3 -25 
3 -25 3 -25 4 -24 4 -25 4 -24 5 -24 6 -24 5 -24 
6 -24 7 -24 7 -24 7 -23 8 -23 7 -23 9 -23 8 -22 
9 -23 10 -22 9 -22 10 -22 10 -21 11 -21 11 -21 11 -21 
11 -21 12 -20 12 -20 12 -20 12 -19 13 -19 13 -19 13 -18 
13 -19 14 -18 14 -17 14 -18 14 -17 14 -16 14 -17 15 -16 
15 -16 15 -16 15 -15 4636 3559 100 MP stroke
-15 -16 -15 -15 -15 -16 -14 -16 -15 -17 -14 -17 -14 -17 -14 -17 
-14 -18 -13 -18 -13 -18 -14 -19 -12 -19 -13 -19 -12 -19 -13 -20 
-11 -20 -12 -20 -11 -21 -12 -21 -10 -21 -11 -21 -10 -22 -10 -22 
-10 -22 -9 -22 -9 -22 -8 -23 -9 -23 -7 -23 -8 -23 -7 -24 
-7 -23 -6 -24 -7 -24 -5 -24 -5 -25 -5 -24 -5 -24 -4 -25 
-4 -25 -3 -24 -3 -25 -2 -25 -3 -25 -1 -25 -1 -25 -1 -25 
-1 -25 0 -26 1 -25 1 -25 1 -25 1 -25 3 -25 2 -25 
3 -25 3 -24 4 -25 4 -25 5 -24 5 -24 5 -25 5 -24 
7 -24 6 -24 7 -23 7 -24 8 -23 7 -23 9 -23 8 -23 
9 -22 9 -22 10 -22 10 -22 10 -22 11 -21 10 -21 12 -21 
11 -21 12 -20 11 -20 13 -20 12 -19 13 -19 12 -19 14 -19 
13 -18 13 -18 14 -18 14 -17 14 -17 14 -17 15 -17 14 -16 
15 -16 15 -15 15 -16 4632 3563 100 MP stroke
-15 -16 -14 -15 -15 -16 -14 -17 -15 -17 -14 -17 -14 -17 -13 -17 
-14 -18 -13 -19 -13 -18 -13 -19 -13 -19 -13 -19 -12 -20 -12 -20 
-12 -20 -11 -21 -11 -21 -11 -21 -11 -21 -11 -22 -10 -22 -9 -22 
-10 -22 -9 -22 -9 -23 -8 -23 -9 -23 -7 -24 -8 -23 -7 -24 
-7 -24 -6 -24 -6 -24 -6 -25 -5 -24 -5 -25 -4 -25 -5 -25 
-3 -25 -3 -25 -3 -25 -3 -25 -2 -26 -2 -25 -1 -25 -1 -26 
0 -76 1 -26 1 -25 2 -25 2 -26 3 -25 3 -25 3 -25 
3 -25 5 -25 4 -25 5 -25 5 -24 6 -25 6 -24 6 -24 
7 -24 7 -24 8 -23 7 -24 9 -23 8 -23 9 -23 9 -22 
10 -22 9 -22 10 -22 11 -22 11 -21 11 -21 11 -21 11 -21 
12 -20 12 -20 12 -20 13 -19 13 -19 13 -19 13 -18 13 -19 
14 -18 13 -17 14 -17 14 -17 15 -17 14 -17 15 -16 14 -15 
15 -16 4619 3576 98 MP stroke
-15 -16 -14 -16 -15 -16 -14 -16 -14 -17 -14 -17 -14 -18 -13 -18 
-14 -18 -13 -18 -13 -19 -13 -19 -13 -19 -12 -20 -12 -20 -12 -20 
-12 -21 -11 -20 -11 -22 -11 -21 -11 -21 -10 -22 -10 -22 -10 -23 
-9 -22 -9 -23 -9 -23 -8 -23 -8 -24 -8 -24 -8 -23 -7 -24 
-6 -25 -7 -24 -6 -25 -5 -24 -5 -25 -5 -25 -5 -25 -4 -26 
-3 -25 -4 -25 -2 -26 -3 -26 -2 -25 -2 -26 -1 -26 -1 -25 
0 -78 1 -25 1 -26 2 -26 2 -25 3 -26 2 -26 4 -25 
3 -25 4 -26 5 -25 5 -25 5 -25 5 -24 6 -25 7 -24 
6 -25 7 -24 8 -23 8 -24 8 -24 8 -23 9 -23 9 -23 
9 -22 10 -23 10 -22 10 -22 11 -21 11 -21 11 -22 11 -20 
12 -21 12 -20 12 -20 12 -20 13 -19 13 -19 13 -19 13 -18 
14 -18 13 -18 14 -18 14 -17 14 -17 14 -16 15 -16 14 -16 
15 -16 4605 3589 98 MP stroke
-14 -16 -14 -17 -14 -17 -13 -17 -14 -17 -13 -18 -14 -18 -13 -18 
-13 -19 -12 -19 -13 -20 -12 -19 -12 -20 -12 -21 -12 -20 -11 -21 
-12 -22 -11 -21 -10 -22 -11 -22 -10 -23 -10 -22 -10 -23 -9 -24 
-9 -23 -9 -24 -8 -24 -8 -24 -8 -24 -8 -25 -7 -25 -7 -25 
-6 -25 -6 -26 -6 -25 -5 -26 -5 -26 -5 -26 -4 -26 -4 -26 
-4 -27 -3 -26 -3 -27 -2 -27 -2 -26 -1 -27 -2 -27 0 -27 
-1 -27 0 -26 1 -27 0 -27 2 -27 1 -27 2 -26 2 -27 
3 -27 3 -26 4 -27 4 -26 4 -26 5 -26 5 -26 5 -26 
6 -25 6 -26 6 -25 7 -25 7 -25 8 -25 8 -24 8 -24 
8 -24 9 -24 9 -23 9 -24 10 -23 10 -22 10 -23 11 -22 
10 -22 11 -21 12 -22 11 -21 12 -20 12 -21 12 -20 12 -19 
13 -20 12 -19 13 -19 13 -18 14 -18 13 -18 14 -17 13 -17 
14 -17 14 -17 14 -16 4558 3632 100 MP stroke
-14 -16 -14 -17 -14 -17 -14 -17 -13 -17 -14 -18 -13 -18 -13 -19 
-13 -19 -12 -19 -13 -19 -12 -20 -12 -20 -12 -20 -12 -21 -11 -21 
-11 -21 -11 -22 -11 -22 -11 -22 -10 -23 -10 -22 -9 -23 -10 -24 
-9 -23 -8 -24 -9 -24 -8 -24 -8 -25 -7 -25 -7 -25 -7 -25 
-6 -25 -7 -25 -5 -26 -6 -26 -5 -26 -4 -26 -5 -26 -3 -27 
-4 -26 -3 -27 -3 -26 -2 -27 -2 -27 -2 -27 -1 -27 -1 -27 
0 -80 1 -27 1 -27 2 -27 2 -27 2 -27 3 -26 3 -27 
4 -26 3 -27 5 -26 4 -26 5 -26 6 -26 5 -26 7 -25 
6 -25 7 -25 7 -25 7 -25 8 -25 8 -24 9 -24 8 -24 
9 -23 10 -24 9 -23 10 -22 10 -23 11 -22 11 -22 11 -22 
11 -21 11 -21 12 -21 12 -20 12 -20 12 -20 13 -19 12 -19 
13 -19 13 -19 13 -18 14 -18 13 -17 14 -17 14 -17 14 -17 
14 -16 4554 3635 98 MP stroke
-13 -16 -14 -17 -14 -17 -13 -17 -14 -18 -13 -18 -13 -18 -13 -19 
-13 -19 -12 -19 -13 -20 -12 -20 -12 -20 -12 -20 -11 -21 -11 -21 
-11 -22 -11 -22 -11 -22 -10 -22 -10 -23 -10 -23 -10 -23 -9 -24 
-9 -23 -9 -24 -8 -25 -8 -24 -8 -25 -7 -25 -7 -25 -7 -25 
-6 -26 -6 -26 -6 -25 -5 -27 -5 -26 -5 -26 -4 -27 -4 -26 
-3 -27 -3 -27 -3 -27 -2 -27 -2 -27 -2 -27 -1 -27 -1 -27 
0 -82 1 -27 1 -27 2 -27 2 -27 2 -27 3 -27 3 -27 
3 -27 4 -26 4 -27 5 -26 5 -26 5 -27 6 -25 6 -26 
6 -26 7 -25 7 -25 7 -25 8 -25 8 -24 8 -25 9 -24 
9 -23 9 -24 10 -23 10 -23 10 -23 10 -22 11 -22 11 -22 
11 -22 11 -21 11 -21 12 -20 12 -20 12 -20 13 -20 12 -19 
13 -19 13 -19 13 -18 13 -18 14 -18 13 -17 14 -17 14 -17 
13 -16 4543 3645 98 MP stroke
-13 -17 -14 -16 -14 -17 -13 -18 -13 -18 -13 -18 -13 -18 -13 -19 
-13 -19 -12 -19 -12 -20 -12 -20 -12 -21 -12 -20 -11 -21 -11 -22 
-11 -22 -11 -22 -11 -22 -10 -22 -10 -23 -9 -23 -10 -24 -9 -24 
-9 -24 -8 -24 -9 -24 -8 -25 -7 -25 -8 -25 -7 -25 -6 -26 
-7 -26 -6 -26 -5 -26 -5 -26 -5 -27 -5 -26 -4 -27 -4 -27 
-3 -27 -3 -27 -3 -27 -3 -27 -1 -28 -2 -27 -1 -27 -1 -28 
0 -82 1 -28 1 -27 2 -27 1 -28 3 -27 3 -27 3 -27 
3 -27 4 -27 4 -27 5 -26 5 -27 5 -26 5 -26 6 -26 
7 -26 6 -26 7 -25 8 -25 7 -25 8 -25 9 -24 8 -24 
9 -24 9 -24 10 -24 9 -23 10 -23 10 -22 11 -22 11 -22 
11 -22 11 -22 11 -21 12 -20 12 -21 12 -20 12 -20 12 -19 
13 -19 13 -19 13 -18 13 -18 13 -18 13 -18 14 -17 14 -16 
13 -17 4531 3655 98 MP stroke
-13 -16 -13 -18 -13 -17 -13 -18 -13 -18 -12 -19 -13 -18 -12 -20 
-12 -19 -12 -20 -12 -20 -11 -21 -12 -21 -11 -21 -11 -22 -11 -22 
-11 -22 -10 -23 -10 -23 -10 -23 -9 -23 -10 -24 -9 -24 -9 -25 
-8 -24 -9 -25 -8 -25 -7 -26 -8 -25 -7 -26 -6 -26 -7 -27 
-6 -26 -6 -27 -5 -27 -5 -27 -5 -27 -4 -28 -4 -27 -4 -28 
-3 -28 -3 -28 -3 -28 -2 -28 -2 -28 -2 -28 -1 -28 -1 -29 
0 -84 1 -29 1 -28 2 -28 2 -28 2 -28 3 -28 3 -28 
3 -28 4 -28 4 -27 4 -28 5 -27 5 -27 5 -27 6 -27 
6 -26 7 -27 6 -26 7 -26 8 -25 7 -26 8 -25 9 -25 
8 -24 9 -25 9 -24 10 -24 9 -23 10 -23 10 -23 10 -23 
11 -22 11 -22 11 -22 11 -21 12 -21 11 -21 12 -20 12 -20 
12 -19 12 -20 13 -18 12 -19 13 -18 13 -18 13 -17 13 -18 
13 -16 4490 3687 98 MP stroke
-13 -17 -13 -17 -13 -18 -13 -18 -13 -18 -12 -19 -13 -19 -12 -19 
-12 -20 -12 -20 -11 -20 -12 -21 -11 -21 -11 -21 -11 -22 -11 -22 
-10 -22 -11 -23 -10 -23 -10 -23 -9 -24 -9 -24 -9 -24 -9 -25 
-9 -24 -8 -25 -8 -26 -7 -25 -8 -26 -7 -26 -6 -26 -7 -27 
-6 -27 -6 -27 -5 -27 -5 -27 -5 -27 -4 -28 -4 -28 -4 -27 
-3 -28 -3 -28 -3 -29 -2 -28 -2 -28 -1 -28 -1 -29 -1 -28 
0 -86 1 -28 1 -29 1 -28 2 -28 2 -28 3 -29 3 -28 
3 -28 4 -27 4 -28 4 -28 5 -27 5 -27 5 -27 6 -27 
6 -27 7 -27 6 -26 7 -26 8 -26 7 -25 8 -26 8 -25 
9 -24 9 -25 9 -24 9 -24 9 -24 10 -23 10 -23 11 -23 
10 -22 11 -22 11 -22 11 -21 11 -21 12 -21 11 -20 12 -20 
12 -20 12 -19 13 -19 12 -19 13 -18 13 -18 13 -18 13 -17 
13 -17 4481 3694 98 MP stroke
-12 -17 -13 -18 -13 -17 -12 -19 -12 -18 -12 -19 -12 -19 -12 -20 
-12 -20 -11 -20 -12 -21 -11 -21 -11 -21 -11 -22 -11 -22 -10 -23 
-10 -22 -10 -24 -10 -23 -9 -24 -10 -24 -9 -24 -9 -25 -8 -25 
-8 -25 -8 -25 -8 -26 -8 -26 -7 -26 -6 -27 -7 -27 -6 -27 
-6 -27 -6 -27 -5 -28 -5 -28 -4 -28 -5 -28 -4 -28 -3 -28 
-3 -29 -3 -28 -3 -29 -2 -29 -2 -29 -1 -29 -1 -29 -1 -28 
0 -88 1 -28 1 -29 1 -29 2 -29 2 -29 3 -29 3 -28 
3 -29 3 -28 4 -28 5 -28 4 -28 5 -28 5 -28 6 -27 
6 -27 6 -27 7 -27 6 -27 7 -26 8 -26 8 -26 8 -25 
8 -25 8 -25 9 -25 9 -24 10 -24 9 -24 10 -23 10 -24 
10 -22 10 -23 11 -22 11 -22 11 -21 11 -21 12 -21 11 -20 
12 -20 12 -20 12 -19 12 -19 12 -18 12 -19 13 -17 13 -18 
12 -17 4453 3715 98 MP stroke
-13 -17 -12 -17 -12 -19 -12 -18 -12 -19 -12 -19 -11 -19 -12 -20 
-11 -21 -11 -20 -11 -21 -11 -22 -11 -21 -11 -23 -10 -22 -10 -23 
-10 -23 -10 -23 -9 -24 -9 -24 -9 -25 -9 -25 -9 -25 -8 -25 
-8 -26 -8 -26 -7 -26 -7 -26 -7 -27 -7 -27 -6 -27 -6 -28 
-6 -27 -6 -28 -5 -28 -4 -29 -5 -28 -4 -29 -4 -28 -3 -29 
-3 -29 -3 -29 -3 -30 -2 -29 -2 -29 -1 -30 -1 -29 -1 -30 
0 -88 1 -30 1 -29 1 -30 2 -29 2 -29 3 -30 3 -29 
3 -29 3 -29 4 -28 4 -29 5 -28 4 -29 5 -28 6 -28 
6 -27 6 -28 6 -27 7 -27 7 -27 7 -26 7 -26 8 -26 
8 -26 8 -25 9 -25 9 -25 9 -25 9 -24 9 -24 10 -23 
10 -23 10 -23 10 -22 11 -23 11 -21 11 -22 11 -21 11 -20 
11 -21 12 -20 11 -19 12 -19 12 -19 12 -18 12 -19 12 -17 
13 -17 4423 3735 98 MP stroke
-11 -18 -11 -18 -10 -19 -11 -19 -11 -20 -10 -20 -10 -20 -11 -21 
-10 -21 -10 -22 -10 -22 -9 -22 -10 -23 -9 -23 -9 -24 -9 -24 
-9 -24 -9 -25 -8 -25 -8 -25 -8 -26 -8 -26 -8 -26 -7 -27 
-7 -27 -7 -27 -7 -28 -7 -28 -6 -28 -6 -28 -5 -29 -6 -29 
-5 -29 -5 -30 -4 -29 -4 -30 -4 -30 -4 -30 -4 -31 -3 -30 
-2 -31 -3 -31 -2 -31 -2 -31 -2 -31 -1 -31 -1 -31 0 -31 
-1 -31 0 -32 1 -31 0 -31 1 -31 1 -31 2 -31 2 -31 
2 -31 3 -31 2 -31 3 -30 4 -31 4 -30 4 -30 4 -30 
4 -29 5 -30 5 -29 6 -29 5 -29 6 -28 6 -28 7 -28 
7 -28 7 -27 7 -27 7 -27 8 -26 8 -26 8 -26 8 -25 
8 -25 9 -25 9 -24 9 -24 9 -24 9 -23 10 -23 9 -22 
10 -22 10 -22 10 -21 11 -21 10 -20 10 -20 11 -20 11 -19 
10 -19 11 -18 11 -18 4320 3800 100 MP stroke
-10 -18 -11 -18 -10 -19 -11 -20 -10 -19 -10 -20 -11 -21 -10 -21 
-9 -21 -10 -22 -10 -22 -9 -23 -10 -23 -9 -23 -9 -24 -8 -24 
-9 -24 -9 -25 -8 -25 -8 -26 -8 -26 -7 -26 -8 -27 -7 -27 
-7 -27 -7 -27 -6 -28 -7 -28 -6 -29 -5 -28 -6 -29 -5 -30 
-5 -29 -5 -30 -4 -30 -5 -30 -4 -30 -3 -30 -4 -31 -3 -31 
-2 -31 -3 -31 -2 -31 -2 -31 -1 -31 -1 -32 -1 -31 -1 -32 
0 -94 1 -32 1 -31 1 -32 1 -31 2 -31 2 -31 3 -31 
2 -31 3 -31 4 -31 3 -30 4 -30 5 -30 4 -30 5 -30 
5 -29 5 -30 6 -29 5 -28 6 -29 7 -28 6 -28 7 -27 
7 -27 7 -27 8 -27 7 -26 8 -26 8 -26 8 -25 9 -25 
9 -24 8 -24 9 -24 9 -23 10 -23 9 -23 10 -22 10 -22 
9 -21 10 -21 11 -21 10 -20 10 -19 11 -20 10 -19 11 -18 
10 -18 4302 3810 98 MP stroke
-10 -19 -10 -18 -10 -20 -9 -20 -10 -20 -9 -20 -9 -21 -10 -22 
-9 -21 -9 -23 -8 -22 -9 -23 -9 -24 -8 -24 -8 -24 -8 -25 
-8 -25 -8 -25 -8 -26 -7 -26 -7 -27 -7 -27 -7 -27 -7 -27 
-6 -28 -7 -29 -6 -28 -5 -29 -6 -29 -5 -30 -5 -29 -5 -30 
-5 -30 -4 -31 -4 -31 -4 -30 -4 -32 -3 -31 -3 -31 -3 -32 
-3 -32 -2 -31 -2 -32 -2 -32 -1 -33 -1 -32 -1 -32 0 -32 
-1 -33 0 -32 1 -33 0 -32 1 -32 1 -32 1 -33 2 -32 
2 -32 2 -31 3 -32 3 -32 3 -31 3 -31 4 -32 4 -30 
4 -31 4 -31 5 -30 5 -30 5 -29 5 -30 6 -29 5 -29 
6 -28 7 -29 6 -28 7 -27 7 -27 7 -27 7 -27 7 -26 
8 -26 8 -25 8 -25 8 -25 8 -24 8 -24 9 -24 9 -23 
8 -22 9 -23 9 -21 10 -22 9 -21 9 -20 10 -20 9 -20 
10 -20 10 -18 10 -19 4239 3843 100 MP stroke
-9 -19 -9 -19 -8 -20 -9 -20 -9 -21 -8 -20 -9 -22 -8 -22 
-8 -22 -8 -23 -8 -23 -8 -23 -8 -24 -8 -25 -7 -24 -7 -26 
-8 -25 -7 -26 -7 -26 -6 -27 -7 -27 -6 -28 -7 -28 -6 -28 
-5 -28 -6 -29 -6 -29 -5 -30 -5 -30 -5 -30 -4 -30 -5 -31 
-4 -31 -4 -31 -4 -31 -3 -32 -4 -32 -3 -32 -2 -32 -3 -32 
-2 -33 -2 -33 -2 -32 -2 -33 -1 -33 -1 -33 -1 -33 0 -33 
-1 -33 0 -34 1 -33 0 -33 1 -33 1 -33 1 -33 2 -33 
2 -32 2 -33 2 -33 3 -32 2 -32 3 -32 4 -32 3 -32 
4 -31 4 -31 4 -31 5 -31 4 -30 5 -30 5 -30 5 -30 
6 -29 6 -29 5 -28 6 -28 7 -28 6 -28 7 -27 6 -27 
7 -26 7 -26 8 -25 7 -26 7 -24 8 -25 8 -24 8 -23 
8 -23 8 -23 8 -22 8 -22 9 -22 8 -20 9 -21 9 -20 
8 -20 9 -19 9 -19 4175 3873 100 MP stroke
-6 -20 -5 -20 -6 -20 -5 -21 -6 -22 -5 -22 -5 -22 -5 -23 
-5 -23 -6 -24 -4 -24 -5 -25 -5 -25 -5 -26 -5 -26 -4 -26 
-5 -27 -4 -28 -5 -28 -4 -28 -4 -28 -4 -30 -4 -29 -4 -30 
-3 -30 -4 -30 -3 -31 -4 -32 -3 -31 -3 -32 -3 -32 -3 -33 
-2 -33 -3 -33 -2 -33 -2 -34 -2 -33 -2 -34 -2 -34 -2 -35 
-1 -34 -1 -35 -1 -35 -1 -35 -1 -35 -1 -35 0 -35 -1 -35 
0 -106 1 -35 0 -35 1 -35 1 -35 1 -35 1 -35 1 -35 
1 -34 2 -35 2 -34 2 -34 2 -33 2 -34 2 -33 3 -33 
2 -33 3 -33 3 -32 3 -32 3 -31 4 -32 3 -31 4 -30 
3 -30 4 -30 4 -29 4 -30 4 -28 4 -28 5 -28 4 -28 
5 -27 4 -26 5 -26 5 -26 5 -25 5 -25 4 -24 6 -24 
5 -23 5 -23 5 -22 5 -22 6 -22 5 -21 6 -20 5 -20 
6 -20 3945 3951 98 MP stroke
-6 -20 -5 -20 -5 -21 -5 -21 -5 -21 -5 -22 -5 -23 -5 -23 
-5 -23 -5 -24 -5 -24 -4 -25 -5 -25 -5 -26 -4 -26 -4 -27 
-5 -27 -4 -27 -4 -28 -4 -29 -4 -28 -4 -29 -3 -30 -4 -30 
-3 -30 -4 -31 -3 -31 -3 -31 -3 -32 -3 -32 -3 -32 -3 -33 
-2 -33 -2 -33 -3 -33 -2 -34 -2 -34 -2 -34 -1 -34 -2 -35 
-1 -34 -1 -35 -1 -35 -1 -35 -1 -35 -1 -35 0 -71 -1 -35 
0 -36 1 -35 0 -71 1 -35 1 -35 1 -35 1 -35 1 -35 
1 -34 2 -35 1 -34 2 -34 2 -34 2 -34 3 -33 2 -33 
2 -33 3 -33 3 -32 3 -32 3 -32 3 -31 3 -31 4 -31 
3 -30 4 -30 3 -30 4 -29 4 -28 4 -29 4 -28 4 -27 
5 -27 4 -27 4 -26 5 -26 5 -25 4 -25 5 -24 5 -24 
5 -23 5 -23 5 -23 5 -22 5 -21 5 -21 5 -21 5 -20 
6 -20 3926 3956 98 MP stroke
-4 -19 -4 -21 -5 -20 -4 -22 -4 -21 -4 -23 -4 -22 -4 -23 
-4 -24 -4 -24 -4 -25 -4 -25 -4 -25 -3 -26 -4 -26 -4 -27 
-3 -27 -4 -28 -3 -28 -3 -29 -4 -29 -3 -29 -3 -30 -3 -30 
-2 -31 -3 -31 -3 -31 -2 -32 -3 -32 -2 -32 -3 -33 -2 -33 
-2 -33 -2 -33 -2 -34 -1 -34 -2 -34 -1 -35 -2 -34 -1 -35 
-1 -35 -1 -35 -1 -36 -1 -35 0 -36 -1 -35 0 -36 -1 -35 
0 -108 1 -35 0 -36 1 -35 0 -36 1 -35 1 -36 1 -35 
1 -35 1 -35 2 -34 1 -35 2 -34 1 -34 2 -34 2 -33 
2 -33 2 -33 3 -33 2 -32 3 -32 2 -32 3 -31 3 -31 
2 -31 3 -30 3 -30 3 -29 4 -29 3 -29 3 -28 4 -28 
3 -27 4 -27 4 -26 3 -26 4 -25 4 -25 4 -25 4 -24 
4 -24 4 -23 4 -22 4 -23 4 -21 4 -22 5 -20 4 -21 
4 -19 3863 3969 98 MP stroke
-3 -20 -3 -20 -3 -21 -4 -21 -3 -22 -3 -22 -3 -23 -3 -23 
-4 -24 -3 -24 -3 -25 -3 -25 -2 -26 -3 -26 -3 -27 -3 -27 
-3 -27 -2 -28 -3 -28 -2 -29 -3 -29 -2 -30 -3 -30 -2 -30 
-2 -31 -2 -31 -2 -32 -2 -32 -2 -32 -2 -33 -2 -32 -2 -34 
-1 -33 -2 -34 -1 -34 -1 -34 -2 -35 -1 -34 -1 -35 -1 -35 
-1 -36 -1 -35 0 -36 -1 -35 0 -36 -1 -36 0 -252 1 -36 
0 -36 1 -35 0 -36 1 -35 1 -36 1 -35 1 -35 1 -34 
2 -35 1 -34 1 -34 2 -34 1 -33 2 -34 2 -32 2 -33 
2 -32 2 -32 2 -32 2 -31 2 -31 2 -30 3 -30 2 -30 
3 -29 2 -29 3 -28 2 -28 3 -27 3 -27 3 -27 3 -26 
2 -26 3 -25 3 -25 3 -24 4 -24 3 -23 3 -23 3 -22 
3 -22 4 -21 3 -21 3 -20 3 -20 3799 3980 94 MP stroke
0 -105 1 -22 -1 -23 1 -24 -1 -24 0 -295 1 -29 -1 -30 
1 -30 -1 -31 0 -31 1 -32 -1 -32 0 -65 1 -32 0 -34 
-1 -33 0 -314 1 -36 0 -36 -1 -36 1 -36 -1 -37 1 -36 
-1 -36 1 -37 0 -36 -1 -37 1 -36 -1 -36 0 -323 1 -35 
-1 -34 0 -568 1 -28 -1 -27 0 -130 1 -24 0 -137 -1 -21 
1 -20 -1 -20 3580 3996 43 MP stroke
1 -20 1 -21 1 -21 1 -21 1 -22 1 -23 1 -23 1 -23 
1 -24 1 -24 0 -25 1 -26 1 -26 1 -26 1 -27 1 -27 
1 -28 0 -28 1 -29 1 -29 1 -29 0 -30 1 -30 1 -31 
0 -31 1 -32 1 -31 0 -33 1 -32 0 -33 1 -33 0 -34 
1 -34 0 -34 1 -34 0 -35 1 -35 0 -70 1 -36 0 -143 
1 -36 0 -328 -1 -36 0 -143 -1 -36 0 -70 -1 -35 0 -35 
-1 -34 0 -34 -1 -34 0 -34 -1 -33 0 -33 -1 -32 0 -33 
-1 -31 -1 -32 0 -31 -1 -31 -1 -30 0 -30 -1 -29 -1 -29 
-1 -29 0 -28 -1 -28 -1 -27 -1 -27 -1 -26 -1 -26 -1 -26 
0 -25 -1 -24 -1 -24 -1 -23 -1 -23 -1 -23 -1 -22 -1 -21 
-1 -21 -1 -21 -1 -20 3514 3995 84 MP stroke
4 -20 4 -20 4 -21 5 -21 4 -22 4 -22 4 -23 4 -23 
4 -24 4 -24 4 -24 4 -25 3 -26 4 -26 4 -26 3 -27 
4 -27 3 -28 3 -28 4 -29 3 -29 3 -29 3 -30 3 -30 
3 -31 3 -31 2 -31 3 -32 2 -32 3 -32 2 -33 2 -32 
2 -34 2 -33 2 -34 2 -34 1 -34 2 -35 1 -34 1 -35 
1 -35 1 -35 1 -36 1 -35 1 -36 0 -35 1 -36 0 -178 
-1 -36 0 -35 -1 -36 -1 -35 -1 -36 -1 -35 -1 -35 -1 -35 
-1 -34 -2 -35 -1 -34 -2 -34 -2 -34 -2 -33 -2 -34 -2 -32 
-2 -33 -3 -32 -2 -32 -3 -32 -2 -31 -3 -31 -3 -31 -3 -30 
-3 -30 -3 -29 -3 -29 -4 -29 -3 -28 -3 -28 -4 -27 -3 -27 
-4 -26 -4 -26 -3 -26 -4 -25 -4 -24 -4 -24 -4 -24 -4 -23 
-4 -23 -4 -22 -4 -22 -5 -21 -4 -21 -4 -20 -4 -20 3297 3970 96 MP stroke
7 -19 7 -20 8 -20 7 -21 7 -21 7 -21 7 -22 7 -23 
7 -22 6 -24 7 -23 7 -25 6 -24 6 -25 7 -26 6 -26 
6 -26 6 -27 5 -27 6 -27 5 -28 6 -28 5 -29 5 -29 
5 -30 5 -29 4 -30 5 -31 4 -31 4 -31 4 -31 3 -32 
4 -31 3 -33 3 -32 3 -33 3 -32 2 -34 3 -33 2 -33 
2 -34 1 -33 2 -34 1 -34 1 -34 1 -34 1 -34 0 -35 
1 -34 0 -34 -1 -34 0 -35 -1 -34 -1 -34 -1 -34 -1 -34 
-2 -34 -1 -33 -2 -34 -2 -33 -3 -33 -2 -34 -3 -32 -3 -33 
-3 -32 -3 -33 -4 -31 -3 -32 -4 -31 -4 -31 -4 -31 -5 -31 
-4 -30 -5 -29 -5 -30 -5 -29 -5 -29 -6 -28 -5 -28 -6 -27 
-5 -27 -6 -27 -6 -26 -6 -26 -7 -26 -6 -25 -6 -24 -7 -25 
-7 -23 -6 -24 -7 -22 -7 -23 -7 -22 -7 -21 -7 -21 -7 -21 
-8 -20 -7 -20 -7 -19 3089 3914 100 MP stroke
15 -15 15 -16 15 -16 15 -16 14 -17 14 -16 14 -17 14 -18 
14 -17 14 -18 13 -19 13 -18 13 -19 13 -19 12 -19 12 -20 
12 -20 12 -20 11 -21 11 -21 11 -21 11 -21 10 -21 10 -22 
9 -22 10 -22 9 -23 8 -22 9 -23 7 -23 8 -23 7 -23 
7 -24 7 -24 6 -24 5 -24 6 -24 5 -24 4 -24 4 -25 
4 -24 3 -25 3 -25 3 -25 2 -25 1 -25 2 -24 0 -25 
1 -25 0 -26 -1 -25 0 -25 -2 -24 -1 -25 -2 -25 -3 -25 
-3 -25 -3 -25 -4 -24 -4 -25 -4 -24 -5 -24 -6 -24 -5 -24 
-6 -24 -7 -24 -7 -24 -7 -23 -8 -23 -7 -23 -9 -23 -8 -22 
-9 -23 -10 -22 -9 -22 -10 -22 -10 -21 -11 -21 -11 -21 -11 -21 
-11 -21 -12 -20 -12 -20 -12 -20 -12 -19 -13 -19 -13 -19 -13 -18 
-13 -19 -14 -18 -14 -17 -14 -18 -14 -17 -14 -16 -14 -17 -15 -16 
-15 -16 -15 -16 -15 -15 2523 3559 100 MP stroke
-15 -15 -16 -15 -15 -14 -17 -15 -16 -14 -17 -15 -17 -14 -17 -14 
-18 -14 -18 -13 -18 -13 -19 -14 -18 -12 -20 -13 -19 -13 -20 -12 
-20 -12 -20 -11 -20 -12 -21 -11 -21 -11 -21 -10 -22 -10 -21 -10 
-22 -10 -23 -9 -22 -9 -23 -9 -22 -8 -23 -8 -24 -8 -23 -7 
-24 -7 -23 -6 -24 -6 -24 -6 -24 -5 -25 -5 -24 -5 -24 -4 
-25 -3 -25 -4 -24 -3 -25 -2 -25 -2 -25 -2 -25 -1 -25 -1 
-25 0 -25 0 -25 0 -25 1 -25 1 -25 2 -25 2 -25 2 
-24 3 -25 4 -25 3 -24 4 -24 5 -25 5 -24 5 -24 6 
-24 6 -23 6 -24 7 -23 7 -24 8 -23 8 -22 8 -23 9 
-22 9 -23 9 -22 10 -21 10 -22 10 -21 10 -21 11 -21 11 
-20 12 -20 11 -20 12 -20 12 -19 13 -20 13 -18 12 -19 14 
-18 13 -18 13 -18 14 -17 14 -17 14 -17 15 -16 14 -17 15 
-15 14 -16 15 -15 15 4636 3559 100 MP stroke
-15 -15 -16 -15 -15 -14 -17 -15 -16 -14 -17 -15 -17 -14 -17 -14 
-18 -13 -18 -14 -18 -13 -19 -13 -19 -13 -19 -13 -19 -12 -20 -13 
-20 -11 -20 -12 -21 -11 -20 -12 -21 -10 -22 -11 -21 -10 -22 -10 
-22 -10 -22 -9 -22 -9 -23 -8 -23 -9 -23 -8 -23 -7 -24 -7 
-23 -7 -24 -7 -24 -6 -24 -6 -24 -5 -24 -5 -25 -4 -24 -4 
-25 -4 -24 -3 -25 -3 -25 -3 -25 -2 -25 -2 -25 -1 -25 -1 
-25 0 -25 0 -25 0 -25 1 -25 1 -25 2 -25 2 -25 3 
-25 3 -24 3 -25 4 -24 4 -25 4 -24 5 -24 5 -24 6 
-24 6 -24 7 -23 7 -24 7 -23 7 -23 8 -23 9 -23 8 
-22 9 -22 9 -22 10 -22 10 -21 10 -22 11 -21 10 -20 12 
-21 11 -20 12 -20 11 -20 13 -19 12 -19 13 -19 13 -19 13 
-18 13 -18 14 -18 13 -17 14 -17 14 -17 15 -16 14 -17 15 
-15 14 -16 15 -15 15 4637 3558 100 MP stroke
-15 -15 -16 -15 -16 -14 -16 -15 -17 -14 -17 -15 -17 -14 -17 -13 
-18 -14 -18 -14 -18 -13 -19 -13 -19 -13 -19 -12 -20 -13 -20 -12 
-20 -12 -20 -11 -21 -12 -20 -11 -22 -10 -21 -11 -22 -10 -21 -10 
-23 -10 -22 -9 -22 -9 -23 -8 -23 -9 -23 -7 -24 -8 -23 -7 
-24 -7 -24 -6 -24 -6 -24 -6 -24 -5 -25 -5 -24 -5 -25 -4 
-25 -4 -24 -3 -25 -3 -25 -2 -25 -2 -25 -2 -26 -1 -25 -1 
-25 -1 -25 0 -25 1 -25 1 -26 1 -25 2 -25 2 -25 2 
-25 3 -24 3 -25 4 -25 4 -24 5 -25 5 -24 5 -24 6 
-24 6 -24 6 -24 7 -23 7 -24 8 -23 7 -23 9 -23 8 
-22 9 -22 9 -23 10 -21 10 -22 10 -21 11 -22 10 -20 11 
-21 12 -20 11 -20 12 -20 12 -20 13 -19 12 -19 13 -19 13 
-18 13 -18 14 -18 14 -17 13 -17 14 -17 15 -17 14 -16 15 
-16 14 -16 15 -15 15 4643 3552 100 MP stroke
-16 -15 -15 -15 -16 -14 -17 -15 -16 -14 -17 -14 -18 -14 -17 -14 
-18 -14 -18 -13 -19 -13 -18 -13 -19 -13 -20 -13 -19 -12 -20 -12 
-20 -12 -21 -11 -21 -12 -21 -11 -21 -10 -21 -11 -22 -10 -22 -10 
-22 -9 -23 -10 -22 -8 -23 -9 -23 -8 -24 -8 -23 -8 -24 -7 
-23 -7 -24 -6 -25 -6 -24 -6 -24 -5 -25 -5 -25 -4 -24 -4 
-25 -4 -25 -3 -25 -3 -26 -3 -25 -2 -25 -1 -25 -2 -26 0 
-25 -1 -25 0 -25 1 -26 0 -25 2 -25 1 -25 2 -26 3 
-25 3 -25 3 -25 4 -24 4 -25 4 -25 5 -24 5 -24 6 
-25 6 -24 6 -23 7 -24 7 -23 8 -24 8 -23 8 -23 9 
-22 8 -23 10 -22 9 -22 10 -22 10 -21 11 -21 10 -21 11 
-21 12 -21 11 -20 12 -20 12 -19 12 -20 13 -19 13 -18 13 
-19 13 -18 13 -18 14 -17 14 -18 14 -17 14 -16 14 -17 15 
-16 14 -15 15 -16 15 4649 3546 100 MP stroke
-15 -14 -16 -14 -17 -15 -17 -14 -17 -14 -17 -13 -18 -14 -18 -13 
-18 -14 -19 -13 -19 -13 -19 -12 -19 -13 -20 -12 -20 -12 -21 -12 
-21 -11 -21 -12 -21 -11 -22 -10 -21 -11 -23 -10 -22 -10 -23 -9 
-22 -10 -24 -9 -23 -8 -24 -9 -23 -8 -24 -7 -25 -8 -24 -7 
-24 -6 -25 -7 -25 -5 -25 -6 -25 -5 -26 -5 -25 -4 -26 -4 
-25 -4 -26 -3 -26 -3 -26 -2 -26 -2 -26 -2 -26 -1 -26 -1 
-26 0 -27 0 -26 0 -26 1 -26 1 -26 2 -26 2 -26 2 
-26 3 -26 3 -25 4 -26 4 -25 4 -26 5 -25 5 -25 6 
-25 5 -25 7 -24 6 -24 7 -25 8 -24 7 -23 8 -24 9 
-23 8 -24 9 -22 10 -23 9 -22 10 -23 10 -21 11 -22 10 
-21 11 -21 12 -21 11 -21 12 -20 12 -20 12 -19 13 -19 12 
-19 13 -19 13 -18 14 -18 13 -18 14 -17 13 -17 14 -17 14 
-17 15 -16 14 -15 14 4680 3513 100 MP stroke
-16 -14 -16 -15 -16 -14 -17 -14 -17 -14 -17 -13 -18 -14 -18 -13 
-19 -14 -18 -13 -19 -13 -20 -12 -19 -13 -20 -12 -20 -12 -21 -12 
-20 -11 -22 -11 -21 -11 -21 -11 -22 -11 -23 -10 -22 -10 -23 -9 
-23 -9 -23 -9 -23 -9 -24 -8 -24 -8 -24 -8 -24 -7 -24 -7 
-25 -7 -25 -6 -25 -6 -25 -6 -25 -5 -25 -5 -26 -4 -25 -4 
-26 -3 -26 -4 -26 -3 -26 -2 -26 -2 -26 -2 -26 -1 -26 -1 
-26 0 -27 0 -26 0 -26 1 -26 1 -26 2 -26 2 -26 2 
-26 3 -26 4 -26 3 -25 4 -26 4 -25 5 -25 5 -25 6 
-25 6 -25 6 -25 7 -24 7 -24 7 -24 8 -24 8 -24 8 
-23 9 -23 9 -23 9 -23 9 -22 10 -23 10 -22 11 -21 11 
-21 11 -22 11 -20 11 -21 12 -20 12 -20 12 -19 13 -20 12 
-19 13 -18 13 -19 14 -18 13 -18 14 -17 13 -17 14 -17 14 
-16 14 -16 15 -16 14 4682 3511 100 MP stroke
-16 -14 -16 -14 -16 -14 -17 -14 -17 -14 -18 -14 -18 -13 -18 -13 
-18 -13 -19 -13 -19 -13 -20 -13 -20 -12 -20 -12 -20 -12 -21 -12 
-21 -11 -21 -11 -21 -11 -22 -11 -22 -10 -23 -10 -22 -10 -23 -10 
-23 -9 -23 -9 -24 -8 -24 -9 -24 -7 -24 -8 -25 -7 -24 -7 
-25 -7 -25 -6 -25 -6 -26 -5 -25 -5 -26 -5 -25 -5 -26 -3 
-26 -4 -26 -3 -26 -3 -27 -2 -26 -2 -26 -2 -26 -1 -27 -1 
-26 0 -27 0 -26 0 -27 1 -26 1 -26 2 -26 2 -27 2 
-26 3 -26 3 -26 4 -26 3 -25 5 -26 5 -25 5 -26 5 
-25 6 -25 6 -25 7 -24 7 -25 7 -24 8 -24 7 -24 9 
-24 8 -23 9 -23 9 -23 10 -22 10 -23 10 -22 10 -22 11 
-21 11 -21 11 -21 11 -21 12 -20 12 -20 12 -20 12 -20 13 
-19 13 -19 13 -18 13 -18 13 -18 13 -18 14 -17 14 -17 14 
-16 14 -16 14 -16 14 4691 3501 100 MP stroke
-16 -15 -17 -14 -17 -14 -17 -13 -17 -14 -17 -14 -18 -13 -19 -13 
-18 -13 -19 -13 -20 -13 -19 -12 -20 -12 -20 -12 -21 -12 -21 -12 
-21 -11 -21 -11 -22 -11 -22 -10 -22 -11 -23 -10 -22 -9 -23 -10 
-24 -9 -23 -9 -24 -8 -24 -8 -24 -8 -25 -8 -24 -7 -25 -7 
-25 -6 -25 -7 -26 -5 -25 -6 -26 -5 -26 -5 -26 -4 -26 -4 
-26 -3 -26 -4 -27 -2 -26 -3 -27 -2 -26 -1 -27 -1 -27 -1 
-26 -1 -27 0 -26 1 -27 1 -27 1 -26 1 -27 2 -26 3 
-27 2 -26 4 -26 3 -26 4 -26 4 -26 5 -26 5 -25 6 
-26 5 -25 7 -25 6 -25 7 -24 7 -25 8 -24 8 -24 8 
-24 8 -23 9 -24 9 -23 10 -22 9 -23 10 -22 11 -22 10 
-22 11 -21 11 -21 11 -21 12 -21 12 -20 12 -20 12 -19 12 
-20 13 -19 13 -18 13 -19 13 -18 13 -17 14 -17 14 -17 13 
-17 14 -17 14 -16 15 4701 3490 100 MP stroke
-16 -13 -17 -13 -18 -14 -17 -13 -18 -13 -19 -12 -18 -13 -19 -13 
-20 -12 -19 -12 -21 -12 -20 -12 -21 -12 -21 -11 -21 -11 -22 -11 
-22 -11 -22 -10 -23 -11 -23 -10 -23 -9 -24 -10 -23 -9 -24 -9 
-25 -9 -24 -8 -25 -8 -25 -8 -26 -8 -25 -7 -26 -7 -26 -6 
-26 -6 -27 -6 -26 -6 -27 -5 -27 -5 -27 -4 -27 -4 -28 -4 
-27 -3 -28 -3 -27 -3 -28 -2 -28 -2 -28 -2 -28 -1 -28 -1 
-28 0 -27 0 -28 0 -28 1 -28 1 -28 2 -28 2 -28 2 
-27 3 -28 3 -27 3 -28 4 -27 4 -27 4 -27 5 -27 5 
-26 6 -27 6 -26 6 -26 6 -26 7 -25 7 -26 8 -25 8 
-25 8 -24 8 -25 9 -24 9 -23 9 -24 10 -23 9 -23 10 
-23 11 -22 10 -22 11 -22 11 -21 11 -21 11 -21 12 -20 12 
-21 12 -19 12 -20 12 -19 13 -18 13 -19 12 -18 13 -17 13 
-18 14 -17 13 -16 13 4751 3430 100 MP stroke
-17 -13 -17 -14 -17 -13 -18 -13 -18 -13 -18 -12 -19 -13 -19 -13 
-19 -12 -20 -12 -20 -12 -21 -12 -21 -11 -21 -12 -21 -11 -22 -11 
-22 -10 -22 -11 -23 -10 -23 -10 -24 -10 -23 -9 -24 -9 -24 -9 
-25 -9 -24 -8 -25 -8 -25 -8 -26 -8 -26 -7 -25 -7 -27 -6 
-26 -6 -26 -6 -27 -6 -27 -5 -27 -5 -27 -4 -27 -4 -28 -4 
-27 -3 -28 -3 -28 -3 -28 -2 -27 -2 -28 -1 -28 -2 -28 0 
-28 -1 -29 0 -28 1 -28 0 -28 2 -28 1 -27 2 -28 2 
-28 3 -28 3 -27 3 -28 4 -27 4 -27 4 -27 5 -27 5 
-27 6 -26 6 -26 6 -27 6 -25 7 -26 7 -26 8 -25 8 
-25 8 -24 8 -25 9 -24 9 -24 9 -23 9 -24 10 -23 10 
-23 10 -22 11 -22 10 -22 11 -21 11 -21 12 -21 11 -21 12 
-20 12 -20 12 -19 12 -19 13 -19 13 -18 12 -18 13 -18 13 
-17 13 -17 14 -17 13 4755 3425 100 MP stroke
-17 -13 -18 -13 -17 -13 -18 -12 -18 -13 -19 -12 -19 -13 -20 -12 
-19 -12 -20 -12 -21 -11 -21 -12 -21 -11 -21 -11 -22 -11 -22 -11 
-23 -10 -22 -10 -23 -10 -24 -10 -24 -10 -24 -9 -24 -9 -24 -8 
-25 -9 -26 -8 -25 -8 -26 -8 -25 -7 -27 -7 -26 -6 -27 -7 
-26 -6 -27 -6 -28 -5 -27 -5 -27 -5 -28 -4 -28 -4 -28 -4 
-28 -3 -28 -3 -28 -2 -29 -3 -28 -1 -29 -2 -28 -1 -29 -1 
-28 0 -29 0 -28 0 -29 1 -28 1 -29 2 -28 1 -29 3 
-28 2 -28 3 -28 3 -28 4 -28 4 -28 4 -27 5 -27 5 
-28 5 -27 6 -26 6 -27 7 -26 6 -27 7 -25 7 -26 8 
-25 8 -26 8 -25 9 -24 8 -24 9 -24 9 -24 10 -24 10 
-23 10 -22 10 -23 10 -22 11 -22 11 -21 11 -21 11 -21 12 
-21 11 -20 12 -19 12 -20 12 -19 13 -19 12 -18 13 -18 12 
-17 13 -18 13 -17 13 4776 3398 100 MP stroke
-17 -13 -18 -13 -18 -12 -18 -12 -18 -13 -19 -12 -20 -12 -19 -12 
-20 -11 -21 -12 -21 -11 -21 -11 -21 -11 -22 -11 -22 -10 -23 -11 
-22 -10 -24 -10 -23 -10 -24 -9 -24 -9 -24 -9 -25 -9 -25 -9 
-25 -8 -26 -8 -26 -7 -26 -8 -26 -7 -27 -7 -27 -6 -27 -6 
-27 -6 -27 -6 -28 -5 -28 -5 -28 -5 -28 -4 -28 -4 -29 -3 
-28 -3 -29 -3 -29 -3 -29 -2 -29 -2 -29 -1 -29 -1 -29 -1 
-29 0 -29 0 -29 0 -29 1 -29 1 -29 1 -29 2 -29 2 
-29 3 -29 3 -28 3 -29 3 -28 4 -28 4 -28 5 -28 5 
-28 5 -27 6 -27 6 -27 6 -27 6 -27 7 -26 7 -26 8 
-26 7 -26 8 -25 8 -25 9 -25 9 -24 9 -24 9 -24 9 
-23 10 -24 10 -22 10 -23 11 -22 10 -22 11 -21 11 -21 11 
-21 11 -21 12 -20 11 -19 12 -20 12 -19 12 -18 13 -18 12 
-18 12 -18 13 -17 13 4796 3370 100 MP stroke
-18 -10 -19 -10 -19 -11 -19 -10 -20 -10 -21 -10 -20 -9 -21 -10 
-22 -10 -22 -9 -22 -9 -23 -10 -23 -9 -24 -9 -24 -8 -24 -9 
-25 -8 -25 -8 -25 -8 -26 -8 -26 -8 -27 -7 -26 -8 -28 -7 
-27 -6 -28 -7 -28 -6 -28 -6 -29 -6 -29 -6 -29 -5 -30 -6 
-29 -4 -30 -5 -31 -4 -30 -4 -31 -4 -30 -4 -31 -3 -31 -3 
-32 -3 -31 -2 -31 -2 -32 -2 -32 -1 -31 -1 -32 -1 -32 -1 
-32 0 -31 0 -32 0 -32 1 -32 1 -31 1 -32 1 -32 2 
-31 2 -31 2 -32 3 -31 3 -31 3 -30 4 -31 4 -30 4 
-31 4 -30 5 -29 4 -30 6 -29 5 -29 6 -29 6 -28 6 
-28 6 -28 7 -27 6 -28 7 -26 8 -27 7 -26 8 -26 8 
-25 8 -25 8 -25 8 -24 9 -24 8 -24 9 -23 9 -23 10 
-22 9 -22 9 -22 10 -21 10 -20 9 -21 10 -20 10 -19 10 
-19 11 -19 10 -18 10 4900 3202 100 MP stroke
-19 -10 -18 -10 -19 -10 -20 -10 -20 -10 -20 -10 -21 -10 -21 -9 
-22 -10 -22 -9 -22 -9 -23 -9 -23 -9 -24 -9 -24 -9 -24 -8 
-25 -9 -25 -8 -26 -8 -26 -7 -26 -8 -26 -7 -27 -7 -28 -7 
-27 -7 -28 -7 -28 -6 -29 -6 -29 -6 -29 -5 -29 -6 -30 -5 
-30 -4 -30 -5 -30 -4 -30 -4 -31 -4 -31 -4 -31 -3 -31 -3 
-32 -2 -31 -3 -32 -2 -31 -1 -32 -2 -32 -1 -32 -1 -32 -1 
-32 0 -31 0 -32 0 -32 1 -32 1 -32 1 -32 2 -31 1 
-32 2 -31 3 -32 2 -31 3 -31 3 -31 4 -31 4 -30 4 
-30 4 -30 5 -30 4 -30 5 -29 6 -29 5 -29 6 -29 6 
-28 6 -28 7 -27 7 -28 7 -27 7 -26 7 -26 8 -26 7 
-26 8 -25 8 -25 9 -24 8 -24 9 -24 9 -23 9 -23 9 
-22 9 -22 9 -22 10 -21 9 -21 10 -20 10 -20 10 -20 10 
-19 10 -18 10 -19 10 4905 3193 100 MP stroke
-19 -9 -19 -10 -19 -9 -20 -10 -20 -9 -21 -9 -21 -9 -21 -9 
-22 -9 -23 -8 -23 -9 -23 -8 -23 -9 -24 -8 -25 -8 -25 -8 
-25 -8 -26 -7 -26 -8 -26 -7 -27 -7 -27 -7 -27 -6 -28 -7 
-28 -6 -28 -6 -29 -6 -29 -6 -30 -5 -29 -5 -30 -5 -30 -5 
-31 -4 -31 -5 -30 -4 -32 -3 -31 -4 -31 -3 -32 -3 -32 -3 
-32 -2 -32 -2 -32 -2 -33 -2 -32 -1 -32 -1 -33 -1 -33 -1 
-32 0 -33 0 -32 0 -33 1 -33 1 -32 1 -32 1 -33 2 
-32 2 -32 2 -32 2 -32 3 -32 3 -31 3 -31 4 -32 3 
-30 4 -31 5 -31 4 -30 5 -30 5 -29 5 -30 5 -29 6 
-29 6 -28 6 -28 6 -28 7 -27 6 -27 7 -27 7 -26 7 
-26 8 -26 7 -25 8 -25 8 -25 8 -24 8 -23 9 -23 8 
-23 9 -23 8 -22 9 -21 9 -21 9 -21 9 -20 9 -20 10 
-19 9 -19 10 -19 9 4930 3142 100 MP stroke
-19 -8 -20 -9 -19 -9 -20 -8 -21 -9 -21 -8 -21 -9 -22 -8 
-23 -8 -22 -8 -23 -8 -24 -8 -24 -7 -24 -8 -25 -7 -25 -8 
-26 -7 -26 -7 -27 -7 -26 -6 -27 -7 -28 -6 -28 -6 -28 -6 
-29 -6 -29 -6 -29 -5 -30 -5 -30 -5 -30 -5 -30 -5 -31 -4 
-31 -4 -31 -4 -32 -4 -31 -3 -32 -3 -32 -3 -33 -3 -32 -3 
-33 -2 -32 -2 -33 -2 -33 -1 -33 -2 -33 -1 -33 0 -34 -1 
-33 0 -33 0 -33 0 -34 1 -33 0 -33 1 -33 2 -33 1 
-33 2 -32 2 -33 2 -32 3 -33 3 -32 3 -32 3 -31 3 
-32 4 -31 4 -31 4 -31 4 -30 5 -30 5 -30 5 -30 5 
-29 5 -29 6 -29 6 -28 6 -28 6 -28 6 -27 7 -26 6 
-27 7 -26 7 -26 7 -25 8 -25 7 -24 8 -24 7 -24 8 
-23 8 -22 8 -23 8 -22 8 -21 9 -21 8 -21 9 -20 8 
-19 9 -20 9 -19 8 4954 3090 100 MP stroke
-19 -4 -21 -4 -21 -4 -21 -4 -22 -4 -22 -4 -22 -4 -24 -4 
-23 -4 -24 -4 -25 -3 -25 -4 -25 -4 -26 -3 -27 -4 -27 -3 
-27 -3 -28 -4 -28 -3 -29 -3 -29 -3 -29 -3 -30 -3 -30 -3 
-31 -2 -31 -3 -31 -3 -32 -2 -32 -2 -32 -3 -33 -2 -33 -2 
-33 -2 -34 -2 -34 -1 -34 -2 -34 -2 -35 -1 -34 -1 -35 -2 
-35 -1 -35 -1 -36 0 -35 -1 -36 -1 -35 0 -36 -1 -36 0 
-36 0 -35 0 -36 0 -36 0 -36 1 -35 0 -36 1 -35 1 
-36 0 -35 1 -35 1 -35 2 -34 1 -35 1 -34 2 -34 2 
-34 1 -34 2 -33 2 -33 2 -33 2 -32 3 -32 2 -32 2 
-31 3 -31 3 -31 2 -30 3 -30 3 -29 3 -29 3 -29 3 
-28 3 -28 4 -27 3 -27 3 -27 4 -26 3 -25 4 -25 4 
-25 3 -24 4 -23 4 -24 4 -22 4 -22 4 -22 4 -21 4 
-21 4 -21 4 -19 4 5049 2772 100 MP stroke
-19 -4 -21 -4 -21 -3 -21 -4 -22 -4 -22 -4 -23 -4 -23 -3 
-23 -4 -25 -4 -24 -3 -25 -4 -26 -3 -26 -3 -26 -4 -27 -3 
-27 -3 -28 -3 -28 -3 -29 -3 -29 -3 -30 -3 -30 -3 -30 -3 
-31 -2 -31 -3 -31 -2 -32 -3 -32 -2 -32 -2 -33 -2 -33 -2 
-33 -2 -34 -2 -34 -1 -34 -2 -34 -1 -35 -2 -35 -1 -35 -1 
-35 -1 -35 -1 -35 -1 -36 -1 -36 0 -35 -1 -36 0 -36 0 
-36 0 -35 0 -36 0 -36 0 -36 0 -35 1 -36 0 -36 1 
-35 1 -35 1 -35 1 -35 1 -35 1 -35 2 -34 1 -34 2 
-34 1 -34 2 -33 2 -33 2 -33 2 -32 2 -32 2 -32 3 
-31 2 -31 3 -31 2 -30 3 -30 3 -30 3 -29 3 -29 3 
-28 3 -28 3 -27 3 -27 3 -26 4 -26 3 -26 3 -25 4 
-24 3 -25 4 -23 4 -23 3 -23 4 -22 4 -22 4 -21 4 
-21 3 -21 4 -19 4 5051 2761 100 MP stroke
-20 -3 -20 -2 -21 -3 -21 -3 -22 -3 -23 -3 -22 -3 -24 -2 
-23 -3 -25 -3 -24 -3 -26 -2 -25 -3 -27 -2 -26 -3 -27 -2 
-28 -3 -28 -2 -28 -2 -29 -3 -29 -2 -30 -2 -30 -2 -31 -2 
-30 -2 -32 -2 -31 -2 -32 -1 -33 -2 -32 -2 -33 -1 -34 -2 
-33 -1 -34 -2 -34 -1 -34 -1 -35 -1 -35 -1 -35 -1 -35 -1 
-35 -1 -36 0 -36 -1 -35 0 -36 -1 -36 0 -36 -1 -36 0 
-36 0 -37 0 -36 0 -36 0 -36 1 -36 0 -36 1 -35 0 
-36 1 -36 0 -35 1 -35 1 -35 1 -35 1 -35 1 -34 1 
-34 1 -34 2 -33 1 -34 2 -33 1 -32 2 -33 2 -32 1 
-31 2 -32 2 -30 2 -31 2 -30 2 -30 2 -29 2 -29 3 
-28 2 -28 2 -28 3 -27 2 -26 3 -27 2 -25 3 -26 2 
-24 3 -25 3 -23 3 -24 2 -22 3 -23 3 -22 3 -21 3 
-21 3 -20 2 -20 3 5061 2696 100 MP stroke
-20 -2 -20 -2 -21 -2 -21 -2 -22 -1 -23 -2 -23 -2 -23 -2 
-24 -2 -24 -2 -25 -1 -26 -2 -25 -2 -27 -1 -26 -2 -28 -2 
-27 -1 -28 -2 -29 -1 -29 -2 -29 -1 -30 -2 -30 -1 -31 -1 
-31 -2 -31 -1 -32 -1 -32 -1 -33 -2 -33 -1 -33 -1 -33 -1 
-34 -1 -34 0 -34 -1 -35 -1 -35 -1 -35 0 -35 -1 -35 -1 
-36 0 -36 -1 -35 0 -36 0 -36 -1 -37 0 -36 0 -36 0 
-36 0 -37 0 -36 0 -36 0 -36 0 -37 0 -36 1 -36 0 
-35 0 -36 1 -36 0 -35 1 -35 1 -35 0 -35 1 -35 1 
-34 1 -34 0 -34 1 -33 1 -33 1 -33 1 -33 2 -32 1 
-32 1 -31 1 -31 2 -31 1 -30 1 -30 2 -29 1 -29 2 
-29 1 -28 2 -27 1 -28 2 -26 2 -27 1 -25 2 -26 2 
-25 1 -24 2 -24 2 -23 2 -23 2 -23 2 -22 1 -21 2 
-21 2 -20 2 -20 2 5068 2630 100 MP stroke
-20 4 -21 3 -20 4 -22 4 -22 3 -22 4 -23 3 -23 4 
-23 3 -25 4 -24 3 -25 4 -26 3 -26 3 -26 3 -27 3 
-28 3 -28 3 -28 3 -29 3 -29 3 -29 3 -30 2 -30 3 
-31 2 -31 3 -32 2 -32 2 -32 2 -32 3 -33 2 -33 1 
-33 2 -34 2 -34 1 -34 2 -35 1 -34 2 -35 1 -35 1 
-35 1 -36 1 -35 1 -36 0 -35 1 -36 0 -36 0 -36 1 
-36 0 -35 0 -36 0 -36 -1 -36 0 -36 0 -35 -1 -36 0 
-35 -1 -36 -1 -35 -1 -35 -1 -35 -1 -34 -2 -35 -1 -34 -2 
-34 -1 -34 -2 -33 -2 -33 -1 -33 -2 -32 -3 -32 -2 -32 -2 
-32 -2 -31 -3 -31 -2 -30 -3 -30 -2 -29 -3 -29 -3 -29 -3 
-28 -3 -28 -3 -28 -3 -27 -3 -26 -3 -26 -3 -26 -3 -25 -4 
-24 -3 -25 -4 -23 -3 -23 -4 -23 -3 -22 -4 -22 -3 -22 -4 
-20 -4 -21 -3 -20 -4 5054 2256 100 MP stroke
-20 4 -20 4 -21 4 -21 4 -22 4 -22 4 -23 4 -23 3 
-24 4 -24 4 -25 3 -25 4 -25 4 -26 3 -26 4 -27 3 
-28 3 -27 4 -29 3 -28 3 -29 3 -30 3 -30 3 -30 3 
-30 2 -31 3 -32 2 -32 3 -32 2 -32 2 -33 3 -33 2 
-33 2 -34 1 -33 2 -35 2 -34 1 -34 2 -35 1 -35 1 
-35 1 -35 1 -36 1 -35 1 -36 0 -35 1 -36 0 -36 0 
-36 0 -35 0 -36 0 -36 0 -36 0 -35 -1 -36 0 -35 -1 
-36 -1 -35 -1 -35 -1 -35 -1 -35 -1 -34 -2 -34 -1 -35 -2 
-33 -2 -34 -1 -33 -2 -33 -2 -33 -3 -32 -2 -32 -2 -32 -3 
-32 -2 -31 -3 -30 -2 -30 -3 -30 -3 -30 -3 -29 -3 -28 -3 
-29 -3 -27 -4 -28 -3 -27 -3 -26 -4 -26 -3 -25 -4 -25 -4 
-25 -3 -24 -4 -24 -4 -23 -3 -23 -4 -22 -4 -22 -4 -21 -4 
-21 -4 -20 -4 -20 -4 5050 2234 100 MP stroke
-19 6 -20 6 -21 6 -21 6 -21 5 -22 6 -22 6 -23 5 
-23 6 -24 5 -24 5 -25 5 -25 6 -25 5 -26 5 -27 5 
-27 4 -27 5 -28 5 -28 4 -28 5 -29 4 -29 4 -30 4 
-30 4 -31 4 -30 3 -31 4 -32 3 -32 3 -32 4 -32 2 
-33 3 -33 3 -33 2 -33 3 -34 2 -34 2 -34 2 -34 2 
-34 1 -35 1 -34 2 -35 1 -35 1 -35 0 -35 1 -35 0 
-35 0 -35 0 -35 0 -35 0 -35 -1 -35 0 -35 -1 -35 -1 
-34 -2 -35 -1 -34 -1 -34 -2 -34 -2 -34 -2 -34 -2 -33 -3 
-33 -2 -33 -3 -33 -3 -32 -2 -32 -4 -32 -3 -32 -3 -31 -4 
-30 -3 -31 -4 -30 -4 -30 -4 -29 -4 -29 -4 -28 -5 -28 -4 
-28 -5 -27 -5 -27 -4 -27 -5 -26 -5 -25 -5 -25 -6 -25 -5 
-24 -5 -24 -5 -23 -6 -23 -5 -22 -6 -22 -6 -21 -5 -21 -6 
-21 -6 -20 -6 -19 -6 5022 2113 100 MP stroke
-19 8 -19 7 -20 8 -21 7 -21 7 -21 8 -22 7 -23 7 
-22 7 -23 7 -24 7 -24 7 -25 6 -25 7 -25 6 -26 7 
-26 6 -26 6 -28 6 -27 6 -28 5 -28 6 -28 5 -29 5 
-30 6 -29 4 -30 5 -31 5 -30 4 -31 4 -31 4 -32 4 
-31 4 -32 3 -33 3 -32 3 -33 3 -33 3 -33 2 -33 2 
-34 2 -33 2 -34 2 -34 1 -33 1 -34 1 -34 1 -34 0 
-34 0 -35 0 -34 0 -34 0 -34 -1 -34 -1 -33 -1 -34 -1 
-34 -2 -33 -2 -34 -2 -33 -2 -33 -2 -33 -3 -33 -3 -32 -3 
-33 -3 -32 -3 -31 -4 -32 -4 -31 -4 -31 -4 -30 -4 -31 -5 
-30 -5 -29 -4 -30 -6 -29 -5 -28 -5 -28 -6 -28 -5 -27 -6 
-28 -6 -26 -6 -26 -6 -26 -7 -25 -6 -25 -7 -25 -6 -24 -7 
-24 -7 -23 -7 -22 -7 -23 -7 -22 -7 -21 -8 -21 -7 -21 -7 
-20 -8 -19 -7 -19 -8 4985 1995 100 MP stroke
-15 15 -16 15 -15 14 -17 15 -16 14 -17 15 -17 14 -17 14 
-18 14 -18 13 -18 13 -19 14 -18 12 -20 13 -19 13 -20 12 
-20 12 -20 11 -20 12 -21 11 -21 11 -21 10 -22 10 -21 10 
-22 10 -23 9 -22 9 -23 9 -22 8 -23 8 -24 8 -23 7 
-24 7 -23 6 -24 6 -24 6 -24 5 -25 5 -24 5 -24 4 
-25 3 -25 4 -24 3 -25 2 -25 2 -25 2 -25 1 -25 1 
-25 0 -25 0 -25 0 -25 -1 -25 -1 -25 -2 -25 -2 -25 -2 
-24 -3 -25 -4 -25 -3 -24 -4 -24 -5 -25 -5 -24 -5 -24 -6 
-24 -6 -23 -6 -24 -7 -23 -7 -24 -8 -23 -8 -22 -8 -23 -9 
-22 -9 -23 -9 -22 -10 -21 -10 -22 -10 -21 -10 -21 -11 -21 -11 
-20 -12 -20 -11 -20 -12 -20 -12 -19 -13 -20 -13 -18 -12 -19 -14 
-18 -13 -18 -13 -18 -14 -17 -14 -17 -14 -17 -15 -16 -14 -17 -15 
-15 -14 -16 -15 -15 -15 4636 1445 100 MP stroke
6 w
gr

c8

end %%Color Dict

eplot
%%EndObject

epage
end

showpage

%%Trailer
%%EOF
