%!PS-Adobe-3.0 EPSF-3.0
%%Creator: (MATLAB, The Mathworks, Inc. Version 9.0.0.341360 \(R2016a\). Operating System: Windows 7)
%%Title: D:/codes/PHTdynamic/2D/figures/kh_cirplateGIFT.eps
%%CreationDate: 2017-01-10T16:15:12
%%Pages: (atend)
%%BoundingBox:   125    71   310   255
%%LanguageLevel: 3
%%EndComments
%%BeginProlog
%%BeginResource: procset (Apache XML Graphics Std ProcSet) 1.2 0
%%Version: 1.2 0
%%Copyright: (Copyright 2001-2003,2010 The Apache Software Foundation. License terms: http://www.apache.org/licenses/LICENSE-2.0)
/bd{bind def}bind def
/ld{load def}bd
/GR/grestore ld
/M/moveto ld
/LJ/setlinejoin ld
/C/curveto ld
/f/fill ld
/LW/setlinewidth ld
/GC/setgray ld
/t/show ld
/N/newpath ld
/CT/concat ld
/cp/closepath ld
/S/stroke ld
/L/lineto ld
/CC/setcmykcolor ld
/A/ashow ld
/GS/gsave ld
/RC/setrgbcolor ld
/RM/rmoveto ld
/ML/setmiterlimit ld
/re {4 2 roll M
1 index 0 rlineto
0 exch rlineto
neg 0 rlineto
cp } bd
/_ctm matrix def
/_tm matrix def
/BT { _ctm currentmatrix pop matrix _tm copy pop 0 0 moveto } bd
/ET { _ctm setmatrix } bd
/iTm { _ctm setmatrix _tm concat } bd
/Tm { _tm astore pop iTm 0 0 moveto } bd
/ux 0.0 def
/uy 0.0 def
/F {
  /Tp exch def
  /Tf exch def
  Tf findfont Tp scalefont setfont
  /cf Tf def  /cs Tp def
} bd
/ULS {currentpoint /uy exch def /ux exch def} bd
/ULE {
  /Tcx currentpoint pop def
  gsave
  newpath
  cf findfont cs scalefont dup
  /FontMatrix get 0 get /Ts exch def /FontInfo get dup
  /UnderlinePosition get Ts mul /To exch def
  /UnderlineThickness get Ts mul /Tt exch def
  ux uy To add moveto  Tcx uy To add lineto
  Tt setlinewidth stroke
  grestore
} bd
/OLE {
  /Tcx currentpoint pop def
  gsave
  newpath
  cf findfont cs scalefont dup
  /FontMatrix get 0 get /Ts exch def /FontInfo get dup
  /UnderlinePosition get Ts mul /To exch def
  /UnderlineThickness get Ts mul /Tt exch def
  ux uy To add cs add moveto Tcx uy To add cs add lineto
  Tt setlinewidth stroke
  grestore
} bd
/SOE {
  /Tcx currentpoint pop def
  gsave
  newpath
  cf findfont cs scalefont dup
  /FontMatrix get 0 get /Ts exch def /FontInfo get dup
  /UnderlinePosition get Ts mul /To exch def
  /UnderlineThickness get Ts mul /Tt exch def
  ux uy To add cs 10 mul 26 idiv add moveto Tcx uy To add cs 10 mul 26 idiv add lineto
  Tt setlinewidth stroke
  grestore
} bd
/QT {
/Y22 exch store
/X22 exch store
/Y21 exch store
/X21 exch store
currentpoint
/Y21 load 2 mul add 3 div exch
/X21 load 2 mul add 3 div exch
/X21 load 2 mul /X22 load add 3 div
/Y21 load 2 mul /Y22 load add 3 div
/X22 load /Y22 load curveto
} bd
/SSPD {
dup length /d exch dict def
{
/v exch def
/k exch def
currentpagedevice k known {
/cpdv currentpagedevice k get def
v cpdv ne {
/upd false def
/nullv v type /nulltype eq def
/nullcpdv cpdv type /nulltype eq def
nullv nullcpdv or
{
/upd true def
} {
/sametype v type cpdv type eq def
sametype {
v type /arraytype eq {
/vlen v length def
/cpdvlen cpdv length def
vlen cpdvlen eq {
0 1 vlen 1 sub {
/i exch def
/obj v i get def
/cpdobj cpdv i get def
obj cpdobj ne {
/upd true def
exit
} if
} for
} {
/upd true def
} ifelse
} {
v type /dicttype eq {
v {
/dv exch def
/dk exch def
/cpddv cpdv dk get def
dv cpddv ne {
/upd true def
exit
} if
} forall
} {
/upd true def
} ifelse
} ifelse
} if
} ifelse
upd true eq {
d k v put
} if
} if
} if
} forall
d length 0 gt {
d setpagedevice
} if
} bd
%%EndResource
%%BeginResource: procset (Apache XML Graphics EPS ProcSet) 1.0 0
%%Version: 1.0 0
%%Copyright: (Copyright 2002-2003 The Apache Software Foundation. License terms: http://www.apache.org/licenses/LICENSE-2.0)
/BeginEPSF { %def
/b4_Inc_state save def         % Save state for cleanup
/dict_count countdictstack def % Count objects on dict stack
/op_count count 1 sub def      % Count objects on operand stack
userdict begin                 % Push userdict on dict stack
/showpage { } def              % Redefine showpage, { } = null proc
0 setgray 0 setlinecap         % Prepare graphics state
1 setlinewidth 0 setlinejoin
10 setmiterlimit [ ] 0 setdash newpath
/languagelevel where           % If level not equal to 1 then
{pop languagelevel             % set strokeadjust and
1 ne                           % overprint to their defaults.
{false setstrokeadjust false setoverprint
} if
} if
} bd
/EndEPSF { %def
count op_count sub {pop} repeat            % Clean up stacks
countdictstack dict_count sub {end} repeat
b4_Inc_state restore
} bd
%%EndResource
%FOPBeginFontDict
%%IncludeResource: font Courier-Bold
%%IncludeResource: font Helvetica
%%IncludeResource: font Courier-BoldOblique
%%IncludeResource: font Courier-Oblique
%%IncludeResource: font Times-Roman
%%IncludeResource: font Helvetica-BoldOblique
%%IncludeResource: font Helvetica-Bold
%%IncludeResource: font Helvetica-Oblique
%%IncludeResource: font Times-BoldItalic
%%IncludeResource: font Courier
%%IncludeResource: font Times-Italic
%%IncludeResource: font Times-Bold
%%IncludeResource: font Symbol
%%IncludeResource: font ZapfDingbats
%FOPEndFontDict
%%BeginResource: encoding WinAnsiEncoding
/WinAnsiEncoding [
/.notdef /.notdef /.notdef /.notdef /.notdef
/.notdef /.notdef /.notdef /.notdef /.notdef
/.notdef /.notdef /.notdef /.notdef /.notdef
/.notdef /.notdef /.notdef /.notdef /.notdef
/.notdef /.notdef /.notdef /.notdef /.notdef
/.notdef /.notdef /.notdef /.notdef /.notdef
/.notdef /.notdef /space /exclam /quotedbl
/numbersign /dollar /percent /ampersand /quotesingle
/parenleft /parenright /asterisk /plus /comma
/hyphen /period /slash /zero /one
/two /three /four /five /six
/seven /eight /nine /colon /semicolon
/less /equal /greater /question /at
/A /B /C /D /E
/F /G /H /I /J
/K /L /M /N /O
/P /Q /R /S /T
/U /V /W /X /Y
/Z /bracketleft /backslash /bracketright /asciicircum
/underscore /quoteleft /a /b /c
/d /e /f /g /h
/i /j /k /l /m
/n /o /p /q /r
/s /t /u /v /w
/x /y /z /braceleft /bar
/braceright /asciitilde /bullet /Euro /bullet
/quotesinglbase /florin /quotedblbase /ellipsis /dagger
/daggerdbl /circumflex /perthousand /Scaron /guilsinglleft
/OE /bullet /Zcaron /bullet /bullet
/quoteleft /quoteright /quotedblleft /quotedblright /bullet
/endash /emdash /asciitilde /trademark /scaron
/guilsinglright /oe /bullet /zcaron /Ydieresis
/space /exclamdown /cent /sterling /currency
/yen /brokenbar /section /dieresis /copyright
/ordfeminine /guillemotleft /logicalnot /sfthyphen /registered
/macron /degree /plusminus /twosuperior /threesuperior
/acute /mu /paragraph /middot /cedilla
/onesuperior /ordmasculine /guillemotright /onequarter /onehalf
/threequarters /questiondown /Agrave /Aacute /Acircumflex
/Atilde /Adieresis /Aring /AE /Ccedilla
/Egrave /Eacute /Ecircumflex /Edieresis /Igrave
/Iacute /Icircumflex /Idieresis /Eth /Ntilde
/Ograve /Oacute /Ocircumflex /Otilde /Odieresis
/multiply /Oslash /Ugrave /Uacute /Ucircumflex
/Udieresis /Yacute /Thorn /germandbls /agrave
/aacute /acircumflex /atilde /adieresis /aring
/ae /ccedilla /egrave /eacute /ecircumflex
/edieresis /igrave /iacute /icircumflex /idieresis
/eth /ntilde /ograve /oacute /ocircumflex
/otilde /odieresis /divide /oslash /ugrave
/uacute /ucircumflex /udieresis /yacute /thorn
/ydieresis
] def
%%EndResource
%FOPBeginFontReencode
/Courier-Bold findfont
dup length dict begin
  {1 index /FID ne {def} {pop pop} ifelse} forall
  /Encoding WinAnsiEncoding def
  currentdict
end
/Courier-Bold exch definefont pop
/Helvetica findfont
dup length dict begin
  {1 index /FID ne {def} {pop pop} ifelse} forall
  /Encoding WinAnsiEncoding def
  currentdict
end
/Helvetica exch definefont pop
/Courier-BoldOblique findfont
dup length dict begin
  {1 index /FID ne {def} {pop pop} ifelse} forall
  /Encoding WinAnsiEncoding def
  currentdict
end
/Courier-BoldOblique exch definefont pop
/Courier-Oblique findfont
dup length dict begin
  {1 index /FID ne {def} {pop pop} ifelse} forall
  /Encoding WinAnsiEncoding def
  currentdict
end
/Courier-Oblique exch definefont pop
/Times-Roman findfont
dup length dict begin
  {1 index /FID ne {def} {pop pop} ifelse} forall
  /Encoding WinAnsiEncoding def
  currentdict
end
/Times-Roman exch definefont pop
/Helvetica-BoldOblique findfont
dup length dict begin
  {1 index /FID ne {def} {pop pop} ifelse} forall
  /Encoding WinAnsiEncoding def
  currentdict
end
/Helvetica-BoldOblique exch definefont pop
/Helvetica-Bold findfont
dup length dict begin
  {1 index /FID ne {def} {pop pop} ifelse} forall
  /Encoding WinAnsiEncoding def
  currentdict
end
/Helvetica-Bold exch definefont pop
/Helvetica-Oblique findfont
dup length dict begin
  {1 index /FID ne {def} {pop pop} ifelse} forall
  /Encoding WinAnsiEncoding def
  currentdict
end
/Helvetica-Oblique exch definefont pop
/Times-BoldItalic findfont
dup length dict begin
  {1 index /FID ne {def} {pop pop} ifelse} forall
  /Encoding WinAnsiEncoding def
  currentdict
end
/Times-BoldItalic exch definefont pop
/Courier findfont
dup length dict begin
  {1 index /FID ne {def} {pop pop} ifelse} forall
  /Encoding WinAnsiEncoding def
  currentdict
end
/Courier exch definefont pop
/Times-Italic findfont
dup length dict begin
  {1 index /FID ne {def} {pop pop} ifelse} forall
  /Encoding WinAnsiEncoding def
  currentdict
end
/Times-Italic exch definefont pop
/Times-Bold findfont
dup length dict begin
  {1 index /FID ne {def} {pop pop} ifelse} forall
  /Encoding WinAnsiEncoding def
  currentdict
end
/Times-Bold exch definefont pop
%FOPEndFontReencode
%%EndProlog
%%Page: 1 1
%%PageBoundingBox: 0 0 420 315
%%BeginPageSetup
[1 0 0 -1 0 315] CT
%%EndPageSetup
GS
[0.75 0 0 0.75 0 0] CT
1 GC
N
0 0 560 420 re
f
GR
GS
[0.75 0 0 0.75 0 0] CT
1 GC
N
0 0 560 420 re
f
GR
GS
[0.75 0 0 0.75 0 0] CT
1 0 0 RC
1 LJ
1.6 LW
N
375.75 288.25 M
376.97 287.013 L
378.179 285.751 L
379.376 284.464 L
380.561 283.152 L
381.733 281.816 L
382.892 280.456 L
384.037 279.071 L
385.167 277.662 L
386.282 276.228 L
387.381 274.771 L
388.463 273.29 L
389.527 271.785 L
390.574 270.257 L
391.601 268.706 L
392.61 267.132 L
393.598 265.536 L
394.566 263.918 L
395.512 262.277 L
396.436 260.616 L
397.338 258.933 L
398.217 257.229 L
399.071 255.506 L
399.901 253.762 L
400.706 252 L
401.486 250.218 L
402.239 248.419 L
402.965 246.601 L
403.664 244.767 L
404.336 242.916 L
404.978 241.05 L
405.592 239.168 L
406.177 237.271 L
406.732 235.361 L
407.256 233.437 L
407.75 231.501 L
408.213 229.554 L
408.644 227.595 L
409.043 225.626 L
409.411 223.647 L
409.746 221.66 L
410.048 219.664 L
410.317 217.662 L
410.553 215.653 L
410.756 213.639 L
410.925 211.62 L
411.061 209.597 L
411.163 207.572 L
411.231 205.544 L
411.265 203.515 L
411.265 201.485 L
411.231 199.456 L
411.163 197.428 L
411.061 195.403 L
410.925 193.38 L
410.756 191.361 L
410.553 189.347 L
410.317 187.338 L
410.048 185.336 L
409.746 183.34 L
409.411 181.353 L
409.043 179.374 L
408.644 177.405 L
408.213 175.446 L
407.75 173.499 L
407.256 171.563 L
406.732 169.639 L
406.177 167.729 L
405.592 165.832 L
404.978 163.95 L
404.336 162.084 L
403.664 160.233 L
402.965 158.399 L
402.239 156.581 L
401.486 154.782 L
400.706 153 L
399.901 151.238 L
399.071 149.494 L
398.217 147.771 L
397.338 146.067 L
396.436 144.384 L
395.512 142.723 L
394.566 141.082 L
393.598 139.464 L
392.61 137.868 L
391.601 136.294 L
390.574 134.743 L
389.527 133.215 L
388.463 131.71 L
387.381 130.229 L
386.282 128.772 L
385.167 127.338 L
384.037 125.929 L
382.892 124.544 L
381.733 123.184 L
380.561 121.848 L
379.376 120.536 L
378.179 119.249 L
376.97 117.987 L
375.75 116.75 L
S
GR
GS
[0.75 0 0 0.75 0 0] CT
1 0 0 RC
1 LJ
1.6 LW
N
369.701 293.9 M
370.847 292.595 L
371.984 291.264 L
373.11 289.906 L
374.226 288.521 L
375.329 287.109 L
376.421 285.671 L
377.499 284.205 L
378.564 282.714 L
379.614 281.195 L
380.65 279.651 L
381.67 278.081 L
382.674 276.485 L
383.662 274.863 L
384.632 273.216 L
385.584 271.544 L
386.517 269.848 L
387.431 268.127 L
388.325 266.382 L
389.198 264.614 L
390.051 262.823 L
390.881 261.008 L
391.689 259.172 L
392.475 257.314 L
393.236 255.435 L
393.974 253.535 L
394.687 251.616 L
395.374 249.676 L
396.036 247.718 L
396.672 245.742 L
397.281 243.749 L
397.862 241.738 L
398.416 239.712 L
398.942 237.67 L
399.439 235.613 L
399.907 233.543 L
400.345 231.46 L
400.754 229.365 L
401.133 227.258 L
401.482 225.141 L
401.799 223.014 L
402.086 220.878 L
402.341 218.735 L
402.565 216.584 L
402.758 214.428 L
402.918 212.266 L
403.047 210.1 L
403.143 207.931 L
403.208 205.76 L
403.24 203.587 L
403.24 201.413 L
403.208 199.24 L
403.143 197.069 L
403.047 194.9 L
402.918 192.734 L
402.758 190.572 L
402.565 188.416 L
402.341 186.265 L
402.086 184.122 L
401.799 181.986 L
401.482 179.859 L
401.133 177.742 L
400.754 175.635 L
400.345 173.54 L
399.907 171.457 L
399.439 169.387 L
398.942 167.33 L
398.416 165.288 L
397.862 163.262 L
397.281 161.251 L
396.672 159.258 L
396.036 157.282 L
395.374 155.324 L
394.687 153.384 L
393.974 151.465 L
393.236 149.565 L
392.475 147.686 L
391.689 145.828 L
390.881 143.992 L
390.051 142.177 L
389.198 140.386 L
388.325 138.618 L
387.431 136.873 L
386.517 135.152 L
385.584 133.456 L
384.632 131.784 L
383.662 130.137 L
382.674 128.515 L
381.67 126.919 L
380.65 125.349 L
379.614 123.805 L
378.564 122.286 L
377.499 120.795 L
376.421 119.329 L
375.329 117.891 L
374.226 116.479 L
373.11 115.094 L
371.984 113.736 L
370.847 112.405 L
369.701 111.1 L
S
GR
GS
[0.75 0 0 0.75 0 0] CT
1 0 0 RC
1 LJ
1.6 LW
N
363.107 299.255 M
364.17 297.889 L
365.224 296.493 L
366.269 295.069 L
367.304 293.616 L
368.328 292.133 L
369.342 290.622 L
370.343 289.082 L
371.332 287.513 L
372.309 285.916 L
373.271 284.29 L
374.22 282.637 L
375.154 280.955 L
376.072 279.245 L
376.975 277.508 L
377.861 275.744 L
378.73 273.954 L
379.581 272.136 L
380.414 270.293 L
381.228 268.424 L
382.022 266.53 L
382.796 264.611 L
383.55 262.668 L
384.282 260.702 L
384.992 258.712 L
385.68 256.7 L
386.346 254.667 L
386.987 252.611 L
387.605 250.536 L
388.199 248.44 L
388.767 246.326 L
389.31 244.193 L
389.827 242.043 L
390.319 239.876 L
390.783 237.693 L
391.22 235.494 L
391.63 233.282 L
392.012 231.057 L
392.366 228.818 L
392.692 226.569 L
392.989 224.309 L
393.257 222.039 L
393.496 219.761 L
393.706 217.475 L
393.885 215.182 L
394.036 212.884 L
394.156 210.581 L
394.246 208.275 L
394.306 205.966 L
394.337 203.656 L
394.337 201.344 L
394.306 199.034 L
394.246 196.725 L
394.156 194.419 L
394.036 192.116 L
393.885 189.818 L
393.706 187.525 L
393.496 185.239 L
393.257 182.961 L
392.989 180.691 L
392.692 178.431 L
392.366 176.182 L
392.012 173.943 L
391.63 171.718 L
391.22 169.506 L
390.783 167.307 L
390.319 165.124 L
389.827 162.957 L
389.31 160.807 L
388.767 158.674 L
388.199 156.56 L
387.605 154.464 L
386.987 152.389 L
386.346 150.333 L
385.68 148.3 L
384.992 146.288 L
384.282 144.298 L
383.55 142.332 L
382.796 140.389 L
382.022 138.47 L
381.228 136.576 L
380.414 134.707 L
379.581 132.864 L
378.73 131.046 L
377.861 129.256 L
376.975 127.492 L
376.072 125.755 L
375.154 124.045 L
374.22 122.363 L
373.271 120.709 L
372.309 119.084 L
371.332 117.487 L
370.343 115.918 L
369.342 114.378 L
368.328 112.867 L
367.304 111.384 L
366.269 109.931 L
365.224 108.507 L
364.17 107.111 L
363.107 105.745 L
S
GR
GS
[0.75 0 0 0.75 0 0] CT
1 0 0 RC
1 LJ
1.6 LW
N
355.983 304.247 M
356.952 302.824 L
357.913 301.371 L
358.866 299.886 L
359.81 298.37 L
360.745 296.824 L
361.67 295.246 L
362.584 293.637 L
363.488 291.998 L
364.38 290.328 L
365.259 288.627 L
366.126 286.896 L
366.98 285.136 L
367.82 283.345 L
368.646 281.525 L
369.456 279.675 L
370.251 277.797 L
371.03 275.891 L
371.793 273.956 L
372.538 271.994 L
373.265 270.004 L
373.975 267.988 L
374.665 265.946 L
375.336 263.878 L
375.987 261.786 L
376.618 259.669 L
377.228 257.529 L
377.817 255.366 L
378.383 253.18 L
378.928 250.973 L
379.449 248.746 L
379.948 246.498 L
380.423 244.232 L
380.874 241.947 L
381.3 239.646 L
381.701 237.328 L
382.078 234.994 L
382.429 232.646 L
382.754 230.285 L
383.053 227.911 L
383.326 225.526 L
383.572 223.13 L
383.792 220.725 L
383.984 218.312 L
384.15 215.892 L
384.288 213.465 L
384.398 211.034 L
384.481 208.598 L
384.536 206.16 L
384.564 203.72 L
384.564 201.28 L
384.536 198.84 L
384.481 196.402 L
384.398 193.966 L
384.288 191.535 L
384.15 189.108 L
383.984 186.688 L
383.792 184.275 L
383.572 181.87 L
383.326 179.474 L
383.053 177.089 L
382.754 174.715 L
382.429 172.354 L
382.078 170.006 L
381.701 167.672 L
381.3 165.354 L
380.874 163.053 L
380.423 160.768 L
379.948 158.502 L
379.449 156.254 L
378.928 154.027 L
378.383 151.82 L
377.817 149.634 L
377.228 147.471 L
376.618 145.331 L
375.987 143.214 L
375.336 141.122 L
374.665 139.054 L
373.975 137.012 L
373.265 134.996 L
372.538 133.006 L
371.793 131.044 L
371.03 129.109 L
370.251 127.203 L
369.456 125.325 L
368.646 123.475 L
367.82 121.655 L
366.98 119.864 L
366.126 118.104 L
365.259 116.373 L
364.38 114.672 L
363.488 113.002 L
362.584 111.363 L
361.67 109.754 L
360.745 108.176 L
359.81 106.63 L
358.866 105.114 L
357.913 103.629 L
356.952 102.176 L
355.983 100.753 L
S
GR
GS
[0.75 0 0 0.75 0 0] CT
1 0 0 RC
1 LJ
1.6 LW
N
348.354 308.806 M
349.219 307.333 L
350.077 305.828 L
350.928 304.289 L
351.771 302.718 L
352.606 301.113 L
353.432 299.476 L
354.249 297.805 L
355.057 296.102 L
355.854 294.366 L
356.641 292.598 L
357.416 290.798 L
358.18 288.966 L
358.932 287.102 L
359.671 285.206 L
360.397 283.279 L
361.109 281.322 L
361.807 279.334 L
362.49 277.316 L
363.158 275.269 L
363.81 273.193 L
364.445 271.088 L
365.064 268.955 L
365.666 266.795 L
366.25 264.609 L
366.816 262.396 L
367.363 260.159 L
367.892 257.896 L
368.4 255.61 L
368.889 253.301 L
369.357 250.97 L
369.805 248.618 L
370.231 246.245 L
370.636 243.853 L
371.019 241.442 L
371.38 239.014 L
371.718 236.569 L
372.033 234.109 L
372.326 231.634 L
372.594 229.146 L
372.84 226.646 L
373.061 224.135 L
373.258 221.613 L
373.431 219.083 L
373.58 216.545 L
373.704 214 L
373.803 211.45 L
373.878 208.896 L
373.928 206.339 L
373.952 203.78 L
373.952 201.22 L
373.928 198.661 L
373.878 196.104 L
373.803 193.55 L
373.704 191 L
373.58 188.455 L
373.431 185.917 L
373.258 183.387 L
373.061 180.865 L
372.84 178.354 L
372.594 175.854 L
372.326 173.366 L
372.033 170.891 L
371.718 168.431 L
371.38 165.986 L
371.019 163.558 L
370.636 161.147 L
370.231 158.755 L
369.805 156.382 L
369.357 154.03 L
368.889 151.699 L
368.4 149.39 L
367.892 147.104 L
367.363 144.841 L
366.816 142.604 L
366.25 140.391 L
365.666 138.205 L
365.064 136.045 L
364.445 133.912 L
363.81 131.807 L
363.158 129.731 L
362.49 127.684 L
361.807 125.666 L
361.109 123.678 L
360.397 121.721 L
359.671 119.794 L
358.932 117.898 L
358.18 116.034 L
357.416 114.202 L
356.641 112.402 L
355.854 110.634 L
355.057 108.898 L
354.249 107.195 L
353.432 105.524 L
352.606 103.887 L
351.771 102.282 L
350.928 100.711 L
350.077 99.172 L
349.219 97.667 L
348.354 96.194 L
S
GR
GS
[0.75 0 0 0.75 0 0] CT
1 0 0 RC
1 LJ
1.6 LW
N
340.257 312.865 M
341.008 311.348 L
341.753 309.797 L
342.492 308.212 L
343.224 306.591 L
343.949 304.936 L
344.668 303.246 L
345.378 301.522 L
346.08 299.763 L
346.773 297.97 L
347.458 296.142 L
348.132 294.28 L
348.797 292.385 L
349.451 290.456 L
350.095 288.494 L
350.727 286.499 L
351.347 284.471 L
351.955 282.411 L
352.55 280.32 L
353.131 278.197 L
353.7 276.044 L
354.254 273.86 L
354.793 271.647 L
355.318 269.405 L
355.828 267.135 L
356.321 264.837 L
356.799 262.513 L
357.259 260.162 L
357.703 257.786 L
358.13 255.386 L
358.538 252.962 L
358.929 250.516 L
359.301 248.048 L
359.655 245.56 L
359.989 243.052 L
360.304 240.525 L
360.6 237.981 L
360.875 235.42 L
361.13 232.844 L
361.365 230.254 L
361.579 227.65 L
361.773 225.035 L
361.945 222.409 L
362.096 219.774 L
362.226 217.13 L
362.335 214.48 L
362.421 211.824 L
362.487 209.163 L
362.53 206.499 L
362.552 203.833 L
362.552 201.167 L
362.53 198.501 L
362.487 195.837 L
362.421 193.176 L
362.335 190.52 L
362.226 187.87 L
362.096 185.226 L
361.945 182.591 L
361.773 179.965 L
361.579 177.35 L
361.365 174.746 L
361.13 172.156 L
360.875 169.58 L
360.6 167.019 L
360.304 164.475 L
359.989 161.948 L
359.655 159.44 L
359.301 156.952 L
358.929 154.484 L
358.538 152.038 L
358.13 149.614 L
357.703 147.214 L
357.259 144.838 L
356.799 142.487 L
356.321 140.163 L
355.828 137.865 L
355.318 135.595 L
354.793 133.353 L
354.254 131.14 L
353.7 128.956 L
353.131 126.803 L
352.55 124.68 L
351.955 122.589 L
351.347 120.529 L
350.727 118.501 L
350.095 116.506 L
349.451 114.544 L
348.797 112.615 L
348.132 110.72 L
347.458 108.858 L
346.773 107.03 L
346.08 105.237 L
345.378 103.478 L
344.668 101.754 L
343.949 100.064 L
343.224 98.409 L
342.492 96.788 L
341.753 95.203 L
341.008 93.652 L
340.257 92.135 L
S
GR
GS
[0.75 0 0 0.75 0 0] CT
1 0 0 RC
1 LJ
1.6 LW
N
331.74 316.359 M
332.368 314.806 L
332.991 313.217 L
333.609 311.591 L
334.221 309.93 L
334.828 308.232 L
335.429 306.497 L
336.024 304.727 L
336.612 302.92 L
337.193 301.078 L
337.766 299.199 L
338.331 297.286 L
338.888 295.336 L
339.436 293.352 L
339.975 291.333 L
340.505 289.279 L
341.025 287.191 L
341.535 285.069 L
342.034 282.915 L
342.522 280.727 L
342.999 278.508 L
343.464 276.256 L
343.917 273.974 L
344.357 271.662 L
344.785 269.319 L
345.199 266.948 L
345.6 264.549 L
345.987 262.122 L
346.36 259.669 L
346.718 257.19 L
347.061 254.687 L
347.389 252.16 L
347.702 249.61 L
347.999 247.038 L
348.28 244.446 L
348.545 241.834 L
348.793 239.203 L
349.025 236.556 L
349.24 233.892 L
349.437 231.213 L
349.617 228.52 L
349.78 225.815 L
349.925 223.099 L
350.052 220.373 L
350.161 217.638 L
350.252 214.896 L
350.325 212.147 L
350.38 209.394 L
350.417 206.638 L
350.435 203.88 L
350.435 201.12 L
350.417 198.362 L
350.38 195.606 L
350.325 192.853 L
350.252 190.104 L
350.161 187.362 L
350.052 184.627 L
349.925 181.901 L
349.78 179.185 L
349.617 176.48 L
349.437 173.787 L
349.24 171.108 L
349.025 168.444 L
348.793 165.797 L
348.545 163.166 L
348.28 160.554 L
347.999 157.962 L
347.702 155.39 L
347.389 152.84 L
347.061 150.313 L
346.718 147.81 L
346.36 145.331 L
345.987 142.878 L
345.6 140.451 L
345.199 138.052 L
344.785 135.681 L
344.357 133.338 L
343.917 131.026 L
343.464 128.744 L
342.999 126.492 L
342.522 124.273 L
342.034 122.085 L
341.535 119.93 L
341.025 117.809 L
340.505 115.721 L
339.975 113.667 L
339.436 111.648 L
338.888 109.664 L
338.331 107.714 L
337.766 105.8 L
337.193 103.922 L
336.612 102.08 L
336.024 100.273 L
335.429 98.503 L
334.828 96.768 L
334.221 95.07 L
333.609 93.409 L
332.991 91.783 L
332.368 90.194 L
331.74 88.641 L
S
GR
GS
[0.75 0 0 0.75 0 0] CT
1 0 0 RC
1 LJ
1.6 LW
N
322.861 319.232 M
323.358 317.649 L
323.851 316.029 L
324.341 314.371 L
324.826 312.676 L
325.307 310.943 L
325.783 309.172 L
326.254 307.365 L
326.72 305.519 L
327.18 303.637 L
327.635 301.717 L
328.083 299.76 L
328.524 297.767 L
328.959 295.737 L
329.387 293.672 L
329.807 291.57 L
330.22 289.433 L
330.624 287.261 L
331.02 285.054 L
331.408 282.814 L
331.786 280.54 L
332.155 278.233 L
332.515 275.894 L
332.865 273.523 L
333.204 271.122 L
333.533 268.69 L
333.852 266.229 L
334.159 263.74 L
334.455 261.223 L
334.74 258.68 L
335.013 256.111 L
335.274 253.517 L
335.522 250.899 L
335.759 248.259 L
335.982 245.597 L
336.193 242.915 L
336.39 240.213 L
336.574 237.494 L
336.745 234.757 L
336.902 232.005 L
337.045 229.239 L
337.174 226.46 L
337.29 223.669 L
337.391 220.867 L
337.478 218.057 L
337.55 215.239 L
337.608 212.415 L
337.652 209.585 L
337.681 206.753 L
337.695 203.918 L
337.695 201.082 L
337.681 198.247 L
337.652 195.415 L
337.608 192.585 L
337.55 189.761 L
337.478 186.943 L
337.391 184.133 L
337.29 181.331 L
337.174 178.54 L
337.045 175.761 L
336.902 172.995 L
336.745 170.243 L
336.574 167.506 L
336.39 164.787 L
336.193 162.085 L
335.982 159.403 L
335.759 156.741 L
335.522 154.101 L
335.274 151.483 L
335.013 148.889 L
334.74 146.32 L
334.455 143.777 L
334.159 141.26 L
333.852 138.771 L
333.533 136.31 L
333.204 133.878 L
332.865 131.477 L
332.515 129.106 L
332.155 126.767 L
331.786 124.46 L
331.408 122.186 L
331.02 119.946 L
330.624 117.739 L
330.22 115.567 L
329.807 113.43 L
329.387 111.328 L
328.959 109.263 L
328.524 107.233 L
328.083 105.24 L
327.635 103.283 L
327.18 101.363 L
326.72 99.481 L
326.254 97.635 L
325.783 95.828 L
325.307 94.057 L
324.826 92.324 L
324.341 90.629 L
323.851 88.971 L
323.358 87.351 L
322.861 85.768 L
S
GR
GS
[0.75 0 0 0.75 0 0] CT
1 0 0 RC
1 LJ
1.6 LW
N
313.689 321.433 M
314.049 319.827 L
314.406 318.184 L
314.76 316.501 L
315.112 314.781 L
315.46 313.021 L
315.805 311.224 L
316.146 309.387 L
316.484 307.513 L
316.817 305.6 L
317.147 303.649 L
317.472 301.66 L
317.792 299.633 L
318.107 297.568 L
318.417 295.467 L
318.722 293.329 L
319.021 291.154 L
319.314 288.944 L
319.602 286.698 L
319.883 284.416 L
320.157 282.101 L
320.425 279.751 L
320.686 277.369 L
320.94 274.954 L
321.186 272.507 L
321.425 270.029 L
321.656 267.521 L
321.879 264.984 L
322.095 262.418 L
322.301 259.825 L
322.499 257.205 L
322.689 254.56 L
322.869 251.89 L
323.041 249.197 L
323.203 246.482 L
323.356 243.746 L
323.499 240.99 L
323.633 238.215 L
323.757 235.423 L
323.871 232.615 L
323.975 229.792 L
324.069 226.956 L
324.153 224.107 L
324.226 221.248 L
324.289 218.38 L
324.342 215.503 L
324.384 212.62 L
324.416 209.733 L
324.437 206.841 L
324.448 203.947 L
324.448 201.053 L
324.437 198.159 L
324.416 195.267 L
324.384 192.38 L
324.342 189.497 L
324.289 186.62 L
324.226 183.752 L
324.153 180.893 L
324.069 178.044 L
323.975 175.208 L
323.871 172.385 L
323.757 169.577 L
323.633 166.785 L
323.499 164.01 L
323.356 161.254 L
323.203 158.518 L
323.041 155.803 L
322.869 153.11 L
322.689 150.44 L
322.499 147.795 L
322.301 145.175 L
322.095 142.582 L
321.879 140.016 L
321.656 137.479 L
321.425 134.971 L
321.186 132.493 L
320.94 130.046 L
320.686 127.631 L
320.425 125.249 L
320.157 122.899 L
319.883 120.584 L
319.602 118.302 L
319.314 116.056 L
319.021 113.846 L
318.722 111.671 L
318.417 109.533 L
318.107 107.432 L
317.792 105.367 L
317.472 103.34 L
317.147 101.351 L
316.817 99.4 L
316.484 97.487 L
316.146 95.613 L
315.805 93.776 L
315.46 91.979 L
315.112 90.219 L
314.76 88.499 L
314.406 86.816 L
314.049 85.173 L
313.689 83.567 L
S
GR
GS
[0.75 0 0 0.75 0 0] CT
1 0 0 RC
1 LJ
1.6 LW
N
304.302 322.923 M
304.519 321.302 L
304.736 319.643 L
304.95 317.944 L
305.163 316.206 L
305.374 314.429 L
305.583 312.613 L
305.79 310.758 L
305.994 308.863 L
306.196 306.93 L
306.396 304.958 L
306.593 302.947 L
306.787 300.897 L
306.978 298.81 L
307.166 296.684 L
307.35 294.521 L
307.532 292.321 L
307.709 290.085 L
307.884 287.812 L
308.054 285.503 L
308.22 283.16 L
308.383 280.782 L
308.541 278.37 L
308.695 275.924 L
308.845 273.447 L
308.989 270.938 L
309.13 268.398 L
309.265 265.828 L
309.395 263.229 L
309.521 260.602 L
309.641 257.948 L
309.756 255.268 L
309.865 252.563 L
309.969 249.835 L
310.068 247.083 L
310.161 244.31 L
310.248 241.517 L
310.329 238.705 L
310.404 235.875 L
310.473 233.029 L
310.536 230.168 L
310.593 227.293 L
310.644 224.405 L
310.689 221.507 L
310.727 218.599 L
310.759 215.683 L
310.785 212.76 L
310.804 209.832 L
310.817 206.901 L
310.823 203.967 L
310.823 201.033 L
310.817 198.099 L
310.804 195.168 L
310.785 192.24 L
310.759 189.317 L
310.727 186.401 L
310.689 183.493 L
310.644 180.595 L
310.593 177.707 L
310.536 174.832 L
310.473 171.971 L
310.404 169.125 L
310.329 166.295 L
310.248 163.483 L
310.161 160.69 L
310.068 157.917 L
309.969 155.165 L
309.865 152.437 L
309.756 149.732 L
309.641 147.052 L
309.521 144.398 L
309.395 141.771 L
309.265 139.172 L
309.13 136.602 L
308.989 134.062 L
308.845 131.553 L
308.695 129.076 L
308.541 126.63 L
308.383 124.218 L
308.22 121.84 L
308.054 119.497 L
307.884 117.188 L
307.709 114.915 L
307.532 112.679 L
307.35 110.479 L
307.166 108.316 L
306.978 106.19 L
306.787 104.103 L
306.593 102.053 L
306.396 100.042 L
306.196 98.07 L
305.994 96.137 L
305.79 94.242 L
305.583 92.387 L
305.374 90.571 L
305.163 88.794 L
304.95 87.056 L
304.736 85.357 L
304.519 83.698 L
304.302 82.077 L
S
GR
GS
[0.75 0 0 0.75 0 0] CT
1 0 0 RC
1 LJ
1.6 LW
N
294.782 323.674 M
294.855 322.047 L
294.927 320.379 L
294.999 318.672 L
295.071 316.926 L
295.141 315.14 L
295.211 313.315 L
295.28 311.45 L
295.349 309.545 L
295.417 307.602 L
295.483 305.619 L
295.549 303.597 L
295.614 301.536 L
295.678 299.437 L
295.741 297.299 L
295.803 295.124 L
295.864 292.911 L
295.923 290.661 L
295.982 288.375 L
296.039 286.052 L
296.095 283.695 L
296.149 281.302 L
296.202 278.875 L
296.254 276.415 L
296.304 273.922 L
296.352 271.397 L
296.399 268.841 L
296.445 266.254 L
296.488 263.639 L
296.531 260.995 L
296.571 258.324 L
296.609 255.626 L
296.646 252.904 L
296.681 250.157 L
296.714 247.387 L
296.745 244.596 L
296.774 241.784 L
296.801 238.953 L
296.827 236.104 L
296.85 233.238 L
296.871 230.357 L
296.89 227.463 L
296.907 224.556 L
296.922 221.637 L
296.935 218.71 L
296.946 215.774 L
296.954 212.831 L
296.961 209.883 L
296.965 206.931 L
296.967 203.977 L
296.967 201.023 L
296.965 198.069 L
296.961 195.117 L
296.954 192.169 L
296.946 189.226 L
296.935 186.29 L
296.922 183.363 L
296.907 180.444 L
296.89 177.537 L
296.871 174.643 L
296.85 171.762 L
296.827 168.896 L
296.801 166.047 L
296.774 163.216 L
296.745 160.404 L
296.714 157.613 L
296.681 154.843 L
296.646 152.096 L
296.609 149.374 L
296.571 146.676 L
296.531 144.005 L
296.488 141.361 L
296.445 138.746 L
296.399 136.159 L
296.352 133.603 L
296.304 131.078 L
296.254 128.585 L
296.202 126.125 L
296.149 123.698 L
296.095 121.305 L
296.039 118.948 L
295.982 116.625 L
295.923 114.339 L
295.864 112.089 L
295.803 109.876 L
295.741 107.701 L
295.678 105.563 L
295.614 103.464 L
295.549 101.403 L
295.483 99.381 L
295.417 97.398 L
295.349 95.455 L
295.28 93.55 L
295.211 91.685 L
295.141 89.86 L
295.071 88.074 L
294.999 86.328 L
294.927 84.621 L
294.855 82.953 L
294.782 81.326 L
S
GR
GS
[0.75 0 0 0.75 0 0] CT
1 0 0 RC
1 LJ
1.6 LW
N
285.218 323.674 M
285.145 322.047 L
285.073 320.379 L
285.001 318.672 L
284.929 316.926 L
284.859 315.14 L
284.789 313.315 L
284.72 311.45 L
284.651 309.545 L
284.583 307.602 L
284.517 305.619 L
284.451 303.597 L
284.386 301.536 L
284.322 299.437 L
284.259 297.299 L
284.197 295.124 L
284.136 292.911 L
284.077 290.661 L
284.018 288.375 L
283.961 286.052 L
283.905 283.695 L
283.851 281.302 L
283.798 278.875 L
283.746 276.415 L
283.696 273.922 L
283.648 271.397 L
283.601 268.841 L
283.555 266.254 L
283.512 263.639 L
283.469 260.995 L
283.429 258.324 L
283.391 255.626 L
283.354 252.904 L
283.319 250.157 L
283.286 247.387 L
283.255 244.596 L
283.226 241.784 L
283.199 238.953 L
283.173 236.104 L
283.15 233.238 L
283.129 230.357 L
283.11 227.463 L
283.093 224.556 L
283.078 221.637 L
283.065 218.71 L
283.054 215.774 L
283.046 212.831 L
283.039 209.883 L
283.035 206.931 L
283.033 203.977 L
283.033 201.023 L
283.035 198.069 L
283.039 195.117 L
283.046 192.169 L
283.054 189.226 L
283.065 186.29 L
283.078 183.363 L
283.093 180.444 L
283.11 177.537 L
283.129 174.643 L
283.15 171.762 L
283.173 168.896 L
283.199 166.047 L
283.226 163.216 L
283.255 160.404 L
283.286 157.613 L
283.319 154.843 L
283.354 152.096 L
283.391 149.374 L
283.429 146.676 L
283.469 144.005 L
283.512 141.361 L
283.555 138.746 L
283.601 136.159 L
283.648 133.603 L
283.696 131.078 L
283.746 128.585 L
283.798 126.125 L
283.851 123.698 L
283.905 121.305 L
283.961 118.948 L
284.018 116.625 L
284.077 114.339 L
284.136 112.089 L
284.197 109.876 L
284.259 107.701 L
284.322 105.563 L
284.386 103.464 L
284.451 101.403 L
284.517 99.381 L
284.583 97.398 L
284.651 95.455 L
284.72 93.55 L
284.789 91.685 L
284.859 89.86 L
284.929 88.074 L
285.001 86.328 L
285.073 84.621 L
285.145 82.953 L
285.218 81.326 L
S
GR
GS
[0.75 0 0 0.75 0 0] CT
1 0 0 RC
1 LJ
1.6 LW
N
275.698 322.923 M
275.481 321.302 L
275.264 319.643 L
275.05 317.944 L
274.837 316.206 L
274.626 314.429 L
274.417 312.613 L
274.21 310.758 L
274.006 308.863 L
273.804 306.93 L
273.604 304.958 L
273.407 302.947 L
273.213 300.897 L
273.022 298.81 L
272.834 296.684 L
272.65 294.521 L
272.468 292.321 L
272.291 290.085 L
272.116 287.812 L
271.946 285.503 L
271.78 283.16 L
271.617 280.782 L
271.459 278.37 L
271.305 275.924 L
271.155 273.447 L
271.011 270.938 L
270.87 268.398 L
270.735 265.828 L
270.605 263.229 L
270.479 260.602 L
270.359 257.948 L
270.244 255.268 L
270.135 252.563 L
270.031 249.835 L
269.932 247.083 L
269.839 244.31 L
269.752 241.517 L
269.671 238.705 L
269.596 235.875 L
269.527 233.029 L
269.464 230.168 L
269.407 227.293 L
269.356 224.405 L
269.311 221.507 L
269.273 218.599 L
269.241 215.683 L
269.215 212.76 L
269.196 209.832 L
269.183 206.901 L
269.177 203.967 L
269.177 201.033 L
269.183 198.099 L
269.196 195.168 L
269.215 192.24 L
269.241 189.317 L
269.273 186.401 L
269.311 183.493 L
269.356 180.595 L
269.407 177.707 L
269.464 174.832 L
269.527 171.971 L
269.596 169.125 L
269.671 166.295 L
269.752 163.483 L
269.839 160.69 L
269.932 157.917 L
270.031 155.165 L
270.135 152.437 L
270.244 149.732 L
270.359 147.052 L
270.479 144.398 L
270.605 141.771 L
270.735 139.172 L
270.87 136.602 L
271.011 134.062 L
271.155 131.553 L
271.305 129.076 L
271.459 126.63 L
271.617 124.218 L
271.78 121.84 L
271.946 119.497 L
272.116 117.188 L
272.291 114.915 L
272.468 112.679 L
272.65 110.479 L
272.834 108.316 L
273.022 106.19 L
273.213 104.103 L
273.407 102.053 L
273.604 100.042 L
273.804 98.07 L
274.006 96.137 L
274.21 94.242 L
274.417 92.387 L
274.626 90.571 L
274.837 88.794 L
275.05 87.056 L
275.264 85.357 L
275.481 83.698 L
275.698 82.077 L
S
GR
GS
[0.75 0 0 0.75 0 0] CT
1 0 0 RC
1 LJ
1.6 LW
N
266.311 321.433 M
265.951 319.827 L
265.594 318.184 L
265.24 316.501 L
264.888 314.781 L
264.54 313.021 L
264.195 311.224 L
263.854 309.387 L
263.516 307.513 L
263.183 305.6 L
262.853 303.649 L
262.528 301.66 L
262.208 299.633 L
261.893 297.568 L
261.583 295.467 L
261.278 293.329 L
260.979 291.154 L
260.686 288.944 L
260.398 286.698 L
260.117 284.416 L
259.843 282.101 L
259.575 279.751 L
259.314 277.369 L
259.06 274.954 L
258.814 272.507 L
258.575 270.029 L
258.344 267.521 L
258.121 264.984 L
257.905 262.418 L
257.699 259.825 L
257.501 257.205 L
257.311 254.56 L
257.131 251.89 L
256.959 249.197 L
256.797 246.482 L
256.644 243.746 L
256.501 240.99 L
256.367 238.215 L
256.243 235.423 L
256.129 232.615 L
256.025 229.792 L
255.931 226.956 L
255.847 224.107 L
255.774 221.248 L
255.711 218.38 L
255.658 215.503 L
255.616 212.62 L
255.584 209.733 L
255.563 206.841 L
255.552 203.947 L
255.552 201.053 L
255.563 198.159 L
255.584 195.267 L
255.616 192.38 L
255.658 189.497 L
255.711 186.62 L
255.774 183.752 L
255.847 180.893 L
255.931 178.044 L
256.025 175.208 L
256.129 172.385 L
256.243 169.577 L
256.367 166.785 L
256.501 164.01 L
256.644 161.254 L
256.797 158.518 L
256.959 155.803 L
257.131 153.11 L
257.311 150.44 L
257.501 147.795 L
257.699 145.175 L
257.905 142.582 L
258.121 140.016 L
258.344 137.479 L
258.575 134.971 L
258.814 132.493 L
259.06 130.046 L
259.314 127.631 L
259.575 125.249 L
259.843 122.899 L
260.117 120.584 L
260.398 118.302 L
260.686 116.056 L
260.979 113.846 L
261.278 111.671 L
261.583 109.533 L
261.893 107.432 L
262.208 105.367 L
262.528 103.34 L
262.853 101.351 L
263.183 99.4 L
263.516 97.487 L
263.854 95.613 L
264.195 93.776 L
264.54 91.979 L
264.888 90.219 L
265.24 88.499 L
265.594 86.816 L
265.951 85.173 L
266.311 83.567 L
S
GR
GS
[0.75 0 0 0.75 0 0] CT
1 0 0 RC
1 LJ
1.6 LW
N
257.139 319.232 M
256.642 317.649 L
256.149 316.029 L
255.659 314.371 L
255.174 312.676 L
254.693 310.943 L
254.217 309.172 L
253.746 307.365 L
253.28 305.519 L
252.82 303.637 L
252.365 301.717 L
251.917 299.76 L
251.476 297.767 L
251.041 295.737 L
250.613 293.672 L
250.193 291.57 L
249.78 289.433 L
249.376 287.261 L
248.98 285.054 L
248.592 282.814 L
248.214 280.54 L
247.845 278.233 L
247.485 275.894 L
247.135 273.523 L
246.796 271.122 L
246.467 268.69 L
246.148 266.229 L
245.841 263.74 L
245.545 261.223 L
245.26 258.68 L
244.987 256.111 L
244.726 253.517 L
244.478 250.899 L
244.241 248.259 L
244.018 245.597 L
243.807 242.915 L
243.61 240.213 L
243.426 237.494 L
243.255 234.757 L
243.098 232.005 L
242.955 229.239 L
242.826 226.46 L
242.71 223.669 L
242.609 220.867 L
242.522 218.057 L
242.45 215.239 L
242.392 212.415 L
242.348 209.585 L
242.319 206.753 L
242.305 203.918 L
242.305 201.082 L
242.319 198.247 L
242.348 195.415 L
242.392 192.585 L
242.45 189.761 L
242.522 186.943 L
242.609 184.133 L
242.71 181.331 L
242.826 178.54 L
242.955 175.761 L
243.098 172.995 L
243.255 170.243 L
243.426 167.506 L
243.61 164.787 L
243.807 162.085 L
244.018 159.403 L
244.241 156.741 L
244.478 154.101 L
244.726 151.483 L
244.987 148.889 L
245.26 146.32 L
245.545 143.777 L
245.841 141.26 L
246.148 138.771 L
246.467 136.31 L
246.796 133.878 L
247.135 131.477 L
247.485 129.106 L
247.845 126.767 L
248.214 124.46 L
248.592 122.186 L
248.98 119.946 L
249.376 117.739 L
249.78 115.567 L
250.193 113.43 L
250.613 111.328 L
251.041 109.263 L
251.476 107.233 L
251.917 105.24 L
252.365 103.283 L
252.82 101.363 L
253.28 99.481 L
253.746 97.635 L
254.217 95.828 L
254.693 94.057 L
255.174 92.324 L
255.659 90.629 L
256.149 88.971 L
256.642 87.351 L
257.139 85.768 L
S
GR
GS
[0.75 0 0 0.75 0 0] CT
1 0 0 RC
1 LJ
1.6 LW
N
248.26 316.359 M
247.632 314.806 L
247.009 313.217 L
246.391 311.591 L
245.779 309.93 L
245.172 308.232 L
244.571 306.497 L
243.976 304.727 L
243.388 302.92 L
242.807 301.078 L
242.234 299.199 L
241.669 297.286 L
241.112 295.336 L
240.564 293.352 L
240.025 291.333 L
239.495 289.279 L
238.975 287.191 L
238.465 285.069 L
237.966 282.915 L
237.478 280.727 L
237.001 278.508 L
236.536 276.256 L
236.083 273.974 L
235.643 271.662 L
235.215 269.319 L
234.801 266.948 L
234.4 264.549 L
234.013 262.122 L
233.64 259.669 L
233.282 257.19 L
232.939 254.687 L
232.611 252.16 L
232.298 249.61 L
232.001 247.038 L
231.72 244.446 L
231.455 241.834 L
231.207 239.203 L
230.975 236.556 L
230.76 233.892 L
230.563 231.213 L
230.383 228.52 L
230.22 225.815 L
230.075 223.099 L
229.948 220.373 L
229.839 217.638 L
229.748 214.896 L
229.675 212.147 L
229.62 209.394 L
229.583 206.638 L
229.565 203.88 L
229.565 201.12 L
229.583 198.362 L
229.62 195.606 L
229.675 192.853 L
229.748 190.104 L
229.839 187.362 L
229.948 184.627 L
230.075 181.901 L
230.22 179.185 L
230.383 176.48 L
230.563 173.787 L
230.76 171.108 L
230.975 168.444 L
231.207 165.797 L
231.455 163.166 L
231.72 160.554 L
232.001 157.962 L
232.298 155.39 L
232.611 152.84 L
232.939 150.313 L
233.282 147.81 L
233.64 145.331 L
234.013 142.878 L
234.4 140.451 L
234.801 138.052 L
235.215 135.681 L
235.643 133.338 L
236.083 131.026 L
236.536 128.744 L
237.001 126.492 L
237.478 124.273 L
237.966 122.085 L
238.465 119.93 L
238.975 117.809 L
239.495 115.721 L
240.025 113.667 L
240.564 111.648 L
241.112 109.664 L
241.669 107.714 L
242.234 105.8 L
242.807 103.922 L
243.388 102.08 L
243.976 100.273 L
244.571 98.503 L
245.172 96.768 L
245.779 95.07 L
246.391 93.409 L
247.009 91.783 L
247.632 90.194 L
248.26 88.641 L
S
GR
GS
[0.75 0 0 0.75 0 0] CT
1 0 0 RC
1 LJ
1.6 LW
N
239.743 312.865 M
238.992 311.348 L
238.247 309.797 L
237.508 308.212 L
236.776 306.591 L
236.051 304.936 L
235.332 303.246 L
234.622 301.522 L
233.92 299.763 L
233.227 297.97 L
232.542 296.142 L
231.868 294.28 L
231.203 292.385 L
230.549 290.456 L
229.905 288.494 L
229.273 286.499 L
228.653 284.471 L
228.045 282.411 L
227.45 280.32 L
226.869 278.197 L
226.3 276.044 L
225.746 273.86 L
225.206 271.647 L
224.682 269.405 L
224.172 267.135 L
223.679 264.837 L
223.201 262.513 L
222.741 260.162 L
222.297 257.786 L
221.87 255.386 L
221.462 252.962 L
221.071 250.516 L
220.699 248.048 L
220.345 245.56 L
220.011 243.052 L
219.696 240.525 L
219.4 237.981 L
219.125 235.42 L
218.87 232.844 L
218.635 230.254 L
218.421 227.65 L
218.227 225.035 L
218.055 222.409 L
217.904 219.774 L
217.774 217.13 L
217.665 214.48 L
217.579 211.824 L
217.513 209.163 L
217.47 206.499 L
217.448 203.833 L
217.448 201.167 L
217.47 198.501 L
217.513 195.837 L
217.579 193.176 L
217.665 190.52 L
217.774 187.87 L
217.904 185.226 L
218.055 182.591 L
218.227 179.965 L
218.421 177.35 L
218.635 174.746 L
218.87 172.156 L
219.125 169.58 L
219.4 167.019 L
219.696 164.475 L
220.011 161.948 L
220.345 159.44 L
220.699 156.952 L
221.071 154.484 L
221.462 152.038 L
221.87 149.614 L
222.297 147.214 L
222.741 144.838 L
223.201 142.487 L
223.679 140.163 L
224.172 137.865 L
224.682 135.595 L
225.206 133.353 L
225.746 131.14 L
226.3 128.956 L
226.869 126.803 L
227.45 124.68 L
228.045 122.589 L
228.653 120.529 L
229.273 118.501 L
229.905 116.506 L
230.549 114.544 L
231.203 112.615 L
231.868 110.72 L
232.542 108.858 L
233.227 107.03 L
233.92 105.237 L
234.622 103.478 L
235.332 101.754 L
236.051 100.064 L
236.776 98.409 L
237.508 96.788 L
238.247 95.203 L
238.992 93.652 L
239.743 92.135 L
S
GR
GS
[0.75 0 0 0.75 0 0] CT
1 0 0 RC
1 LJ
1.6 LW
N
231.646 308.806 M
230.781 307.333 L
229.923 305.828 L
229.072 304.289 L
228.229 302.718 L
227.394 301.113 L
226.568 299.476 L
225.751 297.805 L
224.943 296.102 L
224.146 294.366 L
223.359 292.598 L
222.584 290.798 L
221.82 288.966 L
221.068 287.102 L
220.329 285.206 L
219.603 283.279 L
218.891 281.322 L
218.193 279.334 L
217.51 277.316 L
216.842 275.269 L
216.19 273.193 L
215.555 271.088 L
214.936 268.955 L
214.334 266.795 L
213.75 264.609 L
213.184 262.396 L
212.637 260.159 L
212.109 257.896 L
211.6 255.61 L
211.111 253.301 L
210.643 250.97 L
210.195 248.618 L
209.769 246.245 L
209.364 243.853 L
208.981 241.442 L
208.62 239.014 L
208.282 236.569 L
207.967 234.109 L
207.674 231.634 L
207.406 229.146 L
207.16 226.646 L
206.939 224.135 L
206.742 221.613 L
206.569 219.083 L
206.42 216.545 L
206.296 214 L
206.197 211.45 L
206.122 208.896 L
206.072 206.339 L
206.048 203.78 L
206.048 201.22 L
206.072 198.661 L
206.122 196.104 L
206.197 193.55 L
206.296 191 L
206.42 188.455 L
206.569 185.917 L
206.742 183.387 L
206.939 180.865 L
207.16 178.354 L
207.406 175.854 L
207.674 173.366 L
207.967 170.891 L
208.282 168.431 L
208.62 165.986 L
208.981 163.558 L
209.364 161.147 L
209.769 158.755 L
210.195 156.382 L
210.643 154.03 L
211.111 151.699 L
211.6 149.39 L
212.109 147.104 L
212.637 144.841 L
213.184 142.604 L
213.75 140.391 L
214.334 138.205 L
214.936 136.045 L
215.555 133.912 L
216.19 131.807 L
216.842 129.731 L
217.51 127.684 L
218.193 125.666 L
218.891 123.678 L
219.603 121.721 L
220.329 119.794 L
221.068 117.898 L
221.82 116.034 L
222.584 114.202 L
223.359 112.402 L
224.146 110.634 L
224.943 108.898 L
225.751 107.195 L
226.568 105.524 L
227.394 103.887 L
228.229 102.282 L
229.072 100.711 L
229.923 99.172 L
230.781 97.667 L
231.646 96.194 L
S
GR
GS
[0.75 0 0 0.75 0 0] CT
1 0 0 RC
1 LJ
1.6 LW
N
224.017 304.247 M
223.048 302.824 L
222.087 301.371 L
221.134 299.886 L
220.19 298.37 L
219.255 296.824 L
218.33 295.246 L
217.416 293.637 L
216.512 291.998 L
215.62 290.328 L
214.741 288.627 L
213.874 286.896 L
213.02 285.136 L
212.18 283.345 L
211.354 281.525 L
210.544 279.675 L
209.749 277.797 L
208.97 275.891 L
208.207 273.956 L
207.462 271.994 L
206.735 270.004 L
206.025 267.988 L
205.335 265.946 L
204.664 263.878 L
204.013 261.786 L
203.382 259.669 L
202.772 257.529 L
202.183 255.366 L
201.617 253.18 L
201.072 250.973 L
200.551 248.746 L
200.052 246.498 L
199.577 244.232 L
199.126 241.947 L
198.7 239.646 L
198.299 237.328 L
197.922 234.994 L
197.571 232.646 L
197.246 230.285 L
196.947 227.911 L
196.674 225.526 L
196.428 223.13 L
196.208 220.725 L
196.016 218.312 L
195.85 215.892 L
195.712 213.465 L
195.602 211.034 L
195.519 208.598 L
195.464 206.16 L
195.436 203.72 L
195.436 201.28 L
195.464 198.84 L
195.519 196.402 L
195.602 193.966 L
195.712 191.535 L
195.85 189.108 L
196.016 186.688 L
196.208 184.275 L
196.428 181.87 L
196.674 179.474 L
196.947 177.089 L
197.246 174.715 L
197.571 172.354 L
197.922 170.006 L
198.299 167.672 L
198.7 165.354 L
199.126 163.053 L
199.577 160.768 L
200.052 158.502 L
200.551 156.254 L
201.072 154.027 L
201.617 151.82 L
202.183 149.634 L
202.772 147.471 L
203.382 145.331 L
204.013 143.214 L
204.664 141.122 L
205.335 139.054 L
206.025 137.012 L
206.735 134.996 L
207.462 133.006 L
208.207 131.044 L
208.97 129.109 L
209.749 127.203 L
210.544 125.325 L
211.354 123.475 L
212.18 121.655 L
213.02 119.864 L
213.874 118.104 L
214.741 116.373 L
215.62 114.672 L
216.512 113.002 L
217.416 111.363 L
218.33 109.754 L
219.255 108.176 L
220.19 106.63 L
221.134 105.114 L
222.087 103.629 L
223.048 102.176 L
224.017 100.753 L
S
GR
GS
[0.75 0 0 0.75 0 0] CT
1 0 0 RC
1 LJ
1.6 LW
N
216.893 299.255 M
215.83 297.889 L
214.776 296.493 L
213.731 295.069 L
212.696 293.616 L
211.672 292.133 L
210.658 290.622 L
209.657 289.082 L
208.668 287.513 L
207.691 285.916 L
206.729 284.29 L
205.78 282.637 L
204.846 280.955 L
203.928 279.245 L
203.025 277.508 L
202.139 275.744 L
201.27 273.954 L
200.419 272.136 L
199.586 270.293 L
198.772 268.424 L
197.978 266.53 L
197.204 264.611 L
196.45 262.668 L
195.718 260.702 L
195.008 258.712 L
194.32 256.7 L
193.654 254.667 L
193.013 252.611 L
192.395 250.536 L
191.801 248.44 L
191.233 246.326 L
190.69 244.193 L
190.173 242.043 L
189.681 239.876 L
189.217 237.693 L
188.78 235.494 L
188.37 233.282 L
187.988 231.057 L
187.633 228.818 L
187.308 226.569 L
187.011 224.309 L
186.743 222.039 L
186.504 219.761 L
186.294 217.475 L
186.115 215.182 L
185.964 212.884 L
185.844 210.581 L
185.754 208.275 L
185.694 205.966 L
185.663 203.656 L
185.663 201.344 L
185.694 199.034 L
185.754 196.725 L
185.844 194.419 L
185.964 192.116 L
186.115 189.818 L
186.294 187.525 L
186.504 185.239 L
186.743 182.961 L
187.011 180.691 L
187.308 178.431 L
187.633 176.182 L
187.988 173.943 L
188.37 171.718 L
188.78 169.506 L
189.217 167.307 L
189.681 165.124 L
190.173 162.957 L
190.69 160.807 L
191.233 158.674 L
191.801 156.56 L
192.395 154.464 L
193.013 152.389 L
193.654 150.333 L
194.32 148.3 L
195.008 146.288 L
195.718 144.298 L
196.45 142.332 L
197.204 140.389 L
197.978 138.47 L
198.772 136.576 L
199.586 134.707 L
200.419 132.864 L
201.27 131.046 L
202.139 129.256 L
203.025 127.492 L
203.928 125.755 L
204.846 124.045 L
205.78 122.363 L
206.729 120.709 L
207.691 119.084 L
208.668 117.487 L
209.657 115.918 L
210.658 114.378 L
211.672 112.867 L
212.696 111.384 L
213.731 109.931 L
214.776 108.507 L
215.83 107.111 L
216.893 105.745 L
S
GR
GS
[0.75 0 0 0.75 0 0] CT
1 0 0 RC
1 LJ
1.6 LW
N
210.299 293.9 M
209.153 292.595 L
208.016 291.264 L
206.89 289.906 L
205.774 288.521 L
204.671 287.109 L
203.579 285.671 L
202.501 284.205 L
201.436 282.714 L
200.386 281.195 L
199.35 279.651 L
198.33 278.081 L
197.326 276.485 L
196.338 274.863 L
195.368 273.216 L
194.416 271.544 L
193.483 269.848 L
192.569 268.127 L
191.675 266.382 L
190.802 264.614 L
189.949 262.823 L
189.119 261.008 L
188.311 259.172 L
187.525 257.314 L
186.764 255.435 L
186.026 253.535 L
185.313 251.616 L
184.626 249.676 L
183.964 247.718 L
183.328 245.742 L
182.719 243.749 L
182.138 241.738 L
181.584 239.712 L
181.058 237.67 L
180.561 235.613 L
180.093 233.543 L
179.655 231.46 L
179.246 229.365 L
178.867 227.258 L
178.518 225.141 L
178.201 223.014 L
177.914 220.878 L
177.659 218.735 L
177.435 216.584 L
177.242 214.428 L
177.082 212.266 L
176.953 210.1 L
176.857 207.931 L
176.792 205.76 L
176.76 203.587 L
176.76 201.413 L
176.792 199.24 L
176.857 197.069 L
176.953 194.9 L
177.082 192.734 L
177.242 190.572 L
177.435 188.416 L
177.659 186.265 L
177.914 184.122 L
178.201 181.986 L
178.518 179.859 L
178.867 177.742 L
179.246 175.635 L
179.655 173.54 L
180.093 171.457 L
180.561 169.387 L
181.058 167.33 L
181.584 165.288 L
182.138 163.262 L
182.719 161.251 L
183.328 159.258 L
183.964 157.282 L
184.626 155.324 L
185.313 153.384 L
186.026 151.465 L
186.764 149.565 L
187.525 147.686 L
188.311 145.828 L
189.119 143.992 L
189.949 142.177 L
190.802 140.386 L
191.675 138.618 L
192.569 136.873 L
193.483 135.152 L
194.416 133.456 L
195.368 131.784 L
196.338 130.137 L
197.326 128.515 L
198.33 126.919 L
199.35 125.349 L
200.386 123.805 L
201.436 122.286 L
202.501 120.795 L
203.579 119.329 L
204.671 117.891 L
205.774 116.479 L
206.89 115.094 L
208.016 113.736 L
209.153 112.405 L
210.299 111.1 L
S
GR
GS
[0.75 0 0 0.75 0 0] CT
1 0 0 RC
1 LJ
1.6 LW
N
204.25 288.25 M
203.03 287.013 L
201.821 285.751 L
200.624 284.464 L
199.439 283.152 L
198.267 281.816 L
197.108 280.456 L
195.963 279.071 L
194.833 277.662 L
193.718 276.228 L
192.619 274.771 L
191.537 273.29 L
190.473 271.785 L
189.426 270.257 L
188.399 268.706 L
187.39 267.132 L
186.402 265.536 L
185.434 263.918 L
184.488 262.277 L
183.564 260.616 L
182.662 258.933 L
181.783 257.229 L
180.929 255.506 L
180.099 253.762 L
179.294 252 L
178.514 250.218 L
177.761 248.419 L
177.035 246.601 L
176.335 244.767 L
175.664 242.916 L
175.022 241.05 L
174.408 239.168 L
173.823 237.271 L
173.268 235.361 L
172.744 233.437 L
172.25 231.501 L
171.787 229.554 L
171.356 227.595 L
170.957 225.626 L
170.589 223.647 L
170.254 221.66 L
169.952 219.664 L
169.683 217.662 L
169.447 215.653 L
169.244 213.639 L
169.075 211.62 L
168.939 209.597 L
168.837 207.572 L
168.769 205.544 L
168.735 203.515 L
168.735 201.485 L
168.769 199.456 L
168.837 197.428 L
168.939 195.403 L
169.075 193.38 L
169.244 191.361 L
169.447 189.347 L
169.683 187.338 L
169.952 185.336 L
170.254 183.34 L
170.589 181.353 L
170.957 179.374 L
171.356 177.405 L
171.787 175.446 L
172.25 173.499 L
172.744 171.563 L
173.268 169.639 L
173.823 167.729 L
174.408 165.832 L
175.022 163.95 L
175.664 162.084 L
176.335 160.233 L
177.035 158.399 L
177.761 156.581 L
178.514 154.782 L
179.294 153 L
180.099 151.238 L
180.929 149.494 L
181.783 147.771 L
182.662 146.067 L
183.564 144.384 L
184.488 142.723 L
185.434 141.082 L
186.402 139.464 L
187.39 137.868 L
188.399 136.294 L
189.426 134.743 L
190.473 133.215 L
191.537 131.71 L
192.619 130.229 L
193.718 128.772 L
194.833 127.338 L
195.963 125.929 L
197.108 124.544 L
198.267 123.184 L
199.439 121.848 L
200.624 120.536 L
201.821 119.249 L
203.03 117.987 L
204.25 116.75 L
S
GR
GS
[0.75 0 0 0.75 0 0] CT
1 0 0 RC
1 LJ
1.6 LW
N
375.75 288.25 M
374.513 289.47 L
373.251 290.679 L
371.964 291.876 L
370.652 293.061 L
369.316 294.233 L
367.956 295.392 L
366.571 296.537 L
365.162 297.667 L
363.728 298.782 L
362.271 299.881 L
360.79 300.963 L
359.285 302.027 L
357.757 303.074 L
356.206 304.101 L
354.632 305.11 L
353.036 306.098 L
351.418 307.066 L
349.777 308.012 L
348.116 308.936 L
346.433 309.838 L
344.729 310.717 L
343.006 311.571 L
341.262 312.401 L
339.5 313.206 L
337.718 313.986 L
335.919 314.739 L
334.101 315.465 L
332.267 316.164 L
330.416 316.836 L
328.55 317.478 L
326.668 318.092 L
324.771 318.677 L
322.861 319.232 L
320.937 319.756 L
319.001 320.25 L
317.054 320.713 L
315.095 321.144 L
313.126 321.543 L
311.147 321.911 L
309.16 322.246 L
307.164 322.548 L
305.162 322.817 L
303.153 323.053 L
301.139 323.256 L
299.12 323.425 L
297.097 323.561 L
295.072 323.663 L
293.044 323.731 L
291.015 323.765 L
288.985 323.765 L
286.956 323.731 L
284.928 323.663 L
282.903 323.561 L
280.88 323.425 L
278.861 323.256 L
276.847 323.053 L
274.838 322.817 L
272.836 322.548 L
270.84 322.246 L
268.853 321.911 L
266.874 321.543 L
264.905 321.144 L
262.946 320.713 L
260.999 320.25 L
259.063 319.756 L
257.139 319.232 L
255.229 318.677 L
253.332 318.092 L
251.45 317.478 L
249.584 316.836 L
247.733 316.164 L
245.899 315.465 L
244.081 314.739 L
242.282 313.986 L
240.5 313.206 L
238.738 312.401 L
236.994 311.571 L
235.271 310.717 L
233.567 309.838 L
231.884 308.936 L
230.223 308.012 L
228.582 307.066 L
226.964 306.098 L
225.368 305.11 L
223.794 304.101 L
222.243 303.074 L
220.715 302.027 L
219.21 300.963 L
217.729 299.881 L
216.272 298.782 L
214.838 297.667 L
213.429 296.537 L
212.044 295.392 L
210.684 294.233 L
209.348 293.061 L
208.036 291.876 L
206.749 290.679 L
205.487 289.47 L
204.25 288.25 L
S
GR
GS
[0.75 0 0 0.75 0 0] CT
1 0 0 RC
1 LJ
1.6 LW
N
381.4 282.201 M
380.095 283.347 L
378.764 284.484 L
377.406 285.61 L
376.021 286.726 L
374.609 287.829 L
373.171 288.921 L
371.705 289.999 L
370.214 291.064 L
368.695 292.114 L
367.151 293.15 L
365.581 294.17 L
363.985 295.174 L
362.363 296.162 L
360.716 297.132 L
359.044 298.084 L
357.348 299.017 L
355.627 299.931 L
353.882 300.825 L
352.114 301.698 L
350.323 302.551 L
348.508 303.381 L
346.672 304.189 L
344.814 304.975 L
342.935 305.736 L
341.035 306.474 L
339.116 307.187 L
337.176 307.874 L
335.218 308.536 L
333.242 309.172 L
331.249 309.781 L
329.238 310.362 L
327.212 310.916 L
325.17 311.442 L
323.113 311.939 L
321.043 312.407 L
318.96 312.845 L
316.865 313.254 L
314.758 313.633 L
312.641 313.982 L
310.514 314.299 L
308.378 314.586 L
306.235 314.841 L
304.084 315.065 L
301.928 315.258 L
299.766 315.418 L
297.6 315.547 L
295.431 315.643 L
293.26 315.708 L
291.087 315.74 L
288.913 315.74 L
286.74 315.708 L
284.569 315.643 L
282.4 315.547 L
280.234 315.418 L
278.072 315.258 L
275.916 315.065 L
273.765 314.841 L
271.622 314.586 L
269.486 314.299 L
267.359 313.982 L
265.242 313.633 L
263.135 313.254 L
261.04 312.845 L
258.957 312.407 L
256.887 311.939 L
254.83 311.442 L
252.788 310.916 L
250.762 310.362 L
248.751 309.781 L
246.758 309.172 L
244.782 308.536 L
242.824 307.874 L
240.884 307.187 L
238.965 306.474 L
237.065 305.736 L
235.186 304.975 L
233.328 304.189 L
231.492 303.381 L
229.677 302.551 L
227.886 301.698 L
226.118 300.825 L
224.373 299.931 L
222.652 299.017 L
220.956 298.084 L
219.284 297.132 L
217.637 296.162 L
216.015 295.174 L
214.419 294.17 L
212.849 293.15 L
211.305 292.114 L
209.786 291.064 L
208.295 289.999 L
206.829 288.921 L
205.391 287.829 L
203.979 286.726 L
202.594 285.61 L
201.236 284.484 L
199.905 283.347 L
198.6 282.201 L
S
GR
GS
[0.75 0 0 0.75 0 0] CT
1 0 0 RC
1 LJ
1.6 LW
N
386.755 275.607 M
385.389 276.67 L
383.993 277.724 L
382.569 278.769 L
381.116 279.804 L
379.633 280.828 L
378.122 281.842 L
376.582 282.843 L
375.013 283.832 L
373.416 284.809 L
371.79 285.771 L
370.137 286.72 L
368.455 287.654 L
366.745 288.572 L
365.008 289.475 L
363.244 290.361 L
361.454 291.23 L
359.636 292.081 L
357.793 292.914 L
355.924 293.728 L
354.03 294.522 L
352.111 295.296 L
350.168 296.05 L
348.202 296.782 L
346.212 297.492 L
344.2 298.18 L
342.167 298.846 L
340.111 299.487 L
338.036 300.105 L
335.94 300.699 L
333.826 301.267 L
331.693 301.81 L
329.543 302.327 L
327.376 302.819 L
325.193 303.283 L
322.995 303.72 L
320.782 304.13 L
318.557 304.512 L
316.318 304.866 L
314.069 305.192 L
311.809 305.489 L
309.539 305.757 L
307.261 305.996 L
304.975 306.206 L
302.682 306.385 L
300.384 306.536 L
298.081 306.656 L
295.775 306.746 L
293.466 306.806 L
291.156 306.837 L
288.844 306.837 L
286.534 306.806 L
284.225 306.746 L
281.919 306.656 L
279.616 306.536 L
277.318 306.385 L
275.025 306.206 L
272.739 305.996 L
270.461 305.757 L
268.191 305.489 L
265.931 305.192 L
263.682 304.866 L
261.443 304.512 L
259.218 304.13 L
257.005 303.72 L
254.807 303.283 L
252.624 302.819 L
250.457 302.327 L
248.307 301.81 L
246.174 301.267 L
244.06 300.699 L
241.964 300.105 L
239.889 299.487 L
237.833 298.846 L
235.8 298.18 L
233.788 297.492 L
231.798 296.782 L
229.832 296.05 L
227.889 295.296 L
225.97 294.522 L
224.076 293.728 L
222.207 292.914 L
220.364 292.081 L
218.546 291.23 L
216.756 290.361 L
214.992 289.475 L
213.255 288.572 L
211.545 287.654 L
209.863 286.72 L
208.21 285.771 L
206.584 284.809 L
204.987 283.832 L
203.418 282.843 L
201.878 281.842 L
200.367 280.828 L
198.884 279.804 L
197.431 278.769 L
196.007 277.724 L
194.611 276.67 L
193.245 275.607 L
S
GR
GS
[0.75 0 0 0.75 0 0] CT
1 0 0 RC
1 LJ
1.6 LW
N
391.747 268.483 M
390.324 269.452 L
388.871 270.413 L
387.386 271.366 L
385.87 272.31 L
384.324 273.245 L
382.746 274.17 L
381.137 275.084 L
379.498 275.988 L
377.828 276.88 L
376.127 277.759 L
374.396 278.626 L
372.636 279.48 L
370.845 280.32 L
369.025 281.146 L
367.175 281.956 L
365.297 282.751 L
363.391 283.53 L
361.456 284.293 L
359.494 285.038 L
357.504 285.765 L
355.488 286.475 L
353.446 287.165 L
351.378 287.836 L
349.286 288.487 L
347.169 289.118 L
345.029 289.728 L
342.866 290.317 L
340.68 290.883 L
338.473 291.428 L
336.246 291.949 L
333.998 292.448 L
331.732 292.923 L
329.447 293.374 L
327.146 293.8 L
324.828 294.201 L
322.494 294.578 L
320.146 294.929 L
317.785 295.254 L
315.411 295.553 L
313.026 295.826 L
310.63 296.072 L
308.225 296.292 L
305.812 296.484 L
303.392 296.65 L
300.965 296.788 L
298.534 296.898 L
296.098 296.981 L
293.66 297.036 L
291.22 297.064 L
288.78 297.064 L
286.34 297.036 L
283.902 296.981 L
281.466 296.898 L
279.035 296.788 L
276.608 296.65 L
274.188 296.484 L
271.775 296.292 L
269.37 296.072 L
266.974 295.826 L
264.589 295.553 L
262.215 295.254 L
259.854 294.929 L
257.506 294.578 L
255.172 294.201 L
252.854 293.8 L
250.553 293.374 L
248.268 292.923 L
246.002 292.448 L
243.754 291.949 L
241.527 291.428 L
239.32 290.883 L
237.134 290.317 L
234.971 289.728 L
232.831 289.118 L
230.714 288.487 L
228.622 287.836 L
226.554 287.165 L
224.512 286.475 L
222.496 285.765 L
220.506 285.038 L
218.544 284.293 L
216.609 283.53 L
214.703 282.751 L
212.825 281.956 L
210.975 281.146 L
209.155 280.32 L
207.364 279.48 L
205.604 278.626 L
203.873 277.759 L
202.172 276.88 L
200.502 275.988 L
198.863 275.084 L
197.254 274.17 L
195.676 273.245 L
194.13 272.31 L
192.614 271.366 L
191.129 270.413 L
189.676 269.452 L
188.253 268.483 L
S
GR
GS
[0.75 0 0 0.75 0 0] CT
1 0 0 RC
1 LJ
1.6 LW
N
396.306 260.854 M
394.833 261.719 L
393.328 262.577 L
391.789 263.428 L
390.218 264.271 L
388.613 265.106 L
386.976 265.932 L
385.305 266.749 L
383.602 267.557 L
381.866 268.354 L
380.098 269.141 L
378.298 269.916 L
376.466 270.68 L
374.602 271.432 L
372.706 272.171 L
370.779 272.897 L
368.822 273.609 L
366.834 274.307 L
364.816 274.99 L
362.769 275.658 L
360.693 276.31 L
358.588 276.945 L
356.455 277.564 L
354.295 278.166 L
352.109 278.75 L
349.896 279.316 L
347.659 279.863 L
345.396 280.392 L
343.11 280.9 L
340.801 281.389 L
338.47 281.857 L
336.118 282.305 L
333.745 282.731 L
331.353 283.136 L
328.942 283.519 L
326.514 283.88 L
324.069 284.218 L
321.609 284.533 L
319.134 284.826 L
316.646 285.094 L
314.146 285.34 L
311.635 285.561 L
309.113 285.758 L
306.583 285.931 L
304.045 286.08 L
301.5 286.204 L
298.95 286.303 L
296.396 286.378 L
293.839 286.428 L
291.28 286.452 L
288.72 286.452 L
286.161 286.428 L
283.604 286.378 L
281.05 286.303 L
278.5 286.204 L
275.955 286.08 L
273.417 285.931 L
270.887 285.758 L
268.365 285.561 L
265.854 285.34 L
263.354 285.094 L
260.866 284.826 L
258.391 284.533 L
255.931 284.218 L
253.486 283.88 L
251.058 283.519 L
248.647 283.136 L
246.255 282.731 L
243.882 282.305 L
241.53 281.857 L
239.199 281.389 L
236.89 280.9 L
234.604 280.392 L
232.341 279.863 L
230.104 279.316 L
227.891 278.75 L
225.705 278.166 L
223.545 277.564 L
221.412 276.945 L
219.307 276.31 L
217.231 275.658 L
215.184 274.99 L
213.166 274.307 L
211.178 273.609 L
209.221 272.897 L
207.294 272.171 L
205.398 271.432 L
203.534 270.68 L
201.702 269.916 L
199.902 269.141 L
198.134 268.354 L
196.398 267.557 L
194.695 266.749 L
193.024 265.932 L
191.387 265.106 L
189.782 264.271 L
188.211 263.428 L
186.672 262.577 L
185.167 261.719 L
183.694 260.854 L
S
GR
GS
[0.75 0 0 0.75 0 0] CT
1 0 0 RC
1 LJ
1.6 LW
N
400.365 252.757 M
398.848 253.508 L
397.297 254.253 L
395.712 254.992 L
394.091 255.724 L
392.436 256.449 L
390.746 257.168 L
389.022 257.878 L
387.263 258.58 L
385.47 259.273 L
383.642 259.958 L
381.78 260.632 L
379.885 261.297 L
377.956 261.951 L
375.994 262.595 L
373.999 263.227 L
371.971 263.847 L
369.911 264.455 L
367.82 265.05 L
365.697 265.631 L
363.544 266.2 L
361.36 266.754 L
359.147 267.293 L
356.905 267.818 L
354.635 268.328 L
352.337 268.821 L
350.013 269.299 L
347.662 269.759 L
345.286 270.203 L
342.886 270.63 L
340.462 271.038 L
338.016 271.429 L
335.548 271.801 L
333.06 272.155 L
330.552 272.489 L
328.025 272.804 L
325.481 273.1 L
322.92 273.375 L
320.344 273.63 L
317.754 273.865 L
315.15 274.079 L
312.535 274.273 L
309.909 274.445 L
307.274 274.596 L
304.63 274.726 L
301.98 274.835 L
299.324 274.921 L
296.663 274.987 L
293.999 275.03 L
291.333 275.052 L
288.667 275.052 L
286.001 275.03 L
283.337 274.987 L
280.676 274.921 L
278.02 274.835 L
275.37 274.726 L
272.726 274.596 L
270.091 274.445 L
267.465 274.273 L
264.85 274.079 L
262.246 273.865 L
259.656 273.63 L
257.08 273.375 L
254.519 273.1 L
251.975 272.804 L
249.448 272.489 L
246.94 272.155 L
244.452 271.801 L
241.984 271.429 L
239.538 271.038 L
237.114 270.63 L
234.714 270.203 L
232.338 269.759 L
229.987 269.299 L
227.663 268.821 L
225.365 268.328 L
223.095 267.818 L
220.853 267.293 L
218.64 266.754 L
216.456 266.2 L
214.303 265.631 L
212.18 265.05 L
210.089 264.455 L
208.029 263.847 L
206.001 263.227 L
204.006 262.595 L
202.044 261.951 L
200.115 261.297 L
198.22 260.632 L
196.358 259.958 L
194.53 259.273 L
192.737 258.58 L
190.978 257.878 L
189.254 257.168 L
187.564 256.449 L
185.909 255.724 L
184.288 254.992 L
182.703 254.253 L
181.152 253.508 L
179.635 252.757 L
S
GR
GS
[0.75 0 0 0.75 0 0] CT
1 0 0 RC
1 LJ
1.6 LW
N
403.859 244.24 M
402.306 244.868 L
400.717 245.491 L
399.091 246.109 L
397.43 246.721 L
395.732 247.328 L
393.997 247.929 L
392.227 248.524 L
390.42 249.112 L
388.578 249.693 L
386.699 250.266 L
384.786 250.831 L
382.836 251.388 L
380.852 251.936 L
378.833 252.475 L
376.779 253.005 L
374.691 253.525 L
372.569 254.035 L
370.415 254.534 L
368.227 255.022 L
366.008 255.499 L
363.756 255.964 L
361.474 256.417 L
359.162 256.857 L
356.819 257.285 L
354.448 257.699 L
352.049 258.1 L
349.622 258.487 L
347.169 258.86 L
344.69 259.218 L
342.187 259.561 L
339.66 259.889 L
337.11 260.202 L
334.538 260.499 L
331.946 260.78 L
329.334 261.045 L
326.703 261.293 L
324.056 261.525 L
321.392 261.74 L
318.713 261.937 L
316.02 262.117 L
313.315 262.28 L
310.599 262.425 L
307.873 262.552 L
305.138 262.661 L
302.396 262.752 L
299.647 262.825 L
296.894 262.88 L
294.138 262.917 L
291.38 262.935 L
288.62 262.935 L
285.862 262.917 L
283.106 262.88 L
280.353 262.825 L
277.604 262.752 L
274.862 262.661 L
272.127 262.552 L
269.401 262.425 L
266.685 262.28 L
263.98 262.117 L
261.287 261.937 L
258.608 261.74 L
255.944 261.525 L
253.297 261.293 L
250.666 261.045 L
248.054 260.78 L
245.462 260.499 L
242.89 260.202 L
240.34 259.889 L
237.813 259.561 L
235.31 259.218 L
232.831 258.86 L
230.378 258.487 L
227.951 258.1 L
225.552 257.699 L
223.181 257.285 L
220.838 256.857 L
218.526 256.417 L
216.244 255.964 L
213.992 255.499 L
211.773 255.022 L
209.585 254.534 L
207.43 254.035 L
205.309 253.525 L
203.221 253.005 L
201.167 252.475 L
199.148 251.936 L
197.164 251.388 L
195.214 250.831 L
193.3 250.266 L
191.422 249.693 L
189.58 249.112 L
187.773 248.524 L
186.003 247.929 L
184.268 247.328 L
182.57 246.721 L
180.909 246.109 L
179.283 245.491 L
177.694 244.868 L
176.141 244.24 L
S
GR
GS
[0.75 0 0 0.75 0 0] CT
1 0 0 RC
1 LJ
1.6 LW
N
406.732 235.361 M
405.149 235.858 L
403.529 236.351 L
401.871 236.841 L
400.176 237.326 L
398.443 237.807 L
396.672 238.283 L
394.865 238.754 L
393.019 239.22 L
391.137 239.68 L
389.217 240.135 L
387.26 240.583 L
385.267 241.024 L
383.237 241.459 L
381.172 241.887 L
379.07 242.307 L
376.933 242.72 L
374.761 243.124 L
372.554 243.52 L
370.314 243.908 L
368.04 244.286 L
365.733 244.655 L
363.394 245.015 L
361.023 245.365 L
358.622 245.704 L
356.19 246.033 L
353.729 246.352 L
351.24 246.659 L
348.723 246.955 L
346.18 247.24 L
343.611 247.513 L
341.017 247.774 L
338.399 248.022 L
335.759 248.259 L
333.097 248.482 L
330.415 248.693 L
327.713 248.89 L
324.994 249.074 L
322.257 249.245 L
319.505 249.402 L
316.739 249.545 L
313.96 249.674 L
311.169 249.79 L
308.367 249.891 L
305.557 249.978 L
302.739 250.05 L
299.915 250.108 L
297.085 250.152 L
294.253 250.181 L
291.418 250.195 L
288.582 250.195 L
285.747 250.181 L
282.915 250.152 L
280.085 250.108 L
277.261 250.05 L
274.443 249.978 L
271.633 249.891 L
268.831 249.79 L
266.04 249.674 L
263.261 249.545 L
260.495 249.402 L
257.743 249.245 L
255.006 249.074 L
252.287 248.89 L
249.585 248.693 L
246.903 248.482 L
244.241 248.259 L
241.601 248.022 L
238.983 247.774 L
236.389 247.513 L
233.82 247.24 L
231.277 246.955 L
228.76 246.659 L
226.271 246.352 L
223.81 246.033 L
221.378 245.704 L
218.977 245.365 L
216.606 245.015 L
214.267 244.655 L
211.96 244.286 L
209.686 243.908 L
207.446 243.52 L
205.239 243.124 L
203.067 242.72 L
200.93 242.307 L
198.828 241.887 L
196.763 241.459 L
194.733 241.024 L
192.74 240.583 L
190.783 240.135 L
188.863 239.68 L
186.981 239.22 L
185.135 238.754 L
183.328 238.283 L
181.557 237.807 L
179.824 237.326 L
178.129 236.841 L
176.471 236.351 L
174.851 235.858 L
173.268 235.361 L
S
GR
GS
[0.75 0 0 0.75 0 0] CT
1 0 0 RC
1 LJ
1.6 LW
N
408.933 226.189 M
407.327 226.549 L
405.684 226.906 L
404.001 227.26 L
402.281 227.612 L
400.521 227.96 L
398.724 228.305 L
396.887 228.646 L
395.013 228.984 L
393.1 229.317 L
391.149 229.647 L
389.16 229.972 L
387.133 230.292 L
385.068 230.607 L
382.967 230.917 L
380.829 231.222 L
378.654 231.521 L
376.444 231.814 L
374.198 232.102 L
371.916 232.383 L
369.601 232.657 L
367.251 232.925 L
364.869 233.186 L
362.454 233.44 L
360.007 233.686 L
357.529 233.925 L
355.021 234.156 L
352.484 234.379 L
349.918 234.594 L
347.325 234.801 L
344.705 234.999 L
342.06 235.189 L
339.39 235.369 L
336.697 235.541 L
333.982 235.703 L
331.246 235.856 L
328.49 235.999 L
325.715 236.133 L
322.923 236.257 L
320.115 236.371 L
317.292 236.475 L
314.456 236.569 L
311.607 236.653 L
308.748 236.726 L
305.88 236.789 L
303.003 236.842 L
300.12 236.884 L
297.233 236.916 L
294.341 236.937 L
291.447 236.948 L
288.553 236.948 L
285.659 236.937 L
282.767 236.916 L
279.88 236.884 L
276.997 236.842 L
274.12 236.789 L
271.252 236.726 L
268.393 236.653 L
265.544 236.569 L
262.708 236.475 L
259.885 236.371 L
257.077 236.257 L
254.285 236.133 L
251.51 235.999 L
248.754 235.856 L
246.018 235.703 L
243.303 235.541 L
240.61 235.369 L
237.94 235.189 L
235.295 234.999 L
232.675 234.801 L
230.082 234.594 L
227.516 234.379 L
224.979 234.156 L
222.471 233.925 L
219.993 233.686 L
217.546 233.44 L
215.131 233.186 L
212.749 232.925 L
210.399 232.657 L
208.084 232.383 L
205.802 232.102 L
203.556 231.814 L
201.346 231.521 L
199.171 231.222 L
197.033 230.917 L
194.932 230.607 L
192.867 230.292 L
190.84 229.972 L
188.851 229.647 L
186.9 229.317 L
184.987 228.984 L
183.113 228.646 L
181.276 228.305 L
179.479 227.96 L
177.719 227.612 L
175.999 227.26 L
174.316 226.906 L
172.673 226.549 L
171.067 226.189 L
S
GR
GS
[0.75 0 0 0.75 0 0] CT
1 0 0 RC
1 LJ
1.6 LW
N
410.423 216.802 M
408.802 217.019 L
407.143 217.236 L
405.444 217.45 L
403.706 217.663 L
401.929 217.874 L
400.113 218.083 L
398.258 218.29 L
396.363 218.494 L
394.43 218.696 L
392.458 218.896 L
390.447 219.093 L
388.397 219.287 L
386.31 219.478 L
384.184 219.666 L
382.021 219.85 L
379.821 220.032 L
377.585 220.209 L
375.312 220.384 L
373.003 220.554 L
370.66 220.72 L
368.282 220.883 L
365.87 221.041 L
363.424 221.195 L
360.947 221.344 L
358.438 221.489 L
355.898 221.63 L
353.328 221.765 L
350.729 221.895 L
348.102 222.021 L
345.448 222.141 L
342.768 222.256 L
340.063 222.365 L
337.335 222.469 L
334.583 222.568 L
331.81 222.661 L
329.017 222.748 L
326.205 222.829 L
323.375 222.904 L
320.529 222.973 L
317.668 223.036 L
314.793 223.093 L
311.905 223.144 L
309.007 223.189 L
306.099 223.227 L
303.183 223.259 L
300.26 223.285 L
297.332 223.304 L
294.401 223.317 L
291.467 223.323 L
288.533 223.323 L
285.599 223.317 L
282.668 223.304 L
279.74 223.285 L
276.817 223.259 L
273.901 223.227 L
270.993 223.189 L
268.095 223.144 L
265.207 223.093 L
262.332 223.036 L
259.471 222.973 L
256.625 222.904 L
253.795 222.829 L
250.983 222.748 L
248.19 222.661 L
245.417 222.568 L
242.665 222.469 L
239.937 222.365 L
237.232 222.256 L
234.552 222.141 L
231.898 222.021 L
229.271 221.895 L
226.672 221.765 L
224.102 221.63 L
221.562 221.489 L
219.053 221.344 L
216.576 221.195 L
214.13 221.041 L
211.718 220.883 L
209.34 220.72 L
206.997 220.554 L
204.688 220.384 L
202.415 220.209 L
200.179 220.032 L
197.979 219.85 L
195.816 219.666 L
193.69 219.478 L
191.603 219.287 L
189.553 219.093 L
187.542 218.896 L
185.57 218.696 L
183.637 218.494 L
181.742 218.29 L
179.887 218.083 L
178.071 217.874 L
176.294 217.663 L
174.556 217.45 L
172.857 217.236 L
171.198 217.019 L
169.577 216.802 L
S
GR
GS
[0.75 0 0 0.75 0 0] CT
1 0 0 RC
1 LJ
1.6 LW
N
411.174 207.282 M
409.547 207.355 L
407.879 207.427 L
406.172 207.499 L
404.426 207.571 L
402.64 207.641 L
400.815 207.711 L
398.95 207.78 L
397.045 207.849 L
395.102 207.917 L
393.119 207.983 L
391.097 208.049 L
389.036 208.114 L
386.937 208.178 L
384.799 208.241 L
382.624 208.303 L
380.411 208.364 L
378.161 208.423 L
375.875 208.482 L
373.552 208.539 L
371.195 208.595 L
368.802 208.649 L
366.375 208.702 L
363.915 208.754 L
361.422 208.804 L
358.897 208.852 L
356.341 208.899 L
353.754 208.945 L
351.139 208.988 L
348.495 209.031 L
345.824 209.071 L
343.126 209.109 L
340.404 209.146 L
337.657 209.181 L
334.887 209.214 L
332.096 209.245 L
329.284 209.274 L
326.453 209.301 L
323.604 209.327 L
320.738 209.35 L
317.857 209.371 L
314.963 209.39 L
312.056 209.407 L
309.137 209.422 L
306.21 209.435 L
303.274 209.446 L
300.331 209.454 L
297.383 209.461 L
294.431 209.465 L
291.477 209.467 L
288.523 209.467 L
285.569 209.465 L
282.617 209.461 L
279.669 209.454 L
276.726 209.446 L
273.79 209.435 L
270.863 209.422 L
267.944 209.407 L
265.037 209.39 L
262.143 209.371 L
259.262 209.35 L
256.396 209.327 L
253.547 209.301 L
250.716 209.274 L
247.904 209.245 L
245.113 209.214 L
242.343 209.181 L
239.596 209.146 L
236.874 209.109 L
234.176 209.071 L
231.505 209.031 L
228.861 208.988 L
226.246 208.945 L
223.659 208.899 L
221.103 208.852 L
218.578 208.804 L
216.085 208.754 L
213.625 208.702 L
211.198 208.649 L
208.805 208.595 L
206.448 208.539 L
204.125 208.482 L
201.839 208.423 L
199.589 208.364 L
197.376 208.303 L
195.201 208.241 L
193.063 208.178 L
190.964 208.114 L
188.903 208.049 L
186.881 207.983 L
184.898 207.917 L
182.955 207.849 L
181.05 207.78 L
179.185 207.711 L
177.36 207.641 L
175.574 207.571 L
173.828 207.499 L
172.121 207.427 L
170.453 207.355 L
168.826 207.282 L
S
GR
GS
[0.75 0 0 0.75 0 0] CT
1 0 0 RC
1 LJ
1.6 LW
N
411.174 197.718 M
409.547 197.645 L
407.879 197.573 L
406.172 197.501 L
404.426 197.429 L
402.64 197.359 L
400.815 197.289 L
398.95 197.22 L
397.045 197.151 L
395.102 197.083 L
393.119 197.017 L
391.097 196.951 L
389.036 196.886 L
386.937 196.822 L
384.799 196.759 L
382.624 196.697 L
380.411 196.636 L
378.161 196.577 L
375.875 196.518 L
373.552 196.461 L
371.195 196.405 L
368.802 196.351 L
366.375 196.298 L
363.915 196.246 L
361.422 196.196 L
358.897 196.148 L
356.341 196.101 L
353.754 196.055 L
351.139 196.012 L
348.495 195.969 L
345.824 195.929 L
343.126 195.891 L
340.404 195.854 L
337.657 195.819 L
334.887 195.786 L
332.096 195.755 L
329.284 195.726 L
326.453 195.699 L
323.604 195.673 L
320.738 195.65 L
317.857 195.629 L
314.963 195.61 L
312.056 195.593 L
309.137 195.578 L
306.21 195.565 L
303.274 195.554 L
300.331 195.546 L
297.383 195.539 L
294.431 195.535 L
291.477 195.533 L
288.523 195.533 L
285.569 195.535 L
282.617 195.539 L
279.669 195.546 L
276.726 195.554 L
273.79 195.565 L
270.863 195.578 L
267.944 195.593 L
265.037 195.61 L
262.143 195.629 L
259.262 195.65 L
256.396 195.673 L
253.547 195.699 L
250.716 195.726 L
247.904 195.755 L
245.113 195.786 L
242.343 195.819 L
239.596 195.854 L
236.874 195.891 L
234.176 195.929 L
231.505 195.969 L
228.861 196.012 L
226.246 196.055 L
223.659 196.101 L
221.103 196.148 L
218.578 196.196 L
216.085 196.246 L
213.625 196.298 L
211.198 196.351 L
208.805 196.405 L
206.448 196.461 L
204.125 196.518 L
201.839 196.577 L
199.589 196.636 L
197.376 196.697 L
195.201 196.759 L
193.063 196.822 L
190.964 196.886 L
188.903 196.951 L
186.881 197.017 L
184.898 197.083 L
182.955 197.151 L
181.05 197.22 L
179.185 197.289 L
177.36 197.359 L
175.574 197.429 L
173.828 197.501 L
172.121 197.573 L
170.453 197.645 L
168.826 197.718 L
S
GR
GS
[0.75 0 0 0.75 0 0] CT
1 0 0 RC
1 LJ
1.6 LW
N
410.423 188.198 M
408.802 187.981 L
407.143 187.764 L
405.444 187.55 L
403.706 187.337 L
401.929 187.126 L
400.113 186.917 L
398.258 186.71 L
396.363 186.506 L
394.43 186.304 L
392.458 186.104 L
390.447 185.907 L
388.397 185.713 L
386.31 185.522 L
384.184 185.334 L
382.021 185.15 L
379.821 184.968 L
377.585 184.791 L
375.312 184.616 L
373.003 184.446 L
370.66 184.28 L
368.282 184.117 L
365.87 183.959 L
363.424 183.805 L
360.947 183.656 L
358.438 183.511 L
355.898 183.37 L
353.328 183.235 L
350.729 183.105 L
348.102 182.979 L
345.448 182.859 L
342.768 182.744 L
340.063 182.635 L
337.335 182.531 L
334.583 182.432 L
331.81 182.339 L
329.017 182.252 L
326.205 182.171 L
323.375 182.096 L
320.529 182.027 L
317.668 181.964 L
314.793 181.907 L
311.905 181.856 L
309.007 181.811 L
306.099 181.773 L
303.183 181.741 L
300.26 181.715 L
297.332 181.696 L
294.401 181.683 L
291.467 181.677 L
288.533 181.677 L
285.599 181.683 L
282.668 181.696 L
279.74 181.715 L
276.817 181.741 L
273.901 181.773 L
270.993 181.811 L
268.095 181.856 L
265.207 181.907 L
262.332 181.964 L
259.471 182.027 L
256.625 182.096 L
253.795 182.171 L
250.983 182.252 L
248.19 182.339 L
245.417 182.432 L
242.665 182.531 L
239.937 182.635 L
237.232 182.744 L
234.552 182.859 L
231.898 182.979 L
229.271 183.105 L
226.672 183.235 L
224.102 183.37 L
221.562 183.511 L
219.053 183.656 L
216.576 183.805 L
214.13 183.959 L
211.718 184.117 L
209.34 184.28 L
206.997 184.446 L
204.688 184.616 L
202.415 184.791 L
200.179 184.968 L
197.979 185.15 L
195.816 185.334 L
193.69 185.522 L
191.603 185.713 L
189.553 185.907 L
187.542 186.104 L
185.57 186.304 L
183.637 186.506 L
181.742 186.71 L
179.887 186.917 L
178.071 187.126 L
176.294 187.337 L
174.556 187.55 L
172.857 187.764 L
171.198 187.981 L
169.577 188.198 L
S
GR
GS
[0.75 0 0 0.75 0 0] CT
1 0 0 RC
1 LJ
1.6 LW
N
408.933 178.811 M
407.327 178.451 L
405.684 178.094 L
404.001 177.74 L
402.281 177.388 L
400.521 177.04 L
398.724 176.695 L
396.887 176.354 L
395.013 176.016 L
393.1 175.683 L
391.149 175.353 L
389.16 175.028 L
387.133 174.708 L
385.068 174.393 L
382.967 174.083 L
380.829 173.778 L
378.654 173.479 L
376.444 173.186 L
374.198 172.898 L
371.916 172.617 L
369.601 172.343 L
367.251 172.075 L
364.869 171.814 L
362.454 171.56 L
360.007 171.314 L
357.529 171.075 L
355.021 170.844 L
352.484 170.621 L
349.918 170.406 L
347.325 170.199 L
344.705 170.001 L
342.06 169.811 L
339.39 169.631 L
336.697 169.459 L
333.982 169.297 L
331.246 169.144 L
328.49 169.001 L
325.715 168.867 L
322.923 168.743 L
320.115 168.629 L
317.292 168.525 L
314.456 168.431 L
311.607 168.347 L
308.748 168.274 L
305.88 168.211 L
303.003 168.158 L
300.12 168.116 L
297.233 168.084 L
294.341 168.063 L
291.447 168.052 L
288.553 168.052 L
285.659 168.063 L
282.767 168.084 L
279.88 168.116 L
276.997 168.158 L
274.12 168.211 L
271.252 168.274 L
268.393 168.347 L
265.544 168.431 L
262.708 168.525 L
259.885 168.629 L
257.077 168.743 L
254.285 168.867 L
251.51 169.001 L
248.754 169.144 L
246.018 169.297 L
243.303 169.459 L
240.61 169.631 L
237.94 169.811 L
235.295 170.001 L
232.675 170.199 L
230.082 170.406 L
227.516 170.621 L
224.979 170.844 L
222.471 171.075 L
219.993 171.314 L
217.546 171.56 L
215.131 171.814 L
212.749 172.075 L
210.399 172.343 L
208.084 172.617 L
205.802 172.898 L
203.556 173.186 L
201.346 173.479 L
199.171 173.778 L
197.033 174.083 L
194.932 174.393 L
192.867 174.708 L
190.84 175.028 L
188.851 175.353 L
186.9 175.683 L
184.987 176.016 L
183.113 176.354 L
181.276 176.695 L
179.479 177.04 L
177.719 177.388 L
175.999 177.74 L
174.316 178.094 L
172.673 178.451 L
171.067 178.811 L
S
GR
GS
[0.75 0 0 0.75 0 0] CT
1 0 0 RC
1 LJ
1.6 LW
N
406.732 169.639 M
405.149 169.142 L
403.529 168.649 L
401.871 168.159 L
400.176 167.674 L
398.443 167.193 L
396.672 166.717 L
394.865 166.246 L
393.019 165.78 L
391.137 165.32 L
389.217 164.865 L
387.26 164.417 L
385.267 163.976 L
383.237 163.541 L
381.172 163.113 L
379.07 162.693 L
376.933 162.28 L
374.761 161.876 L
372.554 161.48 L
370.314 161.092 L
368.04 160.714 L
365.733 160.345 L
363.394 159.985 L
361.023 159.635 L
358.622 159.296 L
356.19 158.967 L
353.729 158.648 L
351.24 158.341 L
348.723 158.045 L
346.18 157.76 L
343.611 157.487 L
341.017 157.226 L
338.399 156.978 L
335.759 156.741 L
333.097 156.518 L
330.415 156.307 L
327.713 156.11 L
324.994 155.926 L
322.257 155.755 L
319.505 155.598 L
316.739 155.455 L
313.96 155.326 L
311.169 155.21 L
308.367 155.109 L
305.557 155.022 L
302.739 154.95 L
299.915 154.892 L
297.085 154.848 L
294.253 154.819 L
291.418 154.805 L
288.582 154.805 L
285.747 154.819 L
282.915 154.848 L
280.085 154.892 L
277.261 154.95 L
274.443 155.022 L
271.633 155.109 L
268.831 155.21 L
266.04 155.326 L
263.261 155.455 L
260.495 155.598 L
257.743 155.755 L
255.006 155.926 L
252.287 156.11 L
249.585 156.307 L
246.903 156.518 L
244.241 156.741 L
241.601 156.978 L
238.983 157.226 L
236.389 157.487 L
233.82 157.76 L
231.277 158.045 L
228.76 158.341 L
226.271 158.648 L
223.81 158.967 L
221.378 159.296 L
218.977 159.635 L
216.606 159.985 L
214.267 160.345 L
211.96 160.714 L
209.686 161.092 L
207.446 161.48 L
205.239 161.876 L
203.067 162.28 L
200.93 162.693 L
198.828 163.113 L
196.763 163.541 L
194.733 163.976 L
192.74 164.417 L
190.783 164.865 L
188.863 165.32 L
186.981 165.78 L
185.135 166.246 L
183.328 166.717 L
181.557 167.193 L
179.824 167.674 L
178.129 168.159 L
176.471 168.649 L
174.851 169.142 L
173.268 169.639 L
S
GR
GS
[0.75 0 0 0.75 0 0] CT
1 0 0 RC
1 LJ
1.6 LW
N
403.859 160.76 M
402.306 160.132 L
400.717 159.509 L
399.091 158.891 L
397.43 158.279 L
395.732 157.672 L
393.997 157.071 L
392.227 156.476 L
390.42 155.888 L
388.578 155.307 L
386.699 154.734 L
384.786 154.169 L
382.836 153.612 L
380.852 153.064 L
378.833 152.525 L
376.779 151.995 L
374.691 151.475 L
372.569 150.965 L
370.415 150.466 L
368.227 149.978 L
366.008 149.501 L
363.756 149.036 L
361.474 148.583 L
359.162 148.143 L
356.819 147.715 L
354.448 147.301 L
352.049 146.9 L
349.622 146.513 L
347.169 146.14 L
344.69 145.782 L
342.187 145.439 L
339.66 145.111 L
337.11 144.798 L
334.538 144.501 L
331.946 144.22 L
329.334 143.955 L
326.703 143.707 L
324.056 143.475 L
321.392 143.26 L
318.713 143.063 L
316.02 142.883 L
313.315 142.72 L
310.599 142.575 L
307.873 142.448 L
305.138 142.339 L
302.396 142.248 L
299.647 142.175 L
296.894 142.12 L
294.138 142.083 L
291.38 142.065 L
288.62 142.065 L
285.862 142.083 L
283.106 142.12 L
280.353 142.175 L
277.604 142.248 L
274.862 142.339 L
272.127 142.448 L
269.401 142.575 L
266.685 142.72 L
263.98 142.883 L
261.287 143.063 L
258.608 143.26 L
255.944 143.475 L
253.297 143.707 L
250.666 143.955 L
248.054 144.22 L
245.462 144.501 L
242.89 144.798 L
240.34 145.111 L
237.813 145.439 L
235.31 145.782 L
232.831 146.14 L
230.378 146.513 L
227.951 146.9 L
225.552 147.301 L
223.181 147.715 L
220.838 148.143 L
218.526 148.583 L
216.244 149.036 L
213.992 149.501 L
211.773 149.978 L
209.585 150.466 L
207.43 150.965 L
205.309 151.475 L
203.221 151.995 L
201.167 152.525 L
199.148 153.064 L
197.164 153.612 L
195.214 154.169 L
193.3 154.734 L
191.422 155.307 L
189.58 155.888 L
187.773 156.476 L
186.003 157.071 L
184.268 157.672 L
182.57 158.279 L
180.909 158.891 L
179.283 159.509 L
177.694 160.132 L
176.141 160.76 L
S
GR
GS
[0.75 0 0 0.75 0 0] CT
1 0 0 RC
1 LJ
1.6 LW
N
400.365 152.243 M
398.848 151.492 L
397.297 150.747 L
395.712 150.008 L
394.091 149.276 L
392.436 148.551 L
390.746 147.832 L
389.022 147.122 L
387.263 146.42 L
385.47 145.727 L
383.642 145.042 L
381.78 144.368 L
379.885 143.703 L
377.956 143.049 L
375.994 142.405 L
373.999 141.773 L
371.971 141.153 L
369.911 140.545 L
367.82 139.95 L
365.697 139.369 L
363.544 138.8 L
361.36 138.246 L
359.147 137.706 L
356.905 137.182 L
354.635 136.672 L
352.337 136.179 L
350.013 135.701 L
347.662 135.241 L
345.286 134.797 L
342.886 134.37 L
340.462 133.962 L
338.016 133.571 L
335.548 133.199 L
333.06 132.845 L
330.552 132.511 L
328.025 132.196 L
325.481 131.9 L
322.92 131.625 L
320.344 131.37 L
317.754 131.135 L
315.15 130.921 L
312.535 130.727 L
309.909 130.555 L
307.274 130.404 L
304.63 130.274 L
301.98 130.165 L
299.324 130.079 L
296.663 130.013 L
293.999 129.97 L
291.333 129.948 L
288.667 129.948 L
286.001 129.97 L
283.337 130.013 L
280.676 130.079 L
278.02 130.165 L
275.37 130.274 L
272.726 130.404 L
270.091 130.555 L
267.465 130.727 L
264.85 130.921 L
262.246 131.135 L
259.656 131.37 L
257.08 131.625 L
254.519 131.9 L
251.975 132.196 L
249.448 132.511 L
246.94 132.845 L
244.452 133.199 L
241.984 133.571 L
239.538 133.962 L
237.114 134.37 L
234.714 134.797 L
232.338 135.241 L
229.987 135.701 L
227.663 136.179 L
225.365 136.672 L
223.095 137.182 L
220.853 137.706 L
218.64 138.246 L
216.456 138.8 L
214.303 139.369 L
212.18 139.95 L
210.089 140.545 L
208.029 141.153 L
206.001 141.773 L
204.006 142.405 L
202.044 143.049 L
200.115 143.703 L
198.22 144.368 L
196.358 145.042 L
194.53 145.727 L
192.737 146.42 L
190.978 147.122 L
189.254 147.832 L
187.564 148.551 L
185.909 149.276 L
184.288 150.008 L
182.703 150.747 L
181.152 151.492 L
179.635 152.243 L
S
GR
GS
[0.75 0 0 0.75 0 0] CT
1 0 0 RC
1 LJ
1.6 LW
N
396.306 144.146 M
394.833 143.281 L
393.328 142.423 L
391.789 141.572 L
390.218 140.729 L
388.613 139.894 L
386.976 139.068 L
385.305 138.251 L
383.602 137.443 L
381.866 136.646 L
380.098 135.859 L
378.298 135.084 L
376.466 134.32 L
374.602 133.568 L
372.706 132.829 L
370.779 132.103 L
368.822 131.391 L
366.834 130.693 L
364.816 130.01 L
362.769 129.342 L
360.693 128.69 L
358.588 128.055 L
356.455 127.436 L
354.295 126.834 L
352.109 126.25 L
349.896 125.684 L
347.659 125.137 L
345.396 124.609 L
343.11 124.1 L
340.801 123.611 L
338.47 123.143 L
336.118 122.695 L
333.745 122.269 L
331.353 121.864 L
328.942 121.481 L
326.514 121.12 L
324.069 120.782 L
321.609 120.467 L
319.134 120.174 L
316.646 119.906 L
314.146 119.66 L
311.635 119.439 L
309.113 119.242 L
306.583 119.069 L
304.045 118.92 L
301.5 118.796 L
298.95 118.697 L
296.396 118.622 L
293.839 118.572 L
291.28 118.548 L
288.72 118.548 L
286.161 118.572 L
283.604 118.622 L
281.05 118.697 L
278.5 118.796 L
275.955 118.92 L
273.417 119.069 L
270.887 119.242 L
268.365 119.439 L
265.854 119.66 L
263.354 119.906 L
260.866 120.174 L
258.391 120.467 L
255.931 120.782 L
253.486 121.12 L
251.058 121.481 L
248.647 121.864 L
246.255 122.269 L
243.882 122.695 L
241.53 123.143 L
239.199 123.611 L
236.89 124.1 L
234.604 124.609 L
232.341 125.137 L
230.104 125.684 L
227.891 126.25 L
225.705 126.834 L
223.545 127.436 L
221.412 128.055 L
219.307 128.69 L
217.231 129.342 L
215.184 130.01 L
213.166 130.693 L
211.178 131.391 L
209.221 132.103 L
207.294 132.829 L
205.398 133.568 L
203.534 134.32 L
201.702 135.084 L
199.902 135.859 L
198.134 136.646 L
196.398 137.443 L
194.695 138.251 L
193.024 139.068 L
191.387 139.894 L
189.782 140.729 L
188.211 141.572 L
186.672 142.423 L
185.167 143.281 L
183.694 144.146 L
S
GR
GS
[0.75 0 0 0.75 0 0] CT
1 0 0 RC
1 LJ
1.6 LW
N
391.747 136.517 M
390.324 135.548 L
388.871 134.587 L
387.386 133.634 L
385.87 132.69 L
384.324 131.755 L
382.746 130.83 L
381.137 129.916 L
379.498 129.012 L
377.828 128.12 L
376.127 127.241 L
374.396 126.374 L
372.636 125.52 L
370.845 124.68 L
369.025 123.854 L
367.175 123.044 L
365.297 122.249 L
363.391 121.47 L
361.456 120.707 L
359.494 119.962 L
357.504 119.235 L
355.488 118.525 L
353.446 117.835 L
351.378 117.164 L
349.286 116.513 L
347.169 115.882 L
345.029 115.272 L
342.866 114.683 L
340.68 114.117 L
338.473 113.572 L
336.246 113.051 L
333.998 112.552 L
331.732 112.077 L
329.447 111.626 L
327.146 111.2 L
324.828 110.799 L
322.494 110.422 L
320.146 110.071 L
317.785 109.746 L
315.411 109.447 L
313.026 109.174 L
310.63 108.928 L
308.225 108.708 L
305.812 108.516 L
303.392 108.35 L
300.965 108.212 L
298.534 108.102 L
296.098 108.019 L
293.66 107.964 L
291.22 107.936 L
288.78 107.936 L
286.34 107.964 L
283.902 108.019 L
281.466 108.102 L
279.035 108.212 L
276.608 108.35 L
274.188 108.516 L
271.775 108.708 L
269.37 108.928 L
266.974 109.174 L
264.589 109.447 L
262.215 109.746 L
259.854 110.071 L
257.506 110.422 L
255.172 110.799 L
252.854 111.2 L
250.553 111.626 L
248.268 112.077 L
246.002 112.552 L
243.754 113.051 L
241.527 113.572 L
239.32 114.117 L
237.134 114.683 L
234.971 115.272 L
232.831 115.882 L
230.714 116.513 L
228.622 117.164 L
226.554 117.835 L
224.512 118.525 L
222.496 119.235 L
220.506 119.962 L
218.544 120.707 L
216.609 121.47 L
214.703 122.249 L
212.825 123.044 L
210.975 123.854 L
209.155 124.68 L
207.364 125.52 L
205.604 126.374 L
203.873 127.241 L
202.172 128.12 L
200.502 129.012 L
198.863 129.916 L
197.254 130.83 L
195.676 131.755 L
194.13 132.69 L
192.614 133.634 L
191.129 134.587 L
189.676 135.548 L
188.253 136.517 L
S
GR
GS
[0.75 0 0 0.75 0 0] CT
1 0 0 RC
1 LJ
1.6 LW
N
386.755 129.393 M
385.389 128.33 L
383.993 127.276 L
382.569 126.231 L
381.116 125.196 L
379.633 124.172 L
378.122 123.158 L
376.582 122.157 L
375.013 121.168 L
373.416 120.191 L
371.79 119.229 L
370.137 118.28 L
368.455 117.346 L
366.745 116.428 L
365.008 115.525 L
363.244 114.639 L
361.454 113.77 L
359.636 112.919 L
357.793 112.086 L
355.924 111.272 L
354.03 110.478 L
352.111 109.704 L
350.168 108.95 L
348.202 108.218 L
346.212 107.508 L
344.2 106.82 L
342.167 106.154 L
340.111 105.513 L
338.036 104.895 L
335.94 104.301 L
333.826 103.733 L
331.693 103.19 L
329.543 102.673 L
327.376 102.181 L
325.193 101.717 L
322.995 101.28 L
320.782 100.87 L
318.557 100.488 L
316.318 100.133 L
314.069 99.808 L
311.809 99.511 L
309.539 99.243 L
307.261 99.004 L
304.975 98.794 L
302.682 98.615 L
300.384 98.464 L
298.081 98.344 L
295.775 98.254 L
293.466 98.194 L
291.156 98.163 L
288.844 98.163 L
286.534 98.194 L
284.225 98.254 L
281.919 98.344 L
279.616 98.464 L
277.318 98.615 L
275.025 98.794 L
272.739 99.004 L
270.461 99.243 L
268.191 99.511 L
265.931 99.808 L
263.682 100.133 L
261.443 100.488 L
259.218 100.87 L
257.005 101.28 L
254.807 101.717 L
252.624 102.181 L
250.457 102.673 L
248.307 103.19 L
246.174 103.733 L
244.06 104.301 L
241.964 104.895 L
239.889 105.513 L
237.833 106.154 L
235.8 106.82 L
233.788 107.508 L
231.798 108.218 L
229.832 108.95 L
227.889 109.704 L
225.97 110.478 L
224.076 111.272 L
222.207 112.086 L
220.364 112.919 L
218.546 113.77 L
216.756 114.639 L
214.992 115.525 L
213.255 116.428 L
211.545 117.346 L
209.863 118.28 L
208.21 119.229 L
206.584 120.191 L
204.987 121.168 L
203.418 122.157 L
201.878 123.158 L
200.367 124.172 L
198.884 125.196 L
197.431 126.231 L
196.007 127.276 L
194.611 128.33 L
193.245 129.393 L
S
GR
GS
[0.75 0 0 0.75 0 0] CT
1 0 0 RC
1 LJ
1.6 LW
N
381.4 122.799 M
380.095 121.653 L
378.764 120.516 L
377.406 119.39 L
376.021 118.274 L
374.609 117.171 L
373.171 116.079 L
371.705 115.001 L
370.214 113.936 L
368.695 112.886 L
367.151 111.85 L
365.581 110.83 L
363.985 109.826 L
362.363 108.838 L
360.716 107.868 L
359.044 106.916 L
357.348 105.983 L
355.627 105.069 L
353.882 104.175 L
352.114 103.302 L
350.323 102.449 L
348.508 101.619 L
346.672 100.811 L
344.814 100.025 L
342.935 99.264 L
341.035 98.526 L
339.116 97.813 L
337.176 97.126 L
335.218 96.464 L
333.242 95.828 L
331.249 95.219 L
329.238 94.638 L
327.212 94.084 L
325.17 93.558 L
323.113 93.061 L
321.043 92.593 L
318.96 92.155 L
316.865 91.746 L
314.758 91.367 L
312.641 91.018 L
310.514 90.701 L
308.378 90.414 L
306.235 90.159 L
304.084 89.935 L
301.928 89.742 L
299.766 89.582 L
297.6 89.453 L
295.431 89.357 L
293.26 89.292 L
291.087 89.26 L
288.913 89.26 L
286.74 89.292 L
284.569 89.357 L
282.4 89.453 L
280.234 89.582 L
278.072 89.742 L
275.916 89.935 L
273.765 90.159 L
271.622 90.414 L
269.486 90.701 L
267.359 91.018 L
265.242 91.367 L
263.135 91.746 L
261.04 92.155 L
258.957 92.593 L
256.887 93.061 L
254.83 93.558 L
252.788 94.084 L
250.762 94.638 L
248.751 95.219 L
246.758 95.828 L
244.782 96.464 L
242.824 97.126 L
240.884 97.813 L
238.965 98.526 L
237.065 99.264 L
235.186 100.025 L
233.328 100.811 L
231.492 101.619 L
229.677 102.449 L
227.886 103.302 L
226.118 104.175 L
224.373 105.069 L
222.652 105.983 L
220.956 106.916 L
219.284 107.868 L
217.637 108.838 L
216.015 109.826 L
214.419 110.83 L
212.849 111.85 L
211.305 112.886 L
209.786 113.936 L
208.295 115.001 L
206.829 116.079 L
205.391 117.171 L
203.979 118.274 L
202.594 119.39 L
201.236 120.516 L
199.905 121.653 L
198.6 122.799 L
S
GR
GS
[0.75 0 0 0.75 0 0] CT
1 0 0 RC
1 LJ
1.6 LW
N
375.75 116.75 M
374.513 115.53 L
373.251 114.321 L
371.964 113.124 L
370.652 111.939 L
369.316 110.767 L
367.956 109.608 L
366.571 108.463 L
365.162 107.333 L
363.728 106.218 L
362.271 105.119 L
360.79 104.037 L
359.285 102.973 L
357.757 101.926 L
356.206 100.899 L
354.632 99.89 L
353.036 98.902 L
351.418 97.934 L
349.777 96.988 L
348.116 96.064 L
346.433 95.162 L
344.729 94.283 L
343.006 93.429 L
341.262 92.599 L
339.5 91.794 L
337.718 91.014 L
335.919 90.261 L
334.101 89.535 L
332.267 88.836 L
330.416 88.164 L
328.55 87.522 L
326.668 86.908 L
324.771 86.323 L
322.861 85.768 L
320.937 85.244 L
319.001 84.75 L
317.054 84.287 L
315.095 83.856 L
313.126 83.457 L
311.147 83.089 L
309.16 82.754 L
307.164 82.452 L
305.162 82.183 L
303.153 81.947 L
301.139 81.744 L
299.12 81.575 L
297.097 81.439 L
295.072 81.337 L
293.044 81.269 L
291.015 81.235 L
288.985 81.235 L
286.956 81.269 L
284.928 81.337 L
282.903 81.439 L
280.88 81.575 L
278.861 81.744 L
276.847 81.947 L
274.838 82.183 L
272.836 82.452 L
270.84 82.754 L
268.853 83.089 L
266.874 83.457 L
264.905 83.856 L
262.946 84.287 L
260.999 84.75 L
259.063 85.244 L
257.139 85.768 L
255.229 86.323 L
253.332 86.908 L
251.45 87.522 L
249.584 88.164 L
247.733 88.836 L
245.899 89.535 L
244.081 90.261 L
242.282 91.014 L
240.5 91.794 L
238.738 92.599 L
236.994 93.429 L
235.271 94.283 L
233.567 95.162 L
231.884 96.064 L
230.223 96.988 L
228.582 97.934 L
226.964 98.902 L
225.368 99.89 L
223.794 100.899 L
222.243 101.926 L
220.715 102.973 L
219.21 104.037 L
217.729 105.119 L
216.272 106.218 L
214.838 107.333 L
213.429 108.463 L
212.044 109.608 L
210.684 110.767 L
209.348 111.939 L
208.036 113.124 L
206.749 114.321 L
205.487 115.53 L
204.25 116.75 L
S
GR
%%Trailer
%%Pages: 1
%%EOF
