%!PS-Adobe-3.0 EPSF-3.0
%%Creator: (MATLAB, The Mathworks, Inc. Version 9.0.0.341360 \(R2016a\). Operating System: Windows 7)
%%Title: D:/codes/PHTdynamic/2D/compute/adprefinement/L1/Lshape/figures/Coarse-mesh1thmode0p3q3.eps
%%CreationDate: 2017-01-05T23:24:31
%%Pages: (atend)
%%BoundingBox:   120    34   315   292
%%LanguageLevel: 3
%%EndComments
%%BeginProlog
%%BeginResource: procset (Apache XML Graphics Std ProcSet) 1.2 0
%%Version: 1.2 0
%%Copyright: (Copyright 2001-2003,2010 The Apache Software Foundation. License terms: http://www.apache.org/licenses/LICENSE-2.0)
/bd{bind def}bind def
/ld{load def}bd
/GR/grestore ld
/M/moveto ld
/LJ/setlinejoin ld
/C/curveto ld
/f/fill ld
/LW/setlinewidth ld
/GC/setgray ld
/t/show ld
/N/newpath ld
/CT/concat ld
/cp/closepath ld
/S/stroke ld
/L/lineto ld
/CC/setcmykcolor ld
/A/ashow ld
/GS/gsave ld
/RC/setrgbcolor ld
/RM/rmoveto ld
/ML/setmiterlimit ld
/re {4 2 roll M
1 index 0 rlineto
0 exch rlineto
neg 0 rlineto
cp } bd
/_ctm matrix def
/_tm matrix def
/BT { _ctm currentmatrix pop matrix _tm copy pop 0 0 moveto } bd
/ET { _ctm setmatrix } bd
/iTm { _ctm setmatrix _tm concat } bd
/Tm { _tm astore pop iTm 0 0 moveto } bd
/ux 0.0 def
/uy 0.0 def
/F {
  /Tp exch def
  /Tf exch def
  Tf findfont Tp scalefont setfont
  /cf Tf def  /cs Tp def
} bd
/ULS {currentpoint /uy exch def /ux exch def} bd
/ULE {
  /Tcx currentpoint pop def
  gsave
  newpath
  cf findfont cs scalefont dup
  /FontMatrix get 0 get /Ts exch def /FontInfo get dup
  /UnderlinePosition get Ts mul /To exch def
  /UnderlineThickness get Ts mul /Tt exch def
  ux uy To add moveto  Tcx uy To add lineto
  Tt setlinewidth stroke
  grestore
} bd
/OLE {
  /Tcx currentpoint pop def
  gsave
  newpath
  cf findfont cs scalefont dup
  /FontMatrix get 0 get /Ts exch def /FontInfo get dup
  /UnderlinePosition get Ts mul /To exch def
  /UnderlineThickness get Ts mul /Tt exch def
  ux uy To add cs add moveto Tcx uy To add cs add lineto
  Tt setlinewidth stroke
  grestore
} bd
/SOE {
  /Tcx currentpoint pop def
  gsave
  newpath
  cf findfont cs scalefont dup
  /FontMatrix get 0 get /Ts exch def /FontInfo get dup
  /UnderlinePosition get Ts mul /To exch def
  /UnderlineThickness get Ts mul /Tt exch def
  ux uy To add cs 10 mul 26 idiv add moveto Tcx uy To add cs 10 mul 26 idiv add lineto
  Tt setlinewidth stroke
  grestore
} bd
/QT {
/Y22 exch store
/X22 exch store
/Y21 exch store
/X21 exch store
currentpoint
/Y21 load 2 mul add 3 div exch
/X21 load 2 mul add 3 div exch
/X21 load 2 mul /X22 load add 3 div
/Y21 load 2 mul /Y22 load add 3 div
/X22 load /Y22 load curveto
} bd
/SSPD {
dup length /d exch dict def
{
/v exch def
/k exch def
currentpagedevice k known {
/cpdv currentpagedevice k get def
v cpdv ne {
/upd false def
/nullv v type /nulltype eq def
/nullcpdv cpdv type /nulltype eq def
nullv nullcpdv or
{
/upd true def
} {
/sametype v type cpdv type eq def
sametype {
v type /arraytype eq {
/vlen v length def
/cpdvlen cpdv length def
vlen cpdvlen eq {
0 1 vlen 1 sub {
/i exch def
/obj v i get def
/cpdobj cpdv i get def
obj cpdobj ne {
/upd true def
exit
} if
} for
} {
/upd true def
} ifelse
} {
v type /dicttype eq {
v {
/dv exch def
/dk exch def
/cpddv cpdv dk get def
dv cpddv ne {
/upd true def
exit
} if
} forall
} {
/upd true def
} ifelse
} ifelse
} if
} ifelse
upd true eq {
d k v put
} if
} if
} if
} forall
d length 0 gt {
d setpagedevice
} if
} bd
%%EndResource
%%BeginResource: procset (Apache XML Graphics EPS ProcSet) 1.0 0
%%Version: 1.0 0
%%Copyright: (Copyright 2002-2003 The Apache Software Foundation. License terms: http://www.apache.org/licenses/LICENSE-2.0)
/BeginEPSF { %def
/b4_Inc_state save def         % Save state for cleanup
/dict_count countdictstack def % Count objects on dict stack
/op_count count 1 sub def      % Count objects on operand stack
userdict begin                 % Push userdict on dict stack
/showpage { } def              % Redefine showpage, { } = null proc
0 setgray 0 setlinecap         % Prepare graphics state
1 setlinewidth 0 setlinejoin
10 setmiterlimit [ ] 0 setdash newpath
/languagelevel where           % If level not equal to 1 then
{pop languagelevel             % set strokeadjust and
1 ne                           % overprint to their defaults.
{false setstrokeadjust false setoverprint
} if
} if
} bd
/EndEPSF { %def
count op_count sub {pop} repeat            % Clean up stacks
countdictstack dict_count sub {end} repeat
b4_Inc_state restore
} bd
%%EndResource
%FOPBeginFontDict
%%IncludeResource: font Courier-Bold
%%IncludeResource: font Helvetica
%%IncludeResource: font Courier-BoldOblique
%%IncludeResource: font Courier-Oblique
%%IncludeResource: font Times-Roman
%%IncludeResource: font Helvetica-BoldOblique
%%IncludeResource: font Helvetica-Bold
%%IncludeResource: font Helvetica-Oblique
%%IncludeResource: font Times-BoldItalic
%%IncludeResource: font Courier
%%IncludeResource: font Times-Italic
%%IncludeResource: font Times-Bold
%%IncludeResource: font Symbol
%%IncludeResource: font ZapfDingbats
%FOPEndFontDict
%%BeginResource: encoding WinAnsiEncoding
/WinAnsiEncoding [
/.notdef /.notdef /.notdef /.notdef /.notdef
/.notdef /.notdef /.notdef /.notdef /.notdef
/.notdef /.notdef /.notdef /.notdef /.notdef
/.notdef /.notdef /.notdef /.notdef /.notdef
/.notdef /.notdef /.notdef /.notdef /.notdef
/.notdef /.notdef /.notdef /.notdef /.notdef
/.notdef /.notdef /space /exclam /quotedbl
/numbersign /dollar /percent /ampersand /quotesingle
/parenleft /parenright /asterisk /plus /comma
/hyphen /period /slash /zero /one
/two /three /four /five /six
/seven /eight /nine /colon /semicolon
/less /equal /greater /question /at
/A /B /C /D /E
/F /G /H /I /J
/K /L /M /N /O
/P /Q /R /S /T
/U /V /W /X /Y
/Z /bracketleft /backslash /bracketright /asciicircum
/underscore /quoteleft /a /b /c
/d /e /f /g /h
/i /j /k /l /m
/n /o /p /q /r
/s /t /u /v /w
/x /y /z /braceleft /bar
/braceright /asciitilde /bullet /Euro /bullet
/quotesinglbase /florin /quotedblbase /ellipsis /dagger
/daggerdbl /circumflex /perthousand /Scaron /guilsinglleft
/OE /bullet /Zcaron /bullet /bullet
/quoteleft /quoteright /quotedblleft /quotedblright /bullet
/endash /emdash /asciitilde /trademark /scaron
/guilsinglright /oe /bullet /zcaron /Ydieresis
/space /exclamdown /cent /sterling /currency
/yen /brokenbar /section /dieresis /copyright
/ordfeminine /guillemotleft /logicalnot /sfthyphen /registered
/macron /degree /plusminus /twosuperior /threesuperior
/acute /mu /paragraph /middot /cedilla
/onesuperior /ordmasculine /guillemotright /onequarter /onehalf
/threequarters /questiondown /Agrave /Aacute /Acircumflex
/Atilde /Adieresis /Aring /AE /Ccedilla
/Egrave /Eacute /Ecircumflex /Edieresis /Igrave
/Iacute /Icircumflex /Idieresis /Eth /Ntilde
/Ograve /Oacute /Ocircumflex /Otilde /Odieresis
/multiply /Oslash /Ugrave /Uacute /Ucircumflex
/Udieresis /Yacute /Thorn /germandbls /agrave
/aacute /acircumflex /atilde /adieresis /aring
/ae /ccedilla /egrave /eacute /ecircumflex
/edieresis /igrave /iacute /icircumflex /idieresis
/eth /ntilde /ograve /oacute /ocircumflex
/otilde /odieresis /divide /oslash /ugrave
/uacute /ucircumflex /udieresis /yacute /thorn
/ydieresis
] def
%%EndResource
%FOPBeginFontReencode
/Courier-Bold findfont
dup length dict begin
  {1 index /FID ne {def} {pop pop} ifelse} forall
  /Encoding WinAnsiEncoding def
  currentdict
end
/Courier-Bold exch definefont pop
/Helvetica findfont
dup length dict begin
  {1 index /FID ne {def} {pop pop} ifelse} forall
  /Encoding WinAnsiEncoding def
  currentdict
end
/Helvetica exch definefont pop
/Courier-BoldOblique findfont
dup length dict begin
  {1 index /FID ne {def} {pop pop} ifelse} forall
  /Encoding WinAnsiEncoding def
  currentdict
end
/Courier-BoldOblique exch definefont pop
/Courier-Oblique findfont
dup length dict begin
  {1 index /FID ne {def} {pop pop} ifelse} forall
  /Encoding WinAnsiEncoding def
  currentdict
end
/Courier-Oblique exch definefont pop
/Times-Roman findfont
dup length dict begin
  {1 index /FID ne {def} {pop pop} ifelse} forall
  /Encoding WinAnsiEncoding def
  currentdict
end
/Times-Roman exch definefont pop
/Helvetica-BoldOblique findfont
dup length dict begin
  {1 index /FID ne {def} {pop pop} ifelse} forall
  /Encoding WinAnsiEncoding def
  currentdict
end
/Helvetica-BoldOblique exch definefont pop
/Helvetica-Bold findfont
dup length dict begin
  {1 index /FID ne {def} {pop pop} ifelse} forall
  /Encoding WinAnsiEncoding def
  currentdict
end
/Helvetica-Bold exch definefont pop
/Helvetica-Oblique findfont
dup length dict begin
  {1 index /FID ne {def} {pop pop} ifelse} forall
  /Encoding WinAnsiEncoding def
  currentdict
end
/Helvetica-Oblique exch definefont pop
/Times-BoldItalic findfont
dup length dict begin
  {1 index /FID ne {def} {pop pop} ifelse} forall
  /Encoding WinAnsiEncoding def
  currentdict
end
/Times-BoldItalic exch definefont pop
/Courier findfont
dup length dict begin
  {1 index /FID ne {def} {pop pop} ifelse} forall
  /Encoding WinAnsiEncoding def
  currentdict
end
/Courier exch definefont pop
/Times-Italic findfont
dup length dict begin
  {1 index /FID ne {def} {pop pop} ifelse} forall
  /Encoding WinAnsiEncoding def
  currentdict
end
/Times-Italic exch definefont pop
/Times-Bold findfont
dup length dict begin
  {1 index /FID ne {def} {pop pop} ifelse} forall
  /Encoding WinAnsiEncoding def
  currentdict
end
/Times-Bold exch definefont pop
%FOPEndFontReencode
%%EndProlog
%%Page: 1 1
%%PageBoundingBox: 0 0 420 315
%%BeginPageSetup
[1 0 0 -1 0 315] CT
%%EndPageSetup
GS
[0.75 0 0 0.75 0 0] CT
1 GC
N
0 0 560 420 re
f
GR
GS
[0.75 0 0 0.75 0 0] CT
1 GC
N
0 0 560 420 re
f
GR
GS
[0.75 0 0 0.75 0 0] CT
1 0 0 RC
1 LJ
0.667 LW
N
247.125 202.5 M
251.413 198.212 L
255.7 193.925 L
259.987 189.637 L
264.275 185.35 L
268.563 181.063 L
272.85 176.775 L
277.138 172.488 L
281.425 168.2 L
285.712 163.913 L
290 159.625 L
290 159.625 L
285.712 155.337 L
281.425 151.05 L
277.138 146.762 L
272.85 142.475 L
268.563 138.188 L
264.275 133.9 L
259.987 129.613 L
255.7 125.325 L
251.413 121.037 L
247.125 116.75 L
247.125 116.75 L
242.837 121.037 L
238.55 125.325 L
234.262 129.613 L
229.975 133.9 L
225.688 138.188 L
221.4 142.475 L
217.113 146.762 L
212.825 151.05 L
208.538 155.337 L
204.25 159.625 L
204.25 159.625 L
208.538 163.913 L
212.825 168.2 L
217.113 172.488 L
221.4 176.775 L
225.688 181.063 L
229.975 185.35 L
234.262 189.637 L
238.55 193.925 L
242.837 198.212 L
247.125 202.5 L
S
GR
GS
[0.75 0 0 0.75 0 0] CT
1 0 0 RC
1 LJ
0.667 LW
N
290 159.625 M
294.288 155.337 L
298.575 151.05 L
302.862 146.762 L
307.15 142.475 L
311.438 138.188 L
315.725 133.9 L
320.013 129.613 L
324.3 125.325 L
328.587 121.037 L
332.875 116.75 L
332.875 116.75 L
328.587 112.463 L
324.3 108.175 L
320.013 103.887 L
315.725 99.6 L
311.438 95.313 L
307.15 91.025 L
302.862 86.738 L
298.575 82.45 L
294.288 78.163 L
290 73.875 L
290 73.875 L
285.712 78.163 L
281.425 82.45 L
277.138 86.738 L
272.85 91.025 L
268.563 95.313 L
264.275 99.6 L
259.987 103.887 L
255.7 108.175 L
251.413 112.463 L
247.125 116.75 L
247.125 116.75 L
251.413 121.037 L
255.7 125.325 L
259.987 129.613 L
264.275 133.9 L
268.563 138.188 L
272.85 142.475 L
277.138 146.762 L
281.425 151.05 L
285.712 155.337 L
290 159.625 L
S
GR
GS
[0.75 0 0 0.75 0 0] CT
1 0 0 RC
1 LJ
0.667 LW
N
204.25 159.625 M
208.538 155.337 L
212.825 151.05 L
217.113 146.762 L
221.4 142.475 L
225.688 138.188 L
229.975 133.9 L
234.262 129.613 L
238.55 125.325 L
242.837 121.037 L
247.125 116.75 L
247.125 116.75 L
242.837 112.463 L
238.55 108.175 L
234.262 103.887 L
229.975 99.6 L
225.688 95.313 L
221.4 91.025 L
217.113 86.738 L
212.825 82.45 L
208.538 78.163 L
204.25 73.875 L
204.25 73.875 L
199.962 78.163 L
195.675 82.45 L
191.387 86.738 L
187.1 91.025 L
182.813 95.313 L
178.525 99.6 L
174.238 103.887 L
169.95 108.175 L
165.663 112.463 L
161.375 116.75 L
161.375 116.75 L
165.663 121.037 L
169.95 125.325 L
174.238 129.613 L
178.525 133.9 L
182.813 138.188 L
187.1 142.475 L
191.387 146.762 L
195.675 151.05 L
199.962 155.337 L
204.25 159.625 L
S
GR
GS
[0.75 0 0 0.75 0 0] CT
1 0 0 RC
1 LJ
0.667 LW
N
247.125 116.75 M
251.413 112.463 L
255.7 108.175 L
259.987 103.887 L
264.275 99.6 L
268.563 95.313 L
272.85 91.025 L
277.138 86.738 L
281.425 82.45 L
285.712 78.163 L
290 73.875 L
290 73.875 L
285.712 69.588 L
281.425 65.3 L
277.138 61.012 L
272.85 56.725 L
268.563 52.437 L
264.275 48.15 L
259.987 43.862 L
255.7 39.575 L
251.413 35.288 L
247.125 31 L
247.125 31 L
242.837 35.288 L
238.55 39.575 L
234.262 43.862 L
229.975 48.15 L
225.688 52.437 L
221.4 56.725 L
217.113 61.012 L
212.825 65.3 L
208.538 69.588 L
204.25 73.875 L
204.25 73.875 L
208.538 78.163 L
212.825 82.45 L
217.113 86.738 L
221.4 91.025 L
225.688 95.313 L
229.975 99.6 L
234.262 103.887 L
238.55 108.175 L
242.837 112.463 L
247.125 116.75 L
S
GR
GS
[0.75 0 0 0.75 0 0] CT
0 0 1 RC
1 LJ
0.667 LW
N
247.125 202.5 M
251.413 206.788 L
255.7 211.075 L
259.987 215.363 L
264.275 219.65 L
268.563 223.938 L
272.85 228.225 L
277.138 232.512 L
281.425 236.8 L
285.712 241.087 L
290 245.375 L
290 245.375 L
294.288 241.087 L
298.575 236.8 L
302.862 232.512 L
307.15 228.225 L
311.438 223.938 L
315.725 219.65 L
320.013 215.363 L
324.3 211.075 L
328.587 206.788 L
332.875 202.5 L
332.875 202.5 L
328.587 198.212 L
324.3 193.925 L
320.013 189.637 L
315.725 185.35 L
311.438 181.063 L
307.15 176.775 L
302.862 172.488 L
298.575 168.2 L
294.288 163.913 L
290 159.625 L
290 159.625 L
285.712 163.913 L
281.425 168.2 L
277.138 172.488 L
272.85 176.775 L
268.563 181.063 L
264.275 185.35 L
259.987 189.637 L
255.7 193.925 L
251.413 198.212 L
247.125 202.5 L
S
GR
GS
[0.75 0 0 0.75 0 0] CT
0 0 1 RC
1 LJ
0.667 LW
N
290 245.375 M
294.288 249.663 L
298.575 253.95 L
302.862 258.237 L
307.15 262.525 L
311.438 266.813 L
315.725 271.1 L
320.013 275.388 L
324.3 279.675 L
328.587 283.962 L
332.875 288.25 L
332.875 288.25 L
337.163 283.962 L
341.45 279.675 L
345.737 275.388 L
350.025 271.1 L
354.313 266.813 L
358.6 262.525 L
362.888 258.237 L
367.175 253.95 L
371.462 249.663 L
375.75 245.375 L
375.75 245.375 L
371.462 241.087 L
367.175 236.8 L
362.888 232.512 L
358.6 228.225 L
354.313 223.938 L
350.025 219.65 L
345.737 215.363 L
341.45 211.075 L
337.163 206.788 L
332.875 202.5 L
332.875 202.5 L
328.587 206.788 L
324.3 211.075 L
320.013 215.363 L
315.725 219.65 L
311.438 223.938 L
307.15 228.225 L
302.862 232.512 L
298.575 236.8 L
294.288 241.087 L
290 245.375 L
S
GR
GS
[0.75 0 0 0.75 0 0] CT
0 0 1 RC
1 LJ
0.667 LW
N
290 159.625 M
294.288 163.913 L
298.575 168.2 L
302.862 172.488 L
307.15 176.775 L
311.438 181.063 L
315.725 185.35 L
320.013 189.637 L
324.3 193.925 L
328.587 198.212 L
332.875 202.5 L
332.875 202.5 L
337.163 198.212 L
341.45 193.925 L
345.737 189.637 L
350.025 185.35 L
354.313 181.063 L
358.6 176.775 L
362.888 172.488 L
367.175 168.2 L
371.462 163.913 L
375.75 159.625 L
375.75 159.625 L
371.462 155.337 L
367.175 151.05 L
362.888 146.762 L
358.6 142.475 L
354.313 138.188 L
350.025 133.9 L
345.737 129.613 L
341.45 125.325 L
337.163 121.037 L
332.875 116.75 L
332.875 116.75 L
328.587 121.037 L
324.3 125.325 L
320.013 129.613 L
315.725 133.9 L
311.438 138.188 L
307.15 142.475 L
302.862 146.762 L
298.575 151.05 L
294.288 155.337 L
290 159.625 L
S
GR
GS
[0.75 0 0 0.75 0 0] CT
0 0 1 RC
1 LJ
0.667 LW
N
332.875 202.5 M
337.163 206.788 L
341.45 211.075 L
345.737 215.363 L
350.025 219.65 L
354.313 223.938 L
358.6 228.225 L
362.888 232.512 L
367.175 236.8 L
371.462 241.087 L
375.75 245.375 L
375.75 245.375 L
380.038 241.087 L
384.325 236.8 L
388.613 232.512 L
392.9 228.225 L
397.188 223.938 L
401.475 219.65 L
405.763 215.363 L
410.05 211.075 L
414.337 206.788 L
418.625 202.5 L
418.625 202.5 L
414.337 198.212 L
410.05 193.925 L
405.763 189.637 L
401.475 185.35 L
397.188 181.063 L
392.9 176.775 L
388.613 172.488 L
384.325 168.2 L
380.038 163.913 L
375.75 159.625 L
375.75 159.625 L
371.462 163.913 L
367.175 168.2 L
362.888 172.488 L
358.6 176.775 L
354.313 181.063 L
350.025 185.35 L
345.737 189.637 L
341.45 193.925 L
337.163 198.212 L
332.875 202.5 L
S
GR
GS
[0.75 0 0 0.75 0 0] CT
0 1 0 RC
1 LJ
0.667 LW
N
247.125 202.5 M
242.837 206.788 L
238.55 211.075 L
234.262 215.363 L
229.975 219.65 L
225.688 223.938 L
221.4 228.225 L
217.113 232.512 L
212.825 236.8 L
208.538 241.087 L
204.25 245.375 L
204.25 245.375 L
208.538 249.663 L
212.825 253.95 L
217.113 258.237 L
221.4 262.525 L
225.688 266.813 L
229.975 271.1 L
234.262 275.388 L
238.55 279.675 L
242.837 283.962 L
247.125 288.25 L
247.125 288.25 L
251.413 283.962 L
255.7 279.675 L
259.987 275.388 L
264.275 271.1 L
268.563 266.813 L
272.85 262.525 L
277.138 258.237 L
281.425 253.95 L
285.712 249.663 L
290 245.375 L
290 245.375 L
285.712 241.087 L
281.425 236.8 L
277.138 232.512 L
272.85 228.225 L
268.563 223.938 L
264.275 219.65 L
259.987 215.363 L
255.7 211.075 L
251.413 206.788 L
247.125 202.5 L
S
GR
GS
[0.75 0 0 0.75 0 0] CT
0 1 0 RC
1 LJ
0.667 LW
N
204.25 245.375 M
199.962 249.663 L
195.675 253.95 L
191.387 258.237 L
187.1 262.525 L
182.813 266.813 L
178.525 271.1 L
174.238 275.388 L
169.95 279.675 L
165.663 283.962 L
161.375 288.25 L
161.375 288.25 L
165.663 292.538 L
169.95 296.825 L
174.238 301.112 L
178.525 305.4 L
182.813 309.688 L
187.1 313.975 L
191.387 318.263 L
195.675 322.55 L
199.962 326.837 L
204.25 331.125 L
204.25 331.125 L
208.538 326.837 L
212.825 322.55 L
217.113 318.263 L
221.4 313.975 L
225.688 309.688 L
229.975 305.4 L
234.262 301.112 L
238.55 296.825 L
242.837 292.538 L
247.125 288.25 L
247.125 288.25 L
242.837 283.962 L
238.55 279.675 L
234.262 275.388 L
229.975 271.1 L
225.688 266.813 L
221.4 262.525 L
217.113 258.237 L
212.825 253.95 L
208.538 249.663 L
204.25 245.375 L
S
GR
GS
[0.75 0 0 0.75 0 0] CT
0 1 0 RC
1 LJ
0.667 LW
N
290 245.375 M
285.712 249.663 L
281.425 253.95 L
277.138 258.237 L
272.85 262.525 L
268.563 266.813 L
264.275 271.1 L
259.987 275.388 L
255.7 279.675 L
251.413 283.962 L
247.125 288.25 L
247.125 288.25 L
251.413 292.538 L
255.7 296.825 L
259.987 301.112 L
264.275 305.4 L
268.563 309.688 L
272.85 313.975 L
277.138 318.263 L
281.425 322.55 L
285.712 326.837 L
290 331.125 L
290 331.125 L
294.288 326.837 L
298.575 322.55 L
302.862 318.263 L
307.15 313.975 L
311.438 309.688 L
315.725 305.4 L
320.013 301.112 L
324.3 296.825 L
328.587 292.538 L
332.875 288.25 L
332.875 288.25 L
328.587 283.962 L
324.3 279.675 L
320.013 275.388 L
315.725 271.1 L
311.438 266.813 L
307.15 262.525 L
302.862 258.237 L
298.575 253.95 L
294.288 249.663 L
290 245.375 L
S
GR
GS
[0.75 0 0 0.75 0 0] CT
0 1 0 RC
1 LJ
0.667 LW
N
247.125 288.25 M
242.837 292.538 L
238.55 296.825 L
234.262 301.112 L
229.975 305.4 L
225.688 309.688 L
221.4 313.975 L
217.113 318.263 L
212.825 322.55 L
208.538 326.837 L
204.25 331.125 L
204.25 331.125 L
208.538 335.413 L
212.825 339.7 L
217.113 343.988 L
221.4 348.275 L
225.688 352.563 L
229.975 356.85 L
234.262 361.138 L
238.55 365.425 L
242.837 369.712 L
247.125 374 L
247.125 374 L
251.413 369.712 L
255.7 365.425 L
259.987 361.138 L
264.275 356.85 L
268.563 352.563 L
272.85 348.275 L
277.138 343.988 L
281.425 339.7 L
285.712 335.413 L
290 331.125 L
290 331.125 L
285.712 326.837 L
281.425 322.55 L
277.138 318.263 L
272.85 313.975 L
268.563 309.688 L
264.275 305.4 L
259.987 301.112 L
255.7 296.825 L
251.413 292.538 L
247.125 288.25 L
S
GR
%%Trailer
%%Pages: 1
%%EOF
