%!PS-Adobe-3.0 EPSF-3.0
%%Creator: (MATLAB, The Mathworks, Inc. Version 9.0.0.341360 \(R2016a\). Operating System: Windows 7)
%%Title: D:/codes/PHTdynamic/2D/compute/L1/platehole/figures/Coarse-mesh1thmode0p3q3.eps
%%CreationDate: 2016-12-22T01:21:46
%%Pages: (atend)
%%BoundingBox:    88    34   347   293
%%LanguageLevel: 3
%%EndComments
%%BeginProlog
%%BeginResource: procset (Apache XML Graphics Std ProcSet) 1.2 0
%%Version: 1.2 0
%%Copyright: (Copyright 2001-2003,2010 The Apache Software Foundation. License terms: http://www.apache.org/licenses/LICENSE-2.0)
/bd{bind def}bind def
/ld{load def}bd
/GR/grestore ld
/M/moveto ld
/LJ/setlinejoin ld
/C/curveto ld
/f/fill ld
/LW/setlinewidth ld
/GC/setgray ld
/t/show ld
/N/newpath ld
/CT/concat ld
/cp/closepath ld
/S/stroke ld
/L/lineto ld
/CC/setcmykcolor ld
/A/ashow ld
/GS/gsave ld
/RC/setrgbcolor ld
/RM/rmoveto ld
/ML/setmiterlimit ld
/re {4 2 roll M
1 index 0 rlineto
0 exch rlineto
neg 0 rlineto
cp } bd
/_ctm matrix def
/_tm matrix def
/BT { _ctm currentmatrix pop matrix _tm copy pop 0 0 moveto } bd
/ET { _ctm setmatrix } bd
/iTm { _ctm setmatrix _tm concat } bd
/Tm { _tm astore pop iTm 0 0 moveto } bd
/ux 0.0 def
/uy 0.0 def
/F {
  /Tp exch def
  /Tf exch def
  Tf findfont Tp scalefont setfont
  /cf Tf def  /cs Tp def
} bd
/ULS {currentpoint /uy exch def /ux exch def} bd
/ULE {
  /Tcx currentpoint pop def
  gsave
  newpath
  cf findfont cs scalefont dup
  /FontMatrix get 0 get /Ts exch def /FontInfo get dup
  /UnderlinePosition get Ts mul /To exch def
  /UnderlineThickness get Ts mul /Tt exch def
  ux uy To add moveto  Tcx uy To add lineto
  Tt setlinewidth stroke
  grestore
} bd
/OLE {
  /Tcx currentpoint pop def
  gsave
  newpath
  cf findfont cs scalefont dup
  /FontMatrix get 0 get /Ts exch def /FontInfo get dup
  /UnderlinePosition get Ts mul /To exch def
  /UnderlineThickness get Ts mul /Tt exch def
  ux uy To add cs add moveto Tcx uy To add cs add lineto
  Tt setlinewidth stroke
  grestore
} bd
/SOE {
  /Tcx currentpoint pop def
  gsave
  newpath
  cf findfont cs scalefont dup
  /FontMatrix get 0 get /Ts exch def /FontInfo get dup
  /UnderlinePosition get Ts mul /To exch def
  /UnderlineThickness get Ts mul /Tt exch def
  ux uy To add cs 10 mul 26 idiv add moveto Tcx uy To add cs 10 mul 26 idiv add lineto
  Tt setlinewidth stroke
  grestore
} bd
/QT {
/Y22 exch store
/X22 exch store
/Y21 exch store
/X21 exch store
currentpoint
/Y21 load 2 mul add 3 div exch
/X21 load 2 mul add 3 div exch
/X21 load 2 mul /X22 load add 3 div
/Y21 load 2 mul /Y22 load add 3 div
/X22 load /Y22 load curveto
} bd
/SSPD {
dup length /d exch dict def
{
/v exch def
/k exch def
currentpagedevice k known {
/cpdv currentpagedevice k get def
v cpdv ne {
/upd false def
/nullv v type /nulltype eq def
/nullcpdv cpdv type /nulltype eq def
nullv nullcpdv or
{
/upd true def
} {
/sametype v type cpdv type eq def
sametype {
v type /arraytype eq {
/vlen v length def
/cpdvlen cpdv length def
vlen cpdvlen eq {
0 1 vlen 1 sub {
/i exch def
/obj v i get def
/cpdobj cpdv i get def
obj cpdobj ne {
/upd true def
exit
} if
} for
} {
/upd true def
} ifelse
} {
v type /dicttype eq {
v {
/dv exch def
/dk exch def
/cpddv cpdv dk get def
dv cpddv ne {
/upd true def
exit
} if
} forall
} {
/upd true def
} ifelse
} ifelse
} if
} ifelse
upd true eq {
d k v put
} if
} if
} if
} forall
d length 0 gt {
d setpagedevice
} if
} bd
%%EndResource
%%BeginResource: procset (Apache XML Graphics EPS ProcSet) 1.0 0
%%Version: 1.0 0
%%Copyright: (Copyright 2002-2003 The Apache Software Foundation. License terms: http://www.apache.org/licenses/LICENSE-2.0)
/BeginEPSF { %def
/b4_Inc_state save def         % Save state for cleanup
/dict_count countdictstack def % Count objects on dict stack
/op_count count 1 sub def      % Count objects on operand stack
userdict begin                 % Push userdict on dict stack
/showpage { } def              % Redefine showpage, { } = null proc
0 setgray 0 setlinecap         % Prepare graphics state
1 setlinewidth 0 setlinejoin
10 setmiterlimit [ ] 0 setdash newpath
/languagelevel where           % If level not equal to 1 then
{pop languagelevel             % set strokeadjust and
1 ne                           % overprint to their defaults.
{false setstrokeadjust false setoverprint
} if
} if
} bd
/EndEPSF { %def
count op_count sub {pop} repeat            % Clean up stacks
countdictstack dict_count sub {end} repeat
b4_Inc_state restore
} bd
%%EndResource
%FOPBeginFontDict
%%IncludeResource: font Courier-Bold
%%IncludeResource: font Helvetica
%%IncludeResource: font Courier-BoldOblique
%%IncludeResource: font Courier-Oblique
%%IncludeResource: font Times-Roman
%%IncludeResource: font Helvetica-BoldOblique
%%IncludeResource: font Helvetica-Bold
%%IncludeResource: font Helvetica-Oblique
%%IncludeResource: font Times-BoldItalic
%%IncludeResource: font Courier
%%IncludeResource: font Times-Italic
%%IncludeResource: font Times-Bold
%%IncludeResource: font Symbol
%%IncludeResource: font ZapfDingbats
%FOPEndFontDict
%%BeginResource: encoding WinAnsiEncoding
/WinAnsiEncoding [
/.notdef /.notdef /.notdef /.notdef /.notdef
/.notdef /.notdef /.notdef /.notdef /.notdef
/.notdef /.notdef /.notdef /.notdef /.notdef
/.notdef /.notdef /.notdef /.notdef /.notdef
/.notdef /.notdef /.notdef /.notdef /.notdef
/.notdef /.notdef /.notdef /.notdef /.notdef
/.notdef /.notdef /space /exclam /quotedbl
/numbersign /dollar /percent /ampersand /quotesingle
/parenleft /parenright /asterisk /plus /comma
/hyphen /period /slash /zero /one
/two /three /four /five /six
/seven /eight /nine /colon /semicolon
/less /equal /greater /question /at
/A /B /C /D /E
/F /G /H /I /J
/K /L /M /N /O
/P /Q /R /S /T
/U /V /W /X /Y
/Z /bracketleft /backslash /bracketright /asciicircum
/underscore /quoteleft /a /b /c
/d /e /f /g /h
/i /j /k /l /m
/n /o /p /q /r
/s /t /u /v /w
/x /y /z /braceleft /bar
/braceright /asciitilde /bullet /Euro /bullet
/quotesinglbase /florin /quotedblbase /ellipsis /dagger
/daggerdbl /circumflex /perthousand /Scaron /guilsinglleft
/OE /bullet /Zcaron /bullet /bullet
/quoteleft /quoteright /quotedblleft /quotedblright /bullet
/endash /emdash /asciitilde /trademark /scaron
/guilsinglright /oe /bullet /zcaron /Ydieresis
/space /exclamdown /cent /sterling /currency
/yen /brokenbar /section /dieresis /copyright
/ordfeminine /guillemotleft /logicalnot /sfthyphen /registered
/macron /degree /plusminus /twosuperior /threesuperior
/acute /mu /paragraph /middot /cedilla
/onesuperior /ordmasculine /guillemotright /onequarter /onehalf
/threequarters /questiondown /Agrave /Aacute /Acircumflex
/Atilde /Adieresis /Aring /AE /Ccedilla
/Egrave /Eacute /Ecircumflex /Edieresis /Igrave
/Iacute /Icircumflex /Idieresis /Eth /Ntilde
/Ograve /Oacute /Ocircumflex /Otilde /Odieresis
/multiply /Oslash /Ugrave /Uacute /Ucircumflex
/Udieresis /Yacute /Thorn /germandbls /agrave
/aacute /acircumflex /atilde /adieresis /aring
/ae /ccedilla /egrave /eacute /ecircumflex
/edieresis /igrave /iacute /icircumflex /idieresis
/eth /ntilde /ograve /oacute /ocircumflex
/otilde /odieresis /divide /oslash /ugrave
/uacute /ucircumflex /udieresis /yacute /thorn
/ydieresis
] def
%%EndResource
%FOPBeginFontReencode
/Courier-Bold findfont
dup length dict begin
  {1 index /FID ne {def} {pop pop} ifelse} forall
  /Encoding WinAnsiEncoding def
  currentdict
end
/Courier-Bold exch definefont pop
/Helvetica findfont
dup length dict begin
  {1 index /FID ne {def} {pop pop} ifelse} forall
  /Encoding WinAnsiEncoding def
  currentdict
end
/Helvetica exch definefont pop
/Courier-BoldOblique findfont
dup length dict begin
  {1 index /FID ne {def} {pop pop} ifelse} forall
  /Encoding WinAnsiEncoding def
  currentdict
end
/Courier-BoldOblique exch definefont pop
/Courier-Oblique findfont
dup length dict begin
  {1 index /FID ne {def} {pop pop} ifelse} forall
  /Encoding WinAnsiEncoding def
  currentdict
end
/Courier-Oblique exch definefont pop
/Times-Roman findfont
dup length dict begin
  {1 index /FID ne {def} {pop pop} ifelse} forall
  /Encoding WinAnsiEncoding def
  currentdict
end
/Times-Roman exch definefont pop
/Helvetica-BoldOblique findfont
dup length dict begin
  {1 index /FID ne {def} {pop pop} ifelse} forall
  /Encoding WinAnsiEncoding def
  currentdict
end
/Helvetica-BoldOblique exch definefont pop
/Helvetica-Bold findfont
dup length dict begin
  {1 index /FID ne {def} {pop pop} ifelse} forall
  /Encoding WinAnsiEncoding def
  currentdict
end
/Helvetica-Bold exch definefont pop
/Helvetica-Oblique findfont
dup length dict begin
  {1 index /FID ne {def} {pop pop} ifelse} forall
  /Encoding WinAnsiEncoding def
  currentdict
end
/Helvetica-Oblique exch definefont pop
/Times-BoldItalic findfont
dup length dict begin
  {1 index /FID ne {def} {pop pop} ifelse} forall
  /Encoding WinAnsiEncoding def
  currentdict
end
/Times-BoldItalic exch definefont pop
/Courier findfont
dup length dict begin
  {1 index /FID ne {def} {pop pop} ifelse} forall
  /Encoding WinAnsiEncoding def
  currentdict
end
/Courier exch definefont pop
/Times-Italic findfont
dup length dict begin
  {1 index /FID ne {def} {pop pop} ifelse} forall
  /Encoding WinAnsiEncoding def
  currentdict
end
/Times-Italic exch definefont pop
/Times-Bold findfont
dup length dict begin
  {1 index /FID ne {def} {pop pop} ifelse} forall
  /Encoding WinAnsiEncoding def
  currentdict
end
/Times-Bold exch definefont pop
%FOPEndFontReencode
%%EndProlog
%%Page: 1 1
%%PageBoundingBox: 0 0 420 315
%%BeginPageSetup
[1 0 0 -1 0 315] CT
%%EndPageSetup
GS
[0.75 0 0 0.75 0 0] CT
1 GC
N
0 0 560 420 re
f
GR
GS
[0.75 0 0 0.75 0 0] CT
1 GC
N
0 0 560 420 re
f
GR
GS
[0.75 0 0 0.75 0 0] CT
1 0 0 RC
1 LJ
0.667 LW
N
375.75 374 M
375.804 370.947 L
375.971 367.854 L
376.253 364.728 L
376.655 361.573 L
377.182 358.397 L
377.835 355.205 L
378.619 352.006 L
379.535 348.806 L
380.585 345.613 L
381.771 342.436 L
381.771 342.436 L
367.074 334.624 L
352.556 326.907 L
338.214 319.284 L
324.044 311.753 L
310.044 304.311 L
296.211 296.959 L
282.542 289.693 L
269.033 282.513 L
255.682 275.416 L
242.486 268.402 L
242.486 268.402 L
242.49 279.242 L
242.6 290.049 L
242.817 300.813 L
243.137 311.521 L
243.56 322.163 L
244.083 332.726 L
244.703 343.202 L
245.419 353.579 L
246.227 363.848 L
247.125 374 L
247.125 374 L
259.988 374 L
272.85 374 L
285.712 374 L
298.575 374 L
311.438 374 L
324.3 374 L
337.163 374 L
350.025 374 L
362.888 374 L
375.75 374 L
S
GR
GS
[0.75 0 0 0.75 0 0] CT
1 0 0 RC
1 LJ
0.667 LW
N
381.771 342.436 M
383.092 339.283 L
384.55 336.161 L
386.143 333.081 L
387.87 330.05 L
389.728 327.077 L
391.714 324.17 L
393.826 321.338 L
396.059 318.588 L
398.407 315.928 L
400.866 313.366 L
400.866 313.366 L
384.466 296.966 L
368.342 280.842 L
352.489 264.989 L
336.898 249.398 L
321.564 234.064 L
306.48 218.98 L
291.64 204.14 L
277.039 189.539 L
262.67 175.17 L
248.528 161.028 L
248.528 161.028 L
247.426 171.489 L
246.433 182.046 L
245.55 192.685 L
244.778 203.395 L
244.118 214.162 L
243.57 224.973 L
243.133 235.816 L
242.807 246.677 L
242.592 257.543 L
242.486 268.402 L
242.486 268.402 L
255.682 275.416 L
269.033 282.513 L
282.542 289.693 L
296.211 296.959 L
310.044 304.311 L
324.044 311.753 L
338.214 319.284 L
352.556 326.907 L
367.074 334.624 L
381.771 342.436 L
S
GR
GS
[0.75 0 0 0.75 0 0] CT
1 0 0 RC
1 LJ
0.667 LW
N
247.125 374 M
246.227 363.848 L
245.419 353.579 L
244.703 343.202 L
244.083 332.726 L
243.56 322.163 L
243.137 311.521 L
242.817 300.813 L
242.6 290.049 L
242.49 279.242 L
242.486 268.402 L
242.486 268.402 L
229.443 261.469 L
216.549 254.616 L
203.803 247.841 L
191.202 241.143 L
178.743 234.521 L
166.424 227.973 L
154.242 221.498 L
142.196 215.095 L
130.282 208.763 L
118.5 202.5 L
118.5 202.5 L
118.5 219.65 L
118.5 236.8 L
118.5 253.95 L
118.5 271.1 L
118.5 288.25 L
118.5 305.4 L
118.5 322.55 L
118.5 339.7 L
118.5 356.85 L
118.5 374 L
118.5 374 L
131.363 374 L
144.225 374 L
157.088 374 L
169.95 374 L
182.813 374 L
195.675 374 L
208.537 374 L
221.4 374 L
234.262 374 L
247.125 374 L
S
GR
GS
[0.75 0 0 0.75 0 0] CT
1 0 0 RC
1 LJ
0.667 LW
N
242.486 268.402 M
242.592 257.543 L
242.807 246.677 L
243.133 235.816 L
243.57 224.973 L
244.118 214.162 L
244.778 203.395 L
245.55 192.685 L
246.433 182.046 L
247.426 171.489 L
248.528 161.028 L
248.528 161.028 L
234.608 147.108 L
220.904 133.404 L
207.412 119.912 L
194.127 106.627 L
181.043 93.543 L
168.157 80.657 L
155.464 67.964 L
142.96 55.46 L
130.64 43.14 L
118.5 31 L
118.5 31 L
118.5 48.15 L
118.5 65.3 L
118.5 82.45 L
118.5 99.6 L
118.5 116.75 L
118.5 133.9 L
118.5 151.05 L
118.5 168.2 L
118.5 185.35 L
118.5 202.5 L
118.5 202.5 L
130.282 208.763 L
142.196 215.095 L
154.242 221.498 L
166.424 227.973 L
178.743 234.521 L
191.202 241.143 L
203.803 247.841 L
216.549 254.616 L
229.443 261.469 L
242.486 268.402 L
S
GR
GS
[0.75 0 0 0.75 0 0] CT
0 0 1 RC
1 LJ
0.667 LW
N
400.866 313.366 M
403.428 310.907 L
406.088 308.559 L
408.838 306.326 L
411.67 304.214 L
414.577 302.228 L
417.55 300.37 L
420.581 298.643 L
423.661 297.05 L
426.783 295.592 L
429.936 294.271 L
429.936 294.271 L
422.124 279.574 L
414.407 265.056 L
406.784 250.714 L
399.253 236.544 L
391.811 222.544 L
384.459 208.711 L
377.193 195.042 L
370.013 181.533 L
362.916 168.182 L
355.902 154.986 L
355.902 154.986 L
345.043 155.092 L
334.177 155.307 L
323.316 155.633 L
312.473 156.07 L
301.662 156.618 L
290.895 157.278 L
280.185 158.05 L
269.546 158.933 L
258.989 159.926 L
248.528 161.028 L
248.528 161.028 L
262.67 175.17 L
277.039 189.539 L
291.64 204.14 L
306.48 218.98 L
321.564 234.064 L
336.898 249.398 L
352.489 264.989 L
368.342 280.842 L
384.466 296.966 L
400.866 313.366 L
S
GR
GS
[0.75 0 0 0.75 0 0] CT
0 0 1 RC
1 LJ
0.667 LW
N
429.936 294.271 M
433.113 293.085 L
436.306 292.035 L
439.506 291.119 L
442.705 290.335 L
445.897 289.682 L
449.073 289.155 L
452.228 288.753 L
455.354 288.471 L
458.447 288.304 L
461.5 288.25 L
461.5 288.25 L
461.5 275.388 L
461.5 262.525 L
461.5 249.662 L
461.5 236.8 L
461.5 223.938 L
461.5 211.075 L
461.5 198.213 L
461.5 185.35 L
461.5 172.488 L
461.5 159.625 L
461.5 159.625 L
451.348 158.727 L
441.079 157.919 L
430.702 157.203 L
420.226 156.583 L
409.663 156.06 L
399.021 155.637 L
388.313 155.317 L
377.549 155.1 L
366.742 154.99 L
355.902 154.986 L
355.902 154.986 L
362.916 168.182 L
370.013 181.533 L
377.193 195.042 L
384.459 208.711 L
391.811 222.544 L
399.253 236.544 L
406.784 250.714 L
414.407 265.056 L
422.124 279.574 L
429.936 294.271 L
S
GR
GS
[0.75 0 0 0.75 0 0] CT
0 0 1 RC
1 LJ
0.667 LW
N
248.528 161.028 M
258.989 159.926 L
269.546 158.933 L
280.185 158.05 L
290.895 157.278 L
301.662 156.618 L
312.473 156.07 L
323.316 155.633 L
334.177 155.307 L
345.043 155.092 L
355.902 154.986 L
355.902 154.986 L
348.969 141.943 L
342.116 129.049 L
335.341 116.303 L
328.643 103.702 L
322.021 91.243 L
315.473 78.924 L
308.998 66.742 L
302.595 54.696 L
296.263 42.782 L
290 31 L
290 31 L
272.85 31 L
255.7 31 L
238.55 31 L
221.4 31 L
204.25 31 L
187.1 31 L
169.95 31 L
152.8 31 L
135.65 31 L
118.5 31 L
118.5 31 L
130.64 43.14 L
142.96 55.46 L
155.464 67.964 L
168.157 80.657 L
181.043 93.543 L
194.127 106.627 L
207.412 119.912 L
220.904 133.404 L
234.608 147.108 L
248.528 161.028 L
S
GR
GS
[0.75 0 0 0.75 0 0] CT
0 0 1 RC
1 LJ
0.667 LW
N
355.902 154.986 M
366.742 154.99 L
377.549 155.1 L
388.313 155.317 L
399.021 155.637 L
409.663 156.06 L
420.226 156.583 L
430.702 157.203 L
441.079 157.919 L
451.348 158.727 L
461.5 159.625 L
461.5 159.625 L
461.5 146.762 L
461.5 133.9 L
461.5 121.037 L
461.5 108.175 L
461.5 95.313 L
461.5 82.45 L
461.5 69.588 L
461.5 56.725 L
461.5 43.863 L
461.5 31 L
461.5 31 L
444.35 31 L
427.2 31 L
410.05 31 L
392.9 31 L
375.75 31 L
358.6 31 L
341.45 31 L
324.3 31 L
307.15 31 L
290 31 L
290 31 L
296.263 42.782 L
302.595 54.696 L
308.998 66.742 L
315.473 78.924 L
322.021 91.243 L
328.643 103.702 L
335.341 116.303 L
342.116 129.049 L
348.969 141.943 L
355.902 154.986 L
S
GR
%%Trailer
%%Pages: 1
%%EOF
