%!PS-Adobe-3.0 EPSF-3.0
%%Creator: (MATLAB, The Mathworks, Inc. Version 9.0.0.341360 \(R2016a\). Operating System: Windows 7)
%%Title: D:/codes/PHTdynamic/2D/compute/L1/LShaped_bracket/figures/Coarse-mesh1thmode0p3q3.eps
%%CreationDate: 2016-12-22T12:31:19
%%Pages: (atend)
%%BoundingBox:    88    34   347   293
%%LanguageLevel: 3
%%EndComments
%%BeginProlog
%%BeginResource: procset (Apache XML Graphics Std ProcSet) 1.2 0
%%Version: 1.2 0
%%Copyright: (Copyright 2001-2003,2010 The Apache Software Foundation. License terms: http://www.apache.org/licenses/LICENSE-2.0)
/bd{bind def}bind def
/ld{load def}bd
/GR/grestore ld
/M/moveto ld
/LJ/setlinejoin ld
/C/curveto ld
/f/fill ld
/LW/setlinewidth ld
/GC/setgray ld
/t/show ld
/N/newpath ld
/CT/concat ld
/cp/closepath ld
/S/stroke ld
/L/lineto ld
/CC/setcmykcolor ld
/A/ashow ld
/GS/gsave ld
/RC/setrgbcolor ld
/RM/rmoveto ld
/ML/setmiterlimit ld
/re {4 2 roll M
1 index 0 rlineto
0 exch rlineto
neg 0 rlineto
cp } bd
/_ctm matrix def
/_tm matrix def
/BT { _ctm currentmatrix pop matrix _tm copy pop 0 0 moveto } bd
/ET { _ctm setmatrix } bd
/iTm { _ctm setmatrix _tm concat } bd
/Tm { _tm astore pop iTm 0 0 moveto } bd
/ux 0.0 def
/uy 0.0 def
/F {
  /Tp exch def
  /Tf exch def
  Tf findfont Tp scalefont setfont
  /cf Tf def  /cs Tp def
} bd
/ULS {currentpoint /uy exch def /ux exch def} bd
/ULE {
  /Tcx currentpoint pop def
  gsave
  newpath
  cf findfont cs scalefont dup
  /FontMatrix get 0 get /Ts exch def /FontInfo get dup
  /UnderlinePosition get Ts mul /To exch def
  /UnderlineThickness get Ts mul /Tt exch def
  ux uy To add moveto  Tcx uy To add lineto
  Tt setlinewidth stroke
  grestore
} bd
/OLE {
  /Tcx currentpoint pop def
  gsave
  newpath
  cf findfont cs scalefont dup
  /FontMatrix get 0 get /Ts exch def /FontInfo get dup
  /UnderlinePosition get Ts mul /To exch def
  /UnderlineThickness get Ts mul /Tt exch def
  ux uy To add cs add moveto Tcx uy To add cs add lineto
  Tt setlinewidth stroke
  grestore
} bd
/SOE {
  /Tcx currentpoint pop def
  gsave
  newpath
  cf findfont cs scalefont dup
  /FontMatrix get 0 get /Ts exch def /FontInfo get dup
  /UnderlinePosition get Ts mul /To exch def
  /UnderlineThickness get Ts mul /Tt exch def
  ux uy To add cs 10 mul 26 idiv add moveto Tcx uy To add cs 10 mul 26 idiv add lineto
  Tt setlinewidth stroke
  grestore
} bd
/QT {
/Y22 exch store
/X22 exch store
/Y21 exch store
/X21 exch store
currentpoint
/Y21 load 2 mul add 3 div exch
/X21 load 2 mul add 3 div exch
/X21 load 2 mul /X22 load add 3 div
/Y21 load 2 mul /Y22 load add 3 div
/X22 load /Y22 load curveto
} bd
/SSPD {
dup length /d exch dict def
{
/v exch def
/k exch def
currentpagedevice k known {
/cpdv currentpagedevice k get def
v cpdv ne {
/upd false def
/nullv v type /nulltype eq def
/nullcpdv cpdv type /nulltype eq def
nullv nullcpdv or
{
/upd true def
} {
/sametype v type cpdv type eq def
sametype {
v type /arraytype eq {
/vlen v length def
/cpdvlen cpdv length def
vlen cpdvlen eq {
0 1 vlen 1 sub {
/i exch def
/obj v i get def
/cpdobj cpdv i get def
obj cpdobj ne {
/upd true def
exit
} if
} for
} {
/upd true def
} ifelse
} {
v type /dicttype eq {
v {
/dv exch def
/dk exch def
/cpddv cpdv dk get def
dv cpddv ne {
/upd true def
exit
} if
} forall
} {
/upd true def
} ifelse
} ifelse
} if
} ifelse
upd true eq {
d k v put
} if
} if
} if
} forall
d length 0 gt {
d setpagedevice
} if
} bd
%%EndResource
%%BeginResource: procset (Apache XML Graphics EPS ProcSet) 1.0 0
%%Version: 1.0 0
%%Copyright: (Copyright 2002-2003 The Apache Software Foundation. License terms: http://www.apache.org/licenses/LICENSE-2.0)
/BeginEPSF { %def
/b4_Inc_state save def         % Save state for cleanup
/dict_count countdictstack def % Count objects on dict stack
/op_count count 1 sub def      % Count objects on operand stack
userdict begin                 % Push userdict on dict stack
/showpage { } def              % Redefine showpage, { } = null proc
0 setgray 0 setlinecap         % Prepare graphics state
1 setlinewidth 0 setlinejoin
10 setmiterlimit [ ] 0 setdash newpath
/languagelevel where           % If level not equal to 1 then
{pop languagelevel             % set strokeadjust and
1 ne                           % overprint to their defaults.
{false setstrokeadjust false setoverprint
} if
} if
} bd
/EndEPSF { %def
count op_count sub {pop} repeat            % Clean up stacks
countdictstack dict_count sub {end} repeat
b4_Inc_state restore
} bd
%%EndResource
%FOPBeginFontDict
%%IncludeResource: font Courier-Bold
%%IncludeResource: font Helvetica
%%IncludeResource: font Courier-BoldOblique
%%IncludeResource: font Courier-Oblique
%%IncludeResource: font Times-Roman
%%IncludeResource: font Helvetica-BoldOblique
%%IncludeResource: font Helvetica-Bold
%%IncludeResource: font Helvetica-Oblique
%%IncludeResource: font Times-BoldItalic
%%IncludeResource: font Courier
%%IncludeResource: font Times-Italic
%%IncludeResource: font Times-Bold
%%IncludeResource: font Symbol
%%IncludeResource: font ZapfDingbats
%FOPEndFontDict
%%BeginResource: encoding WinAnsiEncoding
/WinAnsiEncoding [
/.notdef /.notdef /.notdef /.notdef /.notdef
/.notdef /.notdef /.notdef /.notdef /.notdef
/.notdef /.notdef /.notdef /.notdef /.notdef
/.notdef /.notdef /.notdef /.notdef /.notdef
/.notdef /.notdef /.notdef /.notdef /.notdef
/.notdef /.notdef /.notdef /.notdef /.notdef
/.notdef /.notdef /space /exclam /quotedbl
/numbersign /dollar /percent /ampersand /quotesingle
/parenleft /parenright /asterisk /plus /comma
/hyphen /period /slash /zero /one
/two /three /four /five /six
/seven /eight /nine /colon /semicolon
/less /equal /greater /question /at
/A /B /C /D /E
/F /G /H /I /J
/K /L /M /N /O
/P /Q /R /S /T
/U /V /W /X /Y
/Z /bracketleft /backslash /bracketright /asciicircum
/underscore /quoteleft /a /b /c
/d /e /f /g /h
/i /j /k /l /m
/n /o /p /q /r
/s /t /u /v /w
/x /y /z /braceleft /bar
/braceright /asciitilde /bullet /Euro /bullet
/quotesinglbase /florin /quotedblbase /ellipsis /dagger
/daggerdbl /circumflex /perthousand /Scaron /guilsinglleft
/OE /bullet /Zcaron /bullet /bullet
/quoteleft /quoteright /quotedblleft /quotedblright /bullet
/endash /emdash /asciitilde /trademark /scaron
/guilsinglright /oe /bullet /zcaron /Ydieresis
/space /exclamdown /cent /sterling /currency
/yen /brokenbar /section /dieresis /copyright
/ordfeminine /guillemotleft /logicalnot /sfthyphen /registered
/macron /degree /plusminus /twosuperior /threesuperior
/acute /mu /paragraph /middot /cedilla
/onesuperior /ordmasculine /guillemotright /onequarter /onehalf
/threequarters /questiondown /Agrave /Aacute /Acircumflex
/Atilde /Adieresis /Aring /AE /Ccedilla
/Egrave /Eacute /Ecircumflex /Edieresis /Igrave
/Iacute /Icircumflex /Idieresis /Eth /Ntilde
/Ograve /Oacute /Ocircumflex /Otilde /Odieresis
/multiply /Oslash /Ugrave /Uacute /Ucircumflex
/Udieresis /Yacute /Thorn /germandbls /agrave
/aacute /acircumflex /atilde /adieresis /aring
/ae /ccedilla /egrave /eacute /ecircumflex
/edieresis /igrave /iacute /icircumflex /idieresis
/eth /ntilde /ograve /oacute /ocircumflex
/otilde /odieresis /divide /oslash /ugrave
/uacute /ucircumflex /udieresis /yacute /thorn
/ydieresis
] def
%%EndResource
%FOPBeginFontReencode
/Courier-Bold findfont
dup length dict begin
  {1 index /FID ne {def} {pop pop} ifelse} forall
  /Encoding WinAnsiEncoding def
  currentdict
end
/Courier-Bold exch definefont pop
/Helvetica findfont
dup length dict begin
  {1 index /FID ne {def} {pop pop} ifelse} forall
  /Encoding WinAnsiEncoding def
  currentdict
end
/Helvetica exch definefont pop
/Courier-BoldOblique findfont
dup length dict begin
  {1 index /FID ne {def} {pop pop} ifelse} forall
  /Encoding WinAnsiEncoding def
  currentdict
end
/Courier-BoldOblique exch definefont pop
/Courier-Oblique findfont
dup length dict begin
  {1 index /FID ne {def} {pop pop} ifelse} forall
  /Encoding WinAnsiEncoding def
  currentdict
end
/Courier-Oblique exch definefont pop
/Times-Roman findfont
dup length dict begin
  {1 index /FID ne {def} {pop pop} ifelse} forall
  /Encoding WinAnsiEncoding def
  currentdict
end
/Times-Roman exch definefont pop
/Helvetica-BoldOblique findfont
dup length dict begin
  {1 index /FID ne {def} {pop pop} ifelse} forall
  /Encoding WinAnsiEncoding def
  currentdict
end
/Helvetica-BoldOblique exch definefont pop
/Helvetica-Bold findfont
dup length dict begin
  {1 index /FID ne {def} {pop pop} ifelse} forall
  /Encoding WinAnsiEncoding def
  currentdict
end
/Helvetica-Bold exch definefont pop
/Helvetica-Oblique findfont
dup length dict begin
  {1 index /FID ne {def} {pop pop} ifelse} forall
  /Encoding WinAnsiEncoding def
  currentdict
end
/Helvetica-Oblique exch definefont pop
/Times-BoldItalic findfont
dup length dict begin
  {1 index /FID ne {def} {pop pop} ifelse} forall
  /Encoding WinAnsiEncoding def
  currentdict
end
/Times-BoldItalic exch definefont pop
/Courier findfont
dup length dict begin
  {1 index /FID ne {def} {pop pop} ifelse} forall
  /Encoding WinAnsiEncoding def
  currentdict
end
/Courier exch definefont pop
/Times-Italic findfont
dup length dict begin
  {1 index /FID ne {def} {pop pop} ifelse} forall
  /Encoding WinAnsiEncoding def
  currentdict
end
/Times-Italic exch definefont pop
/Times-Bold findfont
dup length dict begin
  {1 index /FID ne {def} {pop pop} ifelse} forall
  /Encoding WinAnsiEncoding def
  currentdict
end
/Times-Bold exch definefont pop
%FOPEndFontReencode
%%EndProlog
%%Page: 1 1
%%PageBoundingBox: 0 0 420 315
%%BeginPageSetup
[1 0 0 -1 0 315] CT
%%EndPageSetup
GS
[0.75 0 0 0.75 0 0] CT
1 GC
N
0 0 560 420 re
f
GR
GS
[0.75 0 0 0.75 0 0] CT
1 GC
N
0 0 560 420 re
f
GR
GS
[0.75 0 0 0.75 0 0] CT
1 0 0 RC
1 LJ
0.667 LW
N
421.162 71.338 M
422.768 69.732 L
424.416 68.084 L
426.108 66.392 L
427.844 64.656 L
429.622 62.878 L
431.444 61.056 L
433.31 59.19 L
435.218 57.282 L
437.17 55.33 L
439.166 53.334 L
439.166 53.334 L
436.667 51.89 L
434.117 50.58 L
431.521 49.411 L
428.883 48.387 L
426.209 47.512 L
423.505 46.791 L
420.775 46.227 L
418.027 45.823 L
415.267 45.579 L
412.5 45.498 L
412.5 45.498 L
412.5 47.274 L
412.5 49.128 L
412.5 51.068 L
412.5 53.101 L
412.5 55.235 L
412.5 57.477 L
412.5 59.839 L
412.5 62.33 L
412.5 64.962 L
412.5 67.75 L
412.5 67.75 L
413.513 67.792 L
414.516 67.917 L
415.498 68.123 L
416.451 68.405 L
417.365 68.758 L
418.235 69.175 L
419.053 69.65 L
419.815 70.174 L
420.519 70.739 L
421.162 71.338 L
S
GR
GS
[0.75 0 0 0.75 0 0] CT
1 0 0 RC
1 LJ
0.667 LW
N
439.166 53.334 M
441.204 51.296 L
443.286 49.214 L
445.411 47.089 L
447.58 44.92 L
449.791 42.709 L
452.046 40.454 L
454.345 38.155 L
456.687 35.813 L
459.072 33.428 L
461.5 31 L
461.5 31 L
456.6 31 L
451.7 31 L
446.8 31 L
441.9 31 L
437 31 L
432.1 31 L
427.2 31 L
422.3 31 L
417.4 31 L
412.5 31 L
412.5 31 L
412.5 32.243 L
412.5 33.522 L
412.5 34.842 L
412.5 36.205 L
412.5 37.615 L
412.5 39.075 L
412.5 40.588 L
412.5 42.16 L
412.5 43.795 L
412.5 45.498 L
412.5 45.498 L
415.267 45.579 L
418.027 45.823 L
420.775 46.227 L
423.505 46.791 L
426.209 47.512 L
428.883 48.387 L
431.521 49.411 L
434.117 50.58 L
436.667 51.89 L
439.166 53.334 L
S
GR
GS
[0.75 0 0 0.75 0 0] CT
1 0 0 RC
1 LJ
0.667 LW
N
412.5 67.75 M
412.5 64.962 L
412.5 62.33 L
412.5 59.839 L
412.5 57.477 L
412.5 55.235 L
412.5 53.101 L
412.5 51.068 L
412.5 49.128 L
412.5 47.274 L
412.5 45.498 L
412.5 45.498 L
409.733 45.579 L
406.973 45.823 L
404.225 46.227 L
401.495 46.791 L
398.791 47.512 L
396.117 48.387 L
393.479 49.411 L
390.883 50.58 L
388.333 51.89 L
385.834 53.334 L
385.834 53.334 L
387.83 55.33 L
389.782 57.282 L
391.69 59.19 L
393.556 61.056 L
395.378 62.878 L
397.156 64.656 L
398.892 66.392 L
400.584 68.084 L
402.232 69.732 L
403.838 71.338 L
403.838 71.338 L
404.481 70.739 L
405.185 70.174 L
405.947 69.65 L
406.765 69.175 L
407.635 68.758 L
408.549 68.405 L
409.502 68.123 L
410.484 67.917 L
411.487 67.792 L
412.5 67.75 L
S
GR
GS
[0.75 0 0 0.75 0 0] CT
1 0 0 RC
1 LJ
0.667 LW
N
412.5 45.498 M
412.5 43.795 L
412.5 42.16 L
412.5 40.588 L
412.5 39.075 L
412.5 37.615 L
412.5 36.205 L
412.5 34.842 L
412.5 33.522 L
412.5 32.243 L
412.5 31 L
412.5 31 L
407.6 31 L
402.7 31 L
397.8 31 L
392.9 31 L
388 31 L
383.1 31 L
378.2 31 L
373.3 31 L
368.4 31 L
363.5 31 L
363.5 31 L
365.928 33.428 L
368.313 35.813 L
370.655 38.155 L
372.954 40.454 L
375.209 42.709 L
377.42 44.92 L
379.589 47.089 L
381.714 49.214 L
383.796 51.296 L
385.834 53.334 L
385.834 53.334 L
388.333 51.89 L
390.883 50.58 L
393.479 49.411 L
396.117 48.387 L
398.791 47.512 L
401.495 46.791 L
404.225 46.227 L
406.973 45.823 L
409.733 45.579 L
412.5 45.498 L
S
GR
GS
[0.75 0 0 0.75 0 0] CT
0 0 1 RC
1 LJ
0.667 LW
N
403.838 71.338 M
402.232 69.732 L
400.584 68.084 L
398.892 66.392 L
397.156 64.656 L
395.378 62.878 L
393.556 61.056 L
391.69 59.19 L
389.782 57.282 L
387.83 55.33 L
385.834 53.334 L
385.834 53.334 L
384.39 55.833 L
383.08 58.383 L
381.911 60.979 L
380.887 63.617 L
380.012 66.291 L
379.291 68.995 L
378.727 71.725 L
378.323 74.473 L
378.079 77.233 L
377.998 80 L
377.998 80 L
379.774 80 L
381.628 80 L
383.568 80 L
385.601 80 L
387.735 80 L
389.977 80 L
392.339 80 L
394.829 80 L
397.462 80 L
400.25 80 L
400.25 80 L
400.292 78.987 L
400.417 77.984 L
400.623 77.002 L
400.905 76.049 L
401.258 75.135 L
401.675 74.265 L
402.15 73.447 L
402.674 72.685 L
403.239 71.981 L
403.838 71.338 L
S
GR
GS
[0.75 0 0 0.75 0 0] CT
0 0 1 RC
1 LJ
0.667 LW
N
385.834 53.334 M
383.796 51.296 L
381.714 49.214 L
379.589 47.089 L
377.42 44.92 L
375.209 42.709 L
372.954 40.454 L
370.655 38.155 L
368.313 35.813 L
365.928 33.428 L
363.5 31 L
363.5 31 L
363.5 35.9 L
363.5 40.8 L
363.5 45.7 L
363.5 50.6 L
363.5 55.5 L
363.5 60.4 L
363.5 65.3 L
363.5 70.2 L
363.5 75.1 L
363.5 80 L
363.5 80 L
364.743 80 L
366.022 80 L
367.342 80 L
368.705 80 L
370.115 80 L
371.575 80 L
373.088 80 L
374.66 80 L
376.295 80 L
377.998 80 L
377.998 80 L
378.079 77.233 L
378.323 74.473 L
378.727 71.725 L
379.291 68.995 L
380.012 66.291 L
380.887 63.617 L
381.911 60.979 L
383.08 58.383 L
384.39 55.833 L
385.834 53.334 L
S
GR
GS
[0.75 0 0 0.75 0 0] CT
0 0 1 RC
1 LJ
0.667 LW
N
400.25 80 M
397.462 80 L
394.829 80 L
392.339 80 L
389.977 80 L
387.735 80 L
385.601 80 L
383.568 80 L
381.628 80 L
379.774 80 L
377.998 80 L
377.998 80 L
378.079 82.767 L
378.323 85.527 L
378.727 88.275 L
379.291 91.005 L
380.012 93.709 L
380.887 96.383 L
381.911 99.021 L
383.08 101.617 L
384.39 104.167 L
385.834 106.666 L
385.834 106.666 L
387.83 104.67 L
389.782 102.718 L
391.69 100.81 L
393.556 98.944 L
395.378 97.122 L
397.156 95.344 L
398.892 93.608 L
400.584 91.916 L
402.232 90.268 L
403.838 88.662 L
403.838 88.662 L
403.239 88.019 L
402.674 87.315 L
402.15 86.553 L
401.675 85.735 L
401.258 84.865 L
400.905 83.951 L
400.623 82.998 L
400.417 82.016 L
400.292 81.013 L
400.25 80 L
S
GR
GS
[0.75 0 0 0.75 0 0] CT
0 0 1 RC
1 LJ
0.667 LW
N
377.998 80 M
376.295 80 L
374.66 80 L
373.088 80 L
371.575 80 L
370.115 80 L
368.705 80 L
367.342 80 L
366.022 80 L
364.743 80 L
363.5 80 L
363.5 80 L
363.5 84.9 L
363.5 89.8 L
363.5 94.7 L
363.5 99.6 L
363.5 104.5 L
363.5 109.4 L
363.5 114.3 L
363.5 119.2 L
363.5 124.1 L
363.5 129 L
363.5 129 L
365.928 126.572 L
368.313 124.187 L
370.655 121.845 L
372.954 119.546 L
375.209 117.291 L
377.42 115.08 L
379.589 112.911 L
381.714 110.786 L
383.796 108.704 L
385.834 106.666 L
385.834 106.666 L
384.39 104.167 L
383.08 101.617 L
381.911 99.021 L
380.887 96.383 L
380.012 93.709 L
379.291 91.005 L
378.727 88.275 L
378.323 85.527 L
378.079 82.767 L
377.998 80 L
S
GR
GS
[0.75 0 0 0.75 0 0] CT
0 1 0 RC
1 LJ
0.667 LW
N
403.838 88.662 M
402.232 90.268 L
400.584 91.916 L
398.892 93.608 L
397.156 95.344 L
395.378 97.122 L
393.556 98.944 L
391.69 100.81 L
389.782 102.718 L
387.83 104.67 L
385.834 106.666 L
385.834 106.666 L
388.333 108.11 L
390.883 109.42 L
393.479 110.589 L
396.117 111.613 L
398.791 112.488 L
401.495 113.209 L
404.225 113.773 L
406.973 114.177 L
409.733 114.421 L
412.5 114.502 L
412.5 114.502 L
412.5 112.726 L
412.5 110.872 L
412.5 108.932 L
412.5 106.899 L
412.5 104.765 L
412.5 102.523 L
412.5 100.161 L
412.5 97.67 L
412.5 95.038 L
412.5 92.25 L
412.5 92.25 L
411.487 92.208 L
410.484 92.083 L
409.502 91.877 L
408.549 91.595 L
407.635 91.242 L
406.765 90.825 L
405.947 90.35 L
405.185 89.826 L
404.481 89.261 L
403.838 88.662 L
S
GR
GS
[0.75 0 0 0.75 0 0] CT
0 1 0 RC
1 LJ
0.667 LW
N
385.834 106.666 M
383.796 108.704 L
381.714 110.786 L
379.589 112.911 L
377.42 115.08 L
375.209 117.291 L
372.954 119.546 L
370.655 121.845 L
368.313 124.187 L
365.928 126.572 L
363.5 129 L
363.5 129 L
368.4 129 L
373.3 129 L
378.2 129 L
383.1 129 L
388 129 L
392.9 129 L
397.8 129 L
402.7 129 L
407.6 129 L
412.5 129 L
412.5 129 L
412.5 127.757 L
412.5 126.478 L
412.5 125.158 L
412.5 123.795 L
412.5 122.385 L
412.5 120.925 L
412.5 119.412 L
412.5 117.84 L
412.5 116.205 L
412.5 114.502 L
412.5 114.502 L
409.733 114.421 L
406.973 114.177 L
404.225 113.773 L
401.495 113.209 L
398.791 112.488 L
396.117 111.613 L
393.479 110.589 L
390.883 109.42 L
388.333 108.11 L
385.834 106.666 L
S
GR
GS
[0.75 0 0 0.75 0 0] CT
0 1 0 RC
1 LJ
0.667 LW
N
412.5 92.25 M
412.5 95.038 L
412.5 97.67 L
412.5 100.161 L
412.5 102.523 L
412.5 104.765 L
412.5 106.899 L
412.5 108.932 L
412.5 110.872 L
412.5 112.726 L
412.5 114.502 L
412.5 114.502 L
415.267 114.421 L
418.027 114.177 L
420.775 113.773 L
423.505 113.209 L
426.209 112.488 L
428.883 111.613 L
431.521 110.589 L
434.117 109.42 L
436.667 108.11 L
439.166 106.666 L
439.166 106.666 L
437.17 104.67 L
435.218 102.718 L
433.31 100.81 L
431.444 98.944 L
429.622 97.122 L
427.844 95.344 L
426.108 93.608 L
424.416 91.916 L
422.768 90.268 L
421.162 88.662 L
421.162 88.662 L
420.519 89.261 L
419.815 89.826 L
419.053 90.35 L
418.235 90.825 L
417.365 91.242 L
416.451 91.595 L
415.498 91.877 L
414.516 92.083 L
413.513 92.208 L
412.5 92.25 L
S
GR
GS
[0.75 0 0 0.75 0 0] CT
0 1 0 RC
1 LJ
0.667 LW
N
412.5 114.502 M
412.5 116.205 L
412.5 117.84 L
412.5 119.412 L
412.5 120.925 L
412.5 122.385 L
412.5 123.795 L
412.5 125.158 L
412.5 126.478 L
412.5 127.757 L
412.5 129 L
412.5 129 L
417.4 129 L
422.3 129 L
427.2 129 L
432.1 129 L
437 129 L
441.9 129 L
446.8 129 L
451.7 129 L
456.6 129 L
461.5 129 L
461.5 129 L
459.072 126.572 L
456.687 124.187 L
454.345 121.845 L
452.046 119.546 L
449.791 117.291 L
447.58 115.08 L
445.411 112.911 L
443.286 110.786 L
441.204 108.704 L
439.166 106.666 L
439.166 106.666 L
436.667 108.11 L
434.117 109.42 L
431.521 110.589 L
428.883 111.613 L
426.209 112.488 L
423.505 113.209 L
420.775 113.773 L
418.027 114.177 L
415.267 114.421 L
412.5 114.502 L
S
GR
GS
[0.75 0 0 0.75 0 0] CT
0 1 1 RC
1 LJ
0.667 LW
N
421.162 88.662 M
422.768 90.268 L
424.416 91.916 L
426.108 93.608 L
427.844 95.344 L
429.622 97.122 L
431.444 98.944 L
433.31 100.81 L
435.218 102.718 L
437.17 104.67 L
439.166 106.666 L
439.166 106.666 L
440.61 104.167 L
441.92 101.617 L
443.089 99.021 L
444.113 96.383 L
444.988 93.709 L
445.709 91.005 L
446.273 88.275 L
446.677 85.527 L
446.921 82.767 L
447.002 80 L
447.002 80 L
445.226 80 L
443.372 80 L
441.432 80 L
439.399 80 L
437.265 80 L
435.023 80 L
432.661 80 L
430.171 80 L
427.538 80 L
424.75 80 L
424.75 80 L
424.708 81.013 L
424.583 82.016 L
424.377 82.998 L
424.095 83.951 L
423.742 84.865 L
423.325 85.735 L
422.85 86.553 L
422.326 87.315 L
421.761 88.019 L
421.162 88.662 L
S
GR
GS
[0.75 0 0 0.75 0 0] CT
0 1 1 RC
1 LJ
0.667 LW
N
439.166 106.666 M
441.204 108.704 L
443.286 110.786 L
445.411 112.911 L
447.58 115.08 L
449.791 117.291 L
452.046 119.546 L
454.345 121.845 L
456.687 124.187 L
459.072 126.572 L
461.5 129 L
461.5 129 L
461.5 124.1 L
461.5 119.2 L
461.5 114.3 L
461.5 109.4 L
461.5 104.5 L
461.5 99.6 L
461.5 94.7 L
461.5 89.8 L
461.5 84.9 L
461.5 80 L
461.5 80 L
460.257 80 L
458.978 80 L
457.658 80 L
456.295 80 L
454.885 80 L
453.425 80 L
451.912 80 L
450.34 80 L
448.705 80 L
447.002 80 L
447.002 80 L
446.921 82.767 L
446.677 85.527 L
446.273 88.275 L
445.709 91.005 L
444.988 93.709 L
444.113 96.383 L
443.089 99.021 L
441.92 101.617 L
440.61 104.167 L
439.166 106.666 L
S
GR
GS
[0.75 0 0 0.75 0 0] CT
0 1 1 RC
1 LJ
0.667 LW
N
424.75 80 M
427.538 80 L
430.171 80 L
432.661 80 L
435.023 80 L
437.265 80 L
439.399 80 L
441.432 80 L
443.372 80 L
445.226 80 L
447.002 80 L
447.002 80 L
446.921 77.233 L
446.677 74.473 L
446.273 71.725 L
445.709 68.995 L
444.988 66.291 L
444.113 63.617 L
443.089 60.979 L
441.92 58.383 L
440.61 55.833 L
439.166 53.334 L
439.166 53.334 L
437.17 55.33 L
435.218 57.282 L
433.31 59.19 L
431.444 61.056 L
429.622 62.878 L
427.844 64.656 L
426.108 66.392 L
424.416 68.084 L
422.768 69.732 L
421.162 71.338 L
421.162 71.338 L
421.761 71.981 L
422.326 72.685 L
422.85 73.447 L
423.325 74.265 L
423.742 75.135 L
424.095 76.049 L
424.377 77.002 L
424.583 77.984 L
424.708 78.987 L
424.75 80 L
S
GR
GS
[0.75 0 0 0.75 0 0] CT
0 1 1 RC
1 LJ
0.667 LW
N
447.002 80 M
448.705 80 L
450.34 80 L
451.912 80 L
453.425 80 L
454.885 80 L
456.295 80 L
457.658 80 L
458.978 80 L
460.257 80 L
461.5 80 L
461.5 80 L
461.5 75.1 L
461.5 70.2 L
461.5 65.3 L
461.5 60.4 L
461.5 55.5 L
461.5 50.6 L
461.5 45.7 L
461.5 40.8 L
461.5 35.9 L
461.5 31 L
461.5 31 L
459.072 33.428 L
456.687 35.813 L
454.345 38.155 L
452.046 40.454 L
449.791 42.709 L
447.58 44.92 L
445.411 47.089 L
443.286 49.214 L
441.204 51.296 L
439.166 53.334 L
439.166 53.334 L
440.61 55.833 L
441.92 58.383 L
443.089 60.979 L
444.113 63.617 L
444.988 66.291 L
445.709 68.995 L
446.273 71.725 L
446.677 74.473 L
446.921 77.233 L
447.002 80 L
S
GR
GS
[0.75 0 0 0.75 0 0] CT
1 0 1 RC
1 LJ
0.667 LW
N
323.162 71.338 M
323.761 71.981 L
324.326 72.685 L
324.85 73.447 L
325.325 74.265 L
325.742 75.135 L
326.095 76.049 L
326.377 77.002 L
326.583 77.984 L
326.708 78.987 L
326.75 80 L
326.75 80 L
329.538 80 L
332.17 80 L
334.661 80 L
337.023 80 L
339.265 80 L
341.399 80 L
343.432 80 L
345.372 80 L
347.226 80 L
349.002 80 L
349.002 80 L
348.921 77.233 L
348.677 74.473 L
348.273 71.725 L
347.709 68.995 L
346.988 66.291 L
346.113 63.617 L
345.089 60.979 L
343.92 58.383 L
342.61 55.833 L
341.166 53.334 L
341.166 53.334 L
339.17 55.33 L
337.218 57.282 L
335.31 59.19 L
333.444 61.056 L
331.622 62.878 L
329.844 64.656 L
328.108 66.392 L
326.416 68.084 L
324.768 69.732 L
323.162 71.338 L
S
GR
GS
[0.75 0 0 0.75 0 0] CT
1 0 1 RC
1 LJ
0.667 LW
N
326.75 80 M
326.708 81.013 L
326.583 82.016 L
326.377 82.998 L
326.095 83.951 L
325.742 84.865 L
325.325 85.735 L
324.85 86.553 L
324.326 87.315 L
323.761 88.019 L
323.162 88.662 L
323.162 88.662 L
324.768 90.268 L
326.416 91.916 L
328.108 93.608 L
329.844 95.344 L
331.622 97.122 L
333.444 98.944 L
335.31 100.81 L
337.218 102.718 L
339.17 104.67 L
341.166 106.666 L
341.166 106.666 L
342.61 104.167 L
343.92 101.617 L
345.089 99.021 L
346.113 96.383 L
346.988 93.709 L
347.709 91.005 L
348.273 88.275 L
348.677 85.527 L
348.921 82.767 L
349.002 80 L
349.002 80 L
347.226 80 L
345.372 80 L
343.432 80 L
341.399 80 L
339.265 80 L
337.023 80 L
334.661 80 L
332.17 80 L
329.538 80 L
326.75 80 L
S
GR
GS
[0.75 0 0 0.75 0 0] CT
1 0 1 RC
1 LJ
0.667 LW
N
341.166 53.334 M
342.61 55.833 L
343.92 58.383 L
345.089 60.979 L
346.113 63.617 L
346.988 66.291 L
347.709 68.995 L
348.273 71.725 L
348.677 74.473 L
348.921 77.233 L
349.002 80 L
349.002 80 L
350.705 80 L
352.34 80 L
353.912 80 L
355.425 80 L
356.885 80 L
358.295 80 L
359.658 80 L
360.978 80 L
362.257 80 L
363.5 80 L
363.5 80 L
363.5 75.1 L
363.5 70.2 L
363.5 65.3 L
363.5 60.4 L
363.5 55.5 L
363.5 50.6 L
363.5 45.7 L
363.5 40.8 L
363.5 35.9 L
363.5 31 L
363.5 31 L
361.072 33.428 L
358.687 35.813 L
356.345 38.155 L
354.046 40.454 L
351.791 42.709 L
349.58 44.92 L
347.411 47.089 L
345.286 49.214 L
343.204 51.296 L
341.166 53.334 L
S
GR
GS
[0.75 0 0 0.75 0 0] CT
1 0 1 RC
1 LJ
0.667 LW
N
349.002 80 M
348.921 82.767 L
348.677 85.527 L
348.273 88.275 L
347.709 91.005 L
346.988 93.709 L
346.113 96.383 L
345.089 99.021 L
343.92 101.617 L
342.61 104.167 L
341.166 106.666 L
341.166 106.666 L
343.204 108.704 L
345.286 110.786 L
347.411 112.911 L
349.58 115.08 L
351.791 117.291 L
354.046 119.546 L
356.345 121.845 L
358.687 124.187 L
361.072 126.572 L
363.5 129 L
363.5 129 L
363.5 124.1 L
363.5 119.2 L
363.5 114.3 L
363.5 109.4 L
363.5 104.5 L
363.5 99.6 L
363.5 94.7 L
363.5 89.8 L
363.5 84.9 L
363.5 80 L
363.5 80 L
362.257 80 L
360.978 80 L
359.658 80 L
358.295 80 L
356.885 80 L
355.425 80 L
353.912 80 L
352.34 80 L
350.705 80 L
349.002 80 L
S
GR
GS
[0.75 0 0 0.75 0 0] CT
1 LJ
0.667 LW
N
323.162 88.662 M
322.519 89.261 L
321.815 89.826 L
321.053 90.35 L
320.235 90.825 L
319.365 91.242 L
318.451 91.595 L
317.498 91.877 L
316.516 92.083 L
315.513 92.208 L
314.5 92.25 L
314.5 92.25 L
314.5 95.038 L
314.5 97.67 L
314.5 100.161 L
314.5 102.523 L
314.5 104.765 L
314.5 106.899 L
314.5 108.932 L
314.5 110.872 L
314.5 112.726 L
314.5 114.502 L
314.5 114.502 L
317.267 114.421 L
320.027 114.177 L
322.775 113.773 L
325.505 113.209 L
328.209 112.488 L
330.883 111.613 L
333.521 110.589 L
336.117 109.42 L
338.667 108.11 L
341.166 106.666 L
341.166 106.666 L
339.17 104.67 L
337.218 102.718 L
335.31 100.81 L
333.444 98.944 L
331.622 97.122 L
329.844 95.344 L
328.108 93.608 L
326.416 91.916 L
324.768 90.268 L
323.162 88.662 L
S
GR
GS
[0.75 0 0 0.75 0 0] CT
1 LJ
0.667 LW
N
314.5 92.25 M
313.487 92.208 L
312.484 92.083 L
311.502 91.877 L
310.549 91.595 L
309.635 91.242 L
308.765 90.825 L
307.947 90.35 L
307.185 89.826 L
306.481 89.261 L
305.838 88.662 L
305.838 88.662 L
304.232 90.268 L
302.584 91.916 L
300.892 93.608 L
299.156 95.344 L
297.378 97.122 L
295.556 98.944 L
293.69 100.81 L
291.782 102.718 L
289.83 104.67 L
287.834 106.666 L
287.834 106.666 L
290.333 108.11 L
292.883 109.42 L
295.479 110.589 L
298.117 111.613 L
300.791 112.488 L
303.495 113.209 L
306.225 113.773 L
308.973 114.177 L
311.733 114.421 L
314.5 114.502 L
314.5 114.502 L
314.5 112.726 L
314.5 110.872 L
314.5 108.932 L
314.5 106.899 L
314.5 104.765 L
314.5 102.523 L
314.5 100.161 L
314.5 97.67 L
314.5 95.038 L
314.5 92.25 L
S
GR
GS
[0.75 0 0 0.75 0 0] CT
1 LJ
0.667 LW
N
341.166 106.666 M
338.667 108.11 L
336.117 109.42 L
333.521 110.589 L
330.883 111.613 L
328.209 112.488 L
325.505 113.209 L
322.775 113.773 L
320.027 114.177 L
317.267 114.421 L
314.5 114.502 L
314.5 114.502 L
314.5 116.205 L
314.5 117.84 L
314.5 119.412 L
314.5 120.925 L
314.5 122.385 L
314.5 123.795 L
314.5 125.158 L
314.5 126.478 L
314.5 127.757 L
314.5 129 L
314.5 129 L
319.4 129 L
324.3 129 L
329.2 129 L
334.1 129 L
339 129 L
343.9 129 L
348.8 129 L
353.7 129 L
358.6 129 L
363.5 129 L
363.5 129 L
361.072 126.572 L
358.687 124.187 L
356.345 121.845 L
354.046 119.546 L
351.791 117.291 L
349.58 115.08 L
347.411 112.911 L
345.286 110.786 L
343.204 108.704 L
341.166 106.666 L
S
GR
GS
[0.75 0 0 0.75 0 0] CT
1 LJ
0.667 LW
N
314.5 114.502 M
311.733 114.421 L
308.973 114.177 L
306.225 113.773 L
303.495 113.209 L
300.791 112.488 L
298.117 111.613 L
295.479 110.589 L
292.883 109.42 L
290.333 108.11 L
287.834 106.666 L
287.834 106.666 L
285.796 108.704 L
283.714 110.786 L
281.589 112.911 L
279.42 115.08 L
277.209 117.291 L
274.954 119.546 L
272.655 121.845 L
270.313 124.187 L
267.928 126.572 L
265.5 129 L
265.5 129 L
270.4 129 L
275.3 129 L
280.2 129 L
285.1 129 L
290 129 L
294.9 129 L
299.8 129 L
304.7 129 L
309.6 129 L
314.5 129 L
314.5 129 L
314.5 127.757 L
314.5 126.478 L
314.5 125.158 L
314.5 123.795 L
314.5 122.385 L
314.5 120.925 L
314.5 119.412 L
314.5 117.84 L
314.5 116.205 L
314.5 114.502 L
S
GR
GS
[0.75 0 0 0.75 0 0] CT
1 0 0 RC
1 LJ
0.667 LW
N
305.838 88.662 M
305.324 88.019 L
304.84 87.315 L
304.39 86.553 L
303.983 85.735 L
303.624 84.865 L
303.322 83.951 L
303.08 82.998 L
302.903 82.016 L
302.796 81.013 L
302.76 80 L
302.76 80 L
299.915 80 L
297.23 80 L
294.69 80 L
292.285 80 L
290.001 80 L
287.831 80 L
285.765 80 L
283.794 80 L
281.911 80 L
280.111 80 L
280.111 80 L
280.191 82.767 L
280.431 85.527 L
280.83 88.275 L
281.386 91.005 L
282.096 93.709 L
282.958 96.383 L
283.967 99.021 L
285.12 101.617 L
286.411 104.167 L
287.834 106.666 L
287.834 106.666 L
289.83 104.67 L
291.782 102.718 L
293.69 100.81 L
295.556 98.944 L
297.378 97.122 L
299.156 95.344 L
300.892 93.608 L
302.584 91.916 L
304.232 90.268 L
305.838 88.662 L
S
GR
GS
[0.75 0 0 0.75 0 0] CT
1 0 0 RC
1 LJ
0.667 LW
N
302.76 80 M
302.796 78.987 L
302.903 77.984 L
303.08 77.002 L
303.322 76.049 L
303.624 75.135 L
303.983 74.265 L
304.39 73.447 L
304.84 72.685 L
305.324 71.981 L
305.838 71.338 L
305.838 71.338 L
304.232 69.732 L
302.584 68.084 L
300.892 66.392 L
299.156 64.656 L
297.378 62.878 L
295.556 61.056 L
293.69 59.19 L
291.782 57.282 L
289.83 55.33 L
287.834 53.334 L
287.834 53.334 L
286.411 55.833 L
285.12 58.383 L
283.967 60.979 L
282.958 63.617 L
282.096 66.291 L
281.386 68.995 L
280.83 71.725 L
280.431 74.473 L
280.191 77.233 L
280.111 80 L
280.111 80 L
281.911 80 L
283.794 80 L
285.765 80 L
287.831 80 L
290.001 80 L
292.285 80 L
294.69 80 L
297.23 80 L
299.915 80 L
302.76 80 L
S
GR
GS
[0.75 0 0 0.75 0 0] CT
1 0 0 RC
1 LJ
0.667 LW
N
287.834 106.666 M
286.411 104.167 L
285.12 101.617 L
283.967 99.021 L
282.958 96.383 L
282.096 93.709 L
281.386 91.005 L
280.83 88.275 L
280.431 85.527 L
280.191 82.767 L
280.111 80 L
280.111 80 L
278.386 80 L
276.732 80 L
275.143 80 L
273.614 80 L
272.142 80 L
270.723 80 L
269.352 80 L
268.027 80 L
266.744 80 L
265.5 80 L
265.5 80 L
265.5 84.9 L
265.5 89.8 L
265.5 94.7 L
265.5 99.6 L
265.5 104.5 L
265.5 109.4 L
265.5 114.3 L
265.5 119.2 L
265.5 124.1 L
265.5 129 L
265.5 129 L
267.928 126.572 L
270.313 124.187 L
272.655 121.845 L
274.954 119.546 L
277.209 117.291 L
279.42 115.08 L
281.589 112.911 L
283.714 110.786 L
285.796 108.704 L
287.834 106.666 L
S
GR
GS
[0.75 0 0 0.75 0 0] CT
1 0 0 RC
1 LJ
0.667 LW
N
280.111 80 M
280.191 77.233 L
280.431 74.473 L
280.83 71.725 L
281.386 68.995 L
282.096 66.291 L
282.958 63.617 L
283.967 60.979 L
285.12 58.383 L
286.411 55.833 L
287.834 53.334 L
287.834 53.334 L
285.796 51.296 L
283.714 49.214 L
281.589 47.089 L
279.42 44.92 L
277.209 42.709 L
274.954 40.454 L
272.655 38.155 L
270.313 35.813 L
267.928 33.428 L
265.5 31 L
265.5 31 L
265.5 35.9 L
265.5 40.8 L
265.5 45.7 L
265.5 50.6 L
265.5 55.5 L
265.5 60.4 L
265.5 65.3 L
265.5 70.2 L
265.5 75.1 L
265.5 80 L
265.5 80 L
266.744 80 L
268.027 80 L
269.352 80 L
270.723 80 L
272.142 80 L
273.614 80 L
275.143 80 L
276.732 80 L
278.386 80 L
280.111 80 L
S
GR
GS
[0.75 0 0 0.75 0 0] CT
0 0 1 RC
1 LJ
0.667 LW
N
305.838 71.338 M
306.481 70.739 L
307.185 70.174 L
307.947 69.65 L
308.765 69.175 L
309.635 68.758 L
310.549 68.405 L
311.502 68.123 L
312.484 67.917 L
313.487 67.792 L
314.5 67.75 L
314.5 67.75 L
314.5 64.962 L
314.5 62.33 L
314.5 59.839 L
314.5 57.477 L
314.5 55.235 L
314.5 53.101 L
314.5 51.068 L
314.5 49.128 L
314.5 47.274 L
314.5 45.498 L
314.5 45.498 L
311.733 45.579 L
308.973 45.823 L
306.225 46.227 L
303.495 46.791 L
300.791 47.512 L
298.117 48.387 L
295.479 49.411 L
292.883 50.58 L
290.333 51.89 L
287.834 53.334 L
287.834 53.334 L
289.83 55.33 L
291.782 57.282 L
293.69 59.19 L
295.556 61.056 L
297.378 62.878 L
299.156 64.656 L
300.892 66.392 L
302.584 68.084 L
304.232 69.732 L
305.838 71.338 L
S
GR
GS
[0.75 0 0 0.75 0 0] CT
0 0 1 RC
1 LJ
0.667 LW
N
314.5 67.75 M
315.513 67.792 L
316.516 67.917 L
317.498 68.123 L
318.451 68.405 L
319.365 68.758 L
320.235 69.175 L
321.053 69.65 L
321.815 70.174 L
322.519 70.739 L
323.162 71.338 L
323.162 71.338 L
324.768 69.732 L
326.416 68.084 L
328.108 66.392 L
329.844 64.656 L
331.622 62.878 L
333.444 61.056 L
335.31 59.19 L
337.218 57.282 L
339.17 55.33 L
341.166 53.334 L
341.166 53.334 L
338.667 51.89 L
336.117 50.58 L
333.521 49.411 L
330.883 48.387 L
328.209 47.512 L
325.505 46.791 L
322.775 46.227 L
320.027 45.823 L
317.267 45.579 L
314.5 45.498 L
314.5 45.498 L
314.5 47.274 L
314.5 49.128 L
314.5 51.068 L
314.5 53.101 L
314.5 55.235 L
314.5 57.477 L
314.5 59.839 L
314.5 62.33 L
314.5 64.962 L
314.5 67.75 L
S
GR
GS
[0.75 0 0 0.75 0 0] CT
0 0 1 RC
1 LJ
0.667 LW
N
287.834 53.334 M
290.333 51.89 L
292.883 50.58 L
295.479 49.411 L
298.117 48.387 L
300.791 47.512 L
303.495 46.791 L
306.225 46.227 L
308.973 45.823 L
311.733 45.579 L
314.5 45.498 L
314.5 45.498 L
314.5 43.795 L
314.5 42.16 L
314.5 40.588 L
314.5 39.075 L
314.5 37.615 L
314.5 36.205 L
314.5 34.842 L
314.5 33.522 L
314.5 32.243 L
314.5 31 L
314.5 31 L
309.6 31 L
304.7 31 L
299.8 31 L
294.9 31 L
290 31 L
285.1 31 L
280.2 31 L
275.3 31 L
270.4 31 L
265.5 31 L
265.5 31 L
267.928 33.428 L
270.313 35.813 L
272.655 38.155 L
274.954 40.454 L
277.209 42.709 L
279.42 44.92 L
281.589 47.089 L
283.714 49.214 L
285.796 51.296 L
287.834 53.334 L
S
GR
GS
[0.75 0 0 0.75 0 0] CT
0 0 1 RC
1 LJ
0.667 LW
N
314.5 45.498 M
317.267 45.579 L
320.027 45.823 L
322.775 46.227 L
325.505 46.791 L
328.209 47.512 L
330.883 48.387 L
333.521 49.411 L
336.117 50.58 L
338.667 51.89 L
341.166 53.334 L
341.166 53.334 L
343.204 51.296 L
345.286 49.214 L
347.411 47.089 L
349.58 44.92 L
351.791 42.709 L
354.046 40.454 L
356.345 38.155 L
358.687 35.813 L
361.072 33.428 L
363.5 31 L
363.5 31 L
358.6 31 L
353.7 31 L
348.8 31 L
343.9 31 L
339 31 L
334.1 31 L
329.2 31 L
324.3 31 L
319.4 31 L
314.5 31 L
314.5 31 L
314.5 32.243 L
314.5 33.522 L
314.5 34.842 L
314.5 36.205 L
314.5 37.615 L
314.5 39.075 L
314.5 40.588 L
314.5 42.16 L
314.5 43.795 L
314.5 45.498 L
S
GR
GS
[0.75 0 0 0.75 0 0] CT
0 1 0 RC
1 LJ
0.667 LW
N
216.5 178 M
216.531 176.255 L
216.626 174.488 L
216.787 172.702 L
217.017 170.899 L
217.318 169.084 L
217.691 167.26 L
218.139 165.432 L
218.663 163.603 L
219.263 161.779 L
219.94 159.963 L
219.94 159.963 L
214.277 156.183 L
208.684 152.449 L
203.157 148.76 L
197.698 145.116 L
192.304 141.515 L
186.974 137.957 L
181.707 134.442 L
176.502 130.967 L
171.357 127.533 L
166.273 124.139 L
166.273 124.139 L
166.17 129.081 L
166.119 134.141 L
166.12 139.313 L
166.172 144.588 L
166.274 149.961 L
166.425 155.421 L
166.624 160.964 L
166.871 166.579 L
167.163 172.26 L
167.5 178 L
167.5 178 L
172.4 178 L
177.3 178 L
182.2 178 L
187.1 178 L
192 178 L
196.9 178 L
201.8 178 L
206.7 178 L
211.6 178 L
216.5 178 L
S
GR
GS
[0.75 0 0 0.75 0 0] CT
0 1 0 RC
1 LJ
0.667 LW
N
219.94 159.963 M
220.696 158.161 L
221.529 156.378 L
222.439 154.618 L
223.425 152.886 L
224.487 151.187 L
225.623 149.526 L
226.829 147.907 L
228.105 146.336 L
229.447 144.816 L
230.852 143.352 L
230.852 143.352 L
224.326 136.826 L
217.911 130.411 L
211.603 124.103 L
205.399 117.899 L
199.298 111.798 L
193.296 105.796 L
187.392 99.892 L
181.582 94.082 L
175.864 88.364 L
170.238 82.738 L
170.238 82.738 L
169.602 86.133 L
169.019 89.708 L
168.489 93.458 L
168.012 97.377 L
167.588 101.461 L
167.217 105.704 L
166.901 110.1 L
166.638 114.642 L
166.429 119.324 L
166.273 124.139 L
166.273 124.139 L
171.357 127.533 L
176.502 130.967 L
181.707 134.442 L
186.974 137.957 L
192.304 141.515 L
197.698 145.116 L
203.157 148.76 L
208.684 152.449 L
214.277 156.183 L
219.94 159.963 L
S
GR
GS
[0.75 0 0 0.75 0 0] CT
0 1 0 RC
1 LJ
0.667 LW
N
167.5 178 M
167.163 172.26 L
166.871 166.579 L
166.624 160.964 L
166.425 155.421 L
166.274 149.961 L
166.172 144.588 L
166.12 139.313 L
166.119 134.141 L
166.17 129.081 L
166.273 124.139 L
166.273 124.139 L
161.247 120.785 L
156.279 117.468 L
151.368 114.19 L
146.513 110.949 L
141.712 107.744 L
136.965 104.576 L
132.272 101.443 L
127.63 98.345 L
123.04 95.28 L
118.5 92.25 L
118.5 92.25 L
118.5 99.723 L
118.5 107.44 L
118.5 115.403 L
118.5 123.61 L
118.5 132.063 L
118.5 140.76 L
118.5 149.702 L
118.5 158.89 L
118.5 168.322 L
118.5 178 L
118.5 178 L
123.4 178 L
128.3 178 L
133.2 178 L
138.1 178 L
143 178 L
147.9 178 L
152.8 178 L
157.7 178 L
162.6 178 L
167.5 178 L
S
GR
GS
[0.75 0 0 0.75 0 0] CT
0 1 0 RC
1 LJ
0.667 LW
N
166.273 124.139 M
166.429 119.324 L
166.638 114.642 L
166.901 110.1 L
167.217 105.704 L
167.588 101.461 L
168.012 97.377 L
168.489 93.458 L
169.019 89.708 L
169.602 86.133 L
170.238 82.738 L
170.238 82.738 L
164.699 77.199 L
159.246 71.746 L
153.878 66.378 L
148.592 61.092 L
143.386 55.886 L
138.258 50.758 L
133.208 45.708 L
128.232 40.732 L
123.33 35.83 L
118.5 31 L
118.5 31 L
118.5 36.023 L
118.5 41.29 L
118.5 46.802 L
118.5 52.56 L
118.5 58.563 L
118.5 64.81 L
118.5 71.302 L
118.5 78.04 L
118.5 85.022 L
118.5 92.25 L
118.5 92.25 L
123.04 95.28 L
127.63 98.345 L
132.272 101.443 L
136.965 104.576 L
141.712 107.744 L
146.513 110.949 L
151.368 114.19 L
156.279 117.468 L
161.247 120.785 L
166.273 124.139 L
S
GR
GS
[0.75 0 0 0.75 0 0] CT
0 1 1 RC
1 LJ
0.667 LW
N
230.852 143.352 M
232.316 141.947 L
233.836 140.605 L
235.407 139.329 L
237.026 138.123 L
238.687 136.987 L
240.386 135.925 L
242.118 134.939 L
243.878 134.029 L
245.661 133.196 L
247.463 132.44 L
247.463 132.44 L
243.683 126.777 L
239.949 121.184 L
236.26 115.657 L
232.616 110.198 L
229.015 104.804 L
225.457 99.474 L
221.942 94.207 L
218.467 89.002 L
215.033 83.857 L
211.639 78.773 L
211.639 78.773 L
206.824 78.929 L
202.142 79.138 L
197.6 79.401 L
193.204 79.717 L
188.961 80.088 L
184.877 80.512 L
180.958 80.989 L
177.208 81.519 L
173.633 82.102 L
170.238 82.738 L
170.238 82.738 L
175.864 88.364 L
181.582 94.082 L
187.392 99.892 L
193.296 105.796 L
199.298 111.798 L
205.399 117.899 L
211.603 124.103 L
217.911 130.411 L
224.326 136.826 L
230.852 143.352 L
S
GR
GS
[0.75 0 0 0.75 0 0] CT
0 1 1 RC
1 LJ
0.667 LW
N
247.463 132.44 M
249.279 131.763 L
251.103 131.163 L
252.932 130.639 L
254.76 130.191 L
256.584 129.818 L
258.399 129.517 L
260.202 129.287 L
261.988 129.126 L
263.755 129.031 L
265.5 129 L
265.5 129 L
265.5 124.1 L
265.5 119.2 L
265.5 114.3 L
265.5 109.4 L
265.5 104.5 L
265.5 99.6 L
265.5 94.7 L
265.5 89.8 L
265.5 84.9 L
265.5 80 L
265.5 80 L
259.76 79.663 L
254.079 79.371 L
248.464 79.124 L
242.921 78.925 L
237.461 78.774 L
232.088 78.672 L
226.813 78.62 L
221.641 78.619 L
216.581 78.67 L
211.639 78.773 L
211.639 78.773 L
215.033 83.857 L
218.467 89.002 L
221.942 94.207 L
225.457 99.474 L
229.015 104.804 L
232.616 110.198 L
236.26 115.657 L
239.949 121.184 L
243.683 126.777 L
247.463 132.44 L
S
GR
GS
[0.75 0 0 0.75 0 0] CT
0 1 1 RC
1 LJ
0.667 LW
N
170.238 82.738 M
173.633 82.102 L
177.208 81.519 L
180.958 80.989 L
184.877 80.512 L
188.961 80.088 L
193.204 79.717 L
197.6 79.401 L
202.142 79.138 L
206.824 78.929 L
211.639 78.773 L
211.639 78.773 L
208.285 73.747 L
204.968 68.779 L
201.69 63.868 L
198.449 59.013 L
195.244 54.212 L
192.076 49.465 L
188.943 44.772 L
185.845 40.13 L
182.78 35.54 L
179.75 31 L
179.75 31 L
172.522 31 L
165.54 31 L
158.803 31 L
152.31 31 L
146.063 31 L
140.06 31 L
134.303 31 L
128.79 31 L
123.522 31 L
118.5 31 L
118.5 31 L
123.33 35.83 L
128.232 40.732 L
133.208 45.708 L
138.258 50.758 L
143.386 55.886 L
148.592 61.092 L
153.878 66.378 L
159.246 71.746 L
164.699 77.199 L
170.238 82.738 L
S
GR
GS
[0.75 0 0 0.75 0 0] CT
0 1 1 RC
1 LJ
0.667 LW
N
211.639 78.773 M
216.581 78.67 L
221.641 78.619 L
226.813 78.62 L
232.088 78.672 L
237.461 78.774 L
242.921 78.925 L
248.464 79.124 L
254.079 79.371 L
259.76 79.663 L
265.5 80 L
265.5 80 L
265.5 75.1 L
265.5 70.2 L
265.5 65.3 L
265.5 60.4 L
265.5 55.5 L
265.5 50.6 L
265.5 45.7 L
265.5 40.8 L
265.5 35.9 L
265.5 31 L
265.5 31 L
255.822 31 L
246.39 31 L
237.202 31 L
228.26 31 L
219.563 31 L
211.11 31 L
202.902 31 L
194.94 31 L
187.223 31 L
179.75 31 L
179.75 31 L
182.78 35.54 L
185.845 40.13 L
188.943 44.772 L
192.076 49.465 L
195.244 54.212 L
198.449 59.013 L
201.69 63.868 L
204.968 68.779 L
208.285 73.747 L
211.639 78.773 L
S
GR
GS
[0.75 0 0 0.75 0 0] CT
1 0 1 RC
1 LJ
0.667 LW
N
176.162 218.338 M
177.768 216.732 L
179.416 215.084 L
181.108 213.392 L
182.844 211.656 L
184.622 209.878 L
186.444 208.056 L
188.31 206.19 L
190.218 204.282 L
192.17 202.33 L
194.166 200.334 L
194.166 200.334 L
191.667 198.89 L
189.117 197.58 L
186.521 196.411 L
183.883 195.387 L
181.209 194.512 L
178.505 193.791 L
175.775 193.227 L
173.027 192.823 L
170.267 192.579 L
167.5 192.498 L
167.5 192.498 L
167.5 194.274 L
167.5 196.128 L
167.5 198.068 L
167.5 200.101 L
167.5 202.235 L
167.5 204.477 L
167.5 206.839 L
167.5 209.33 L
167.5 211.962 L
167.5 214.75 L
167.5 214.75 L
168.513 214.792 L
169.516 214.917 L
170.498 215.123 L
171.451 215.405 L
172.365 215.758 L
173.235 216.175 L
174.053 216.65 L
174.815 217.174 L
175.519 217.739 L
176.162 218.338 L
S
GR
GS
[0.75 0 0 0.75 0 0] CT
1 0 1 RC
1 LJ
0.667 LW
N
194.166 200.334 M
196.204 198.296 L
198.286 196.214 L
200.411 194.089 L
202.58 191.92 L
204.791 189.709 L
207.046 187.454 L
209.345 185.155 L
211.687 182.813 L
214.072 180.428 L
216.5 178 L
216.5 178 L
211.6 178 L
206.7 178 L
201.8 178 L
196.9 178 L
192 178 L
187.1 178 L
182.2 178 L
177.3 178 L
172.4 178 L
167.5 178 L
167.5 178 L
167.5 179.243 L
167.5 180.522 L
167.5 181.842 L
167.5 183.205 L
167.5 184.615 L
167.5 186.075 L
167.5 187.588 L
167.5 189.16 L
167.5 190.795 L
167.5 192.498 L
167.5 192.498 L
170.267 192.579 L
173.027 192.823 L
175.775 193.227 L
178.505 193.791 L
181.209 194.512 L
183.883 195.387 L
186.521 196.411 L
189.117 197.58 L
191.667 198.89 L
194.166 200.334 L
S
GR
GS
[0.75 0 0 0.75 0 0] CT
1 0 1 RC
1 LJ
0.667 LW
N
167.5 214.75 M
167.5 211.962 L
167.5 209.33 L
167.5 206.839 L
167.5 204.477 L
167.5 202.235 L
167.5 200.101 L
167.5 198.068 L
167.5 196.128 L
167.5 194.274 L
167.5 192.498 L
167.5 192.498 L
164.733 192.579 L
161.973 192.823 L
159.225 193.227 L
156.495 193.791 L
153.791 194.512 L
151.117 195.387 L
148.479 196.411 L
145.883 197.58 L
143.333 198.89 L
140.834 200.334 L
140.834 200.334 L
142.83 202.33 L
144.782 204.282 L
146.69 206.19 L
148.556 208.056 L
150.378 209.878 L
152.156 211.656 L
153.892 213.392 L
155.584 215.084 L
157.232 216.732 L
158.838 218.338 L
158.838 218.338 L
159.481 217.739 L
160.185 217.174 L
160.947 216.65 L
161.765 216.175 L
162.635 215.758 L
163.549 215.405 L
164.502 215.123 L
165.484 214.917 L
166.487 214.792 L
167.5 214.75 L
S
GR
GS
[0.75 0 0 0.75 0 0] CT
1 0 1 RC
1 LJ
0.667 LW
N
167.5 192.498 M
167.5 190.795 L
167.5 189.16 L
167.5 187.588 L
167.5 186.075 L
167.5 184.615 L
167.5 183.205 L
167.5 181.842 L
167.5 180.522 L
167.5 179.243 L
167.5 178 L
167.5 178 L
162.6 178 L
157.7 178 L
152.8 178 L
147.9 178 L
143 178 L
138.1 178 L
133.2 178 L
128.3 178 L
123.4 178 L
118.5 178 L
118.5 178 L
120.928 180.428 L
123.313 182.813 L
125.655 185.155 L
127.954 187.454 L
130.209 189.709 L
132.42 191.92 L
134.589 194.089 L
136.714 196.214 L
138.796 198.296 L
140.834 200.334 L
140.834 200.334 L
143.333 198.89 L
145.883 197.58 L
148.479 196.411 L
151.117 195.387 L
153.791 194.512 L
156.495 193.791 L
159.225 193.227 L
161.973 192.823 L
164.733 192.579 L
167.5 192.498 L
S
GR
GS
[0.75 0 0 0.75 0 0] CT
1 LJ
0.667 LW
N
158.838 218.338 M
157.232 216.732 L
155.584 215.084 L
153.892 213.392 L
152.156 211.656 L
150.378 209.878 L
148.556 208.056 L
146.69 206.19 L
144.782 204.282 L
142.83 202.33 L
140.834 200.334 L
140.834 200.334 L
139.39 202.833 L
138.08 205.383 L
136.911 207.979 L
135.887 210.617 L
135.012 213.291 L
134.291 215.995 L
133.727 218.725 L
133.323 221.473 L
133.079 224.233 L
132.998 227 L
132.998 227 L
134.773 227 L
136.628 227 L
138.568 227 L
140.601 227 L
142.735 227 L
144.977 227 L
147.339 227 L
149.829 227 L
152.462 227 L
155.25 227 L
155.25 227 L
155.292 225.987 L
155.417 224.984 L
155.623 224.002 L
155.905 223.049 L
156.258 222.135 L
156.675 221.265 L
157.15 220.447 L
157.674 219.685 L
158.239 218.981 L
158.838 218.338 L
S
GR
GS
[0.75 0 0 0.75 0 0] CT
1 LJ
0.667 LW
N
140.834 200.334 M
138.796 198.296 L
136.714 196.214 L
134.589 194.089 L
132.42 191.92 L
130.209 189.709 L
127.954 187.454 L
125.655 185.155 L
123.313 182.813 L
120.928 180.428 L
118.5 178 L
118.5 178 L
118.5 182.9 L
118.5 187.8 L
118.5 192.7 L
118.5 197.6 L
118.5 202.5 L
118.5 207.4 L
118.5 212.3 L
118.5 217.2 L
118.5 222.1 L
118.5 227 L
118.5 227 L
119.743 227 L
121.022 227 L
122.342 227 L
123.705 227 L
125.115 227 L
126.575 227 L
128.088 227 L
129.66 227 L
131.295 227 L
132.998 227 L
132.998 227 L
133.079 224.233 L
133.323 221.473 L
133.727 218.725 L
134.291 215.995 L
135.012 213.291 L
135.887 210.617 L
136.911 207.979 L
138.08 205.383 L
139.39 202.833 L
140.834 200.334 L
S
GR
GS
[0.75 0 0 0.75 0 0] CT
1 LJ
0.667 LW
N
155.25 227 M
152.462 227 L
149.829 227 L
147.339 227 L
144.977 227 L
142.735 227 L
140.601 227 L
138.568 227 L
136.628 227 L
134.773 227 L
132.998 227 L
132.998 227 L
133.079 229.767 L
133.323 232.527 L
133.727 235.275 L
134.291 238.005 L
135.012 240.709 L
135.887 243.383 L
136.911 246.021 L
138.08 248.617 L
139.39 251.167 L
140.834 253.666 L
140.834 253.666 L
142.83 251.67 L
144.782 249.718 L
146.69 247.81 L
148.556 245.944 L
150.378 244.122 L
152.156 242.344 L
153.892 240.608 L
155.584 238.916 L
157.232 237.268 L
158.838 235.662 L
158.838 235.662 L
158.239 235.019 L
157.674 234.315 L
157.15 233.553 L
156.675 232.735 L
156.258 231.865 L
155.905 230.951 L
155.623 229.998 L
155.417 229.016 L
155.292 228.013 L
155.25 227 L
S
GR
GS
[0.75 0 0 0.75 0 0] CT
1 LJ
0.667 LW
N
132.998 227 M
131.295 227 L
129.66 227 L
128.088 227 L
126.575 227 L
125.115 227 L
123.705 227 L
122.342 227 L
121.022 227 L
119.743 227 L
118.5 227 L
118.5 227 L
118.5 231.9 L
118.5 236.8 L
118.5 241.7 L
118.5 246.6 L
118.5 251.5 L
118.5 256.4 L
118.5 261.3 L
118.5 266.2 L
118.5 271.1 L
118.5 276 L
118.5 276 L
120.928 273.572 L
123.313 271.187 L
125.655 268.845 L
127.954 266.546 L
130.209 264.291 L
132.42 262.08 L
134.589 259.911 L
136.714 257.786 L
138.796 255.704 L
140.834 253.666 L
140.834 253.666 L
139.39 251.167 L
138.08 248.617 L
136.911 246.021 L
135.887 243.383 L
135.012 240.709 L
134.291 238.005 L
133.727 235.275 L
133.323 232.527 L
133.079 229.767 L
132.998 227 L
S
GR
GS
[0.75 0 0 0.75 0 0] CT
1 0 0 RC
1 LJ
0.667 LW
N
158.838 235.662 M
157.232 237.268 L
155.584 238.916 L
153.892 240.608 L
152.156 242.344 L
150.378 244.122 L
148.556 245.944 L
146.69 247.81 L
144.782 249.718 L
142.83 251.67 L
140.834 253.666 L
140.834 253.666 L
143.333 255.11 L
145.883 256.42 L
148.479 257.589 L
151.117 258.613 L
153.791 259.488 L
156.495 260.209 L
159.225 260.773 L
161.973 261.177 L
164.733 261.421 L
167.5 261.502 L
167.5 261.502 L
167.5 259.726 L
167.5 257.872 L
167.5 255.932 L
167.5 253.899 L
167.5 251.765 L
167.5 249.523 L
167.5 247.161 L
167.5 244.67 L
167.5 242.038 L
167.5 239.25 L
167.5 239.25 L
166.487 239.208 L
165.484 239.083 L
164.502 238.877 L
163.549 238.595 L
162.635 238.242 L
161.765 237.825 L
160.947 237.35 L
160.185 236.826 L
159.481 236.261 L
158.838 235.662 L
S
GR
GS
[0.75 0 0 0.75 0 0] CT
1 0 0 RC
1 LJ
0.667 LW
N
140.834 253.666 M
138.796 255.704 L
136.714 257.786 L
134.589 259.911 L
132.42 262.08 L
130.209 264.291 L
127.954 266.546 L
125.655 268.845 L
123.313 271.187 L
120.928 273.572 L
118.5 276 L
118.5 276 L
123.4 276 L
128.3 276 L
133.2 276 L
138.1 276 L
143 276 L
147.9 276 L
152.8 276 L
157.7 276 L
162.6 276 L
167.5 276 L
167.5 276 L
167.5 274.757 L
167.5 273.478 L
167.5 272.158 L
167.5 270.795 L
167.5 269.385 L
167.5 267.925 L
167.5 266.412 L
167.5 264.84 L
167.5 263.205 L
167.5 261.502 L
167.5 261.502 L
164.733 261.421 L
161.973 261.177 L
159.225 260.773 L
156.495 260.209 L
153.791 259.488 L
151.117 258.613 L
148.479 257.589 L
145.883 256.42 L
143.333 255.11 L
140.834 253.666 L
S
GR
GS
[0.75 0 0 0.75 0 0] CT
1 0 0 RC
1 LJ
0.667 LW
N
167.5 239.25 M
167.5 242.038 L
167.5 244.67 L
167.5 247.161 L
167.5 249.523 L
167.5 251.765 L
167.5 253.899 L
167.5 255.932 L
167.5 257.872 L
167.5 259.726 L
167.5 261.502 L
167.5 261.502 L
170.267 261.421 L
173.027 261.177 L
175.775 260.773 L
178.505 260.209 L
181.209 259.488 L
183.883 258.613 L
186.521 257.589 L
189.117 256.42 L
191.667 255.11 L
194.166 253.666 L
194.166 253.666 L
192.17 251.67 L
190.218 249.718 L
188.31 247.81 L
186.444 245.944 L
184.622 244.122 L
182.844 242.344 L
181.108 240.608 L
179.416 238.916 L
177.768 237.268 L
176.162 235.662 L
176.162 235.662 L
175.519 236.261 L
174.815 236.826 L
174.053 237.35 L
173.235 237.825 L
172.365 238.242 L
171.451 238.595 L
170.498 238.877 L
169.516 239.083 L
168.513 239.208 L
167.5 239.25 L
S
GR
GS
[0.75 0 0 0.75 0 0] CT
1 0 0 RC
1 LJ
0.667 LW
N
167.5 261.502 M
167.5 263.205 L
167.5 264.84 L
167.5 266.412 L
167.5 267.925 L
167.5 269.385 L
167.5 270.795 L
167.5 272.158 L
167.5 273.478 L
167.5 274.757 L
167.5 276 L
167.5 276 L
172.4 276 L
177.3 276 L
182.2 276 L
187.1 276 L
192 276 L
196.9 276 L
201.8 276 L
206.7 276 L
211.6 276 L
216.5 276 L
216.5 276 L
214.072 273.572 L
211.687 271.187 L
209.345 268.845 L
207.046 266.546 L
204.791 264.291 L
202.58 262.08 L
200.411 259.911 L
198.286 257.786 L
196.204 255.704 L
194.166 253.666 L
194.166 253.666 L
191.667 255.11 L
189.117 256.42 L
186.521 257.589 L
183.883 258.613 L
181.209 259.488 L
178.505 260.209 L
175.775 260.773 L
173.027 261.177 L
170.267 261.421 L
167.5 261.502 L
S
GR
GS
[0.75 0 0 0.75 0 0] CT
0 0 1 RC
1 LJ
0.667 LW
N
176.162 235.662 M
177.768 237.268 L
179.416 238.916 L
181.108 240.608 L
182.844 242.344 L
184.622 244.122 L
186.444 245.944 L
188.31 247.81 L
190.218 249.718 L
192.17 251.67 L
194.166 253.666 L
194.166 253.666 L
195.61 251.167 L
196.92 248.617 L
198.089 246.021 L
199.113 243.383 L
199.988 240.709 L
200.709 238.005 L
201.273 235.275 L
201.677 232.527 L
201.921 229.767 L
202.002 227 L
202.002 227 L
200.227 227 L
198.372 227 L
196.432 227 L
194.399 227 L
192.265 227 L
190.023 227 L
187.661 227 L
185.171 227 L
182.538 227 L
179.75 227 L
179.75 227 L
179.708 228.013 L
179.583 229.016 L
179.377 229.998 L
179.095 230.951 L
178.742 231.865 L
178.325 232.735 L
177.85 233.553 L
177.326 234.315 L
176.761 235.019 L
176.162 235.662 L
S
GR
GS
[0.75 0 0 0.75 0 0] CT
0 0 1 RC
1 LJ
0.667 LW
N
194.166 253.666 M
196.204 255.704 L
198.286 257.786 L
200.411 259.911 L
202.58 262.08 L
204.791 264.291 L
207.046 266.546 L
209.345 268.845 L
211.687 271.187 L
214.072 273.572 L
216.5 276 L
216.5 276 L
216.5 271.1 L
216.5 266.2 L
216.5 261.3 L
216.5 256.4 L
216.5 251.5 L
216.5 246.6 L
216.5 241.7 L
216.5 236.8 L
216.5 231.9 L
216.5 227 L
216.5 227 L
215.257 227 L
213.978 227 L
212.658 227 L
211.295 227 L
209.885 227 L
208.425 227 L
206.912 227 L
205.34 227 L
203.705 227 L
202.002 227 L
202.002 227 L
201.921 229.767 L
201.677 232.527 L
201.273 235.275 L
200.709 238.005 L
199.988 240.709 L
199.113 243.383 L
198.089 246.021 L
196.92 248.617 L
195.61 251.167 L
194.166 253.666 L
S
GR
GS
[0.75 0 0 0.75 0 0] CT
0 0 1 RC
1 LJ
0.667 LW
N
179.75 227 M
182.538 227 L
185.171 227 L
187.661 227 L
190.023 227 L
192.265 227 L
194.399 227 L
196.432 227 L
198.372 227 L
200.227 227 L
202.002 227 L
202.002 227 L
201.921 224.233 L
201.677 221.473 L
201.273 218.725 L
200.709 215.995 L
199.988 213.291 L
199.113 210.617 L
198.089 207.979 L
196.92 205.383 L
195.61 202.833 L
194.166 200.334 L
194.166 200.334 L
192.17 202.33 L
190.218 204.282 L
188.31 206.19 L
186.444 208.056 L
184.622 209.878 L
182.844 211.656 L
181.108 213.392 L
179.416 215.084 L
177.768 216.732 L
176.162 218.338 L
176.162 218.338 L
176.761 218.981 L
177.326 219.685 L
177.85 220.447 L
178.325 221.265 L
178.742 222.135 L
179.095 223.049 L
179.377 224.002 L
179.583 224.984 L
179.708 225.987 L
179.75 227 L
S
GR
GS
[0.75 0 0 0.75 0 0] CT
0 0 1 RC
1 LJ
0.667 LW
N
202.002 227 M
203.705 227 L
205.34 227 L
206.912 227 L
208.425 227 L
209.885 227 L
211.295 227 L
212.658 227 L
213.978 227 L
215.257 227 L
216.5 227 L
216.5 227 L
216.5 222.1 L
216.5 217.2 L
216.5 212.3 L
216.5 207.4 L
216.5 202.5 L
216.5 197.6 L
216.5 192.7 L
216.5 187.8 L
216.5 182.9 L
216.5 178 L
216.5 178 L
214.072 180.428 L
211.687 182.813 L
209.345 185.155 L
207.046 187.454 L
204.791 189.709 L
202.58 191.92 L
200.411 194.089 L
198.286 196.214 L
196.204 198.296 L
194.166 200.334 L
194.166 200.334 L
195.61 202.833 L
196.92 205.383 L
198.089 207.979 L
199.113 210.617 L
199.988 213.291 L
200.709 215.995 L
201.273 218.725 L
201.677 221.473 L
201.921 224.233 L
202.002 227 L
S
GR
GS
[0.75 0 0 0.75 0 0] CT
0 1 0 RC
1 LJ
0.667 LW
N
176.162 316.338 M
176.761 316.981 L
177.326 317.685 L
177.85 318.447 L
178.325 319.265 L
178.742 320.135 L
179.095 321.049 L
179.377 322.002 L
179.583 322.984 L
179.708 323.987 L
179.75 325 L
179.75 325 L
182.538 325 L
185.171 325 L
187.661 325 L
190.023 325 L
192.265 325 L
194.399 325 L
196.432 325 L
198.372 325 L
200.227 325 L
202.002 325 L
202.002 325 L
201.921 322.233 L
201.677 319.473 L
201.273 316.725 L
200.709 313.995 L
199.988 311.291 L
199.113 308.617 L
198.089 305.979 L
196.92 303.383 L
195.61 300.833 L
194.166 298.334 L
194.166 298.334 L
192.17 300.33 L
190.218 302.282 L
188.31 304.19 L
186.444 306.056 L
184.622 307.878 L
182.844 309.656 L
181.108 311.392 L
179.416 313.084 L
177.768 314.733 L
176.162 316.338 L
S
GR
GS
[0.75 0 0 0.75 0 0] CT
0 1 0 RC
1 LJ
0.667 LW
N
179.75 325 M
179.708 326.013 L
179.583 327.016 L
179.377 327.998 L
179.095 328.951 L
178.742 329.865 L
178.325 330.735 L
177.85 331.553 L
177.326 332.315 L
176.761 333.019 L
176.162 333.662 L
176.162 333.662 L
177.768 335.267 L
179.416 336.916 L
181.108 338.608 L
182.844 340.344 L
184.622 342.122 L
186.444 343.944 L
188.31 345.81 L
190.218 347.718 L
192.17 349.67 L
194.166 351.666 L
194.166 351.666 L
195.61 349.167 L
196.92 346.617 L
198.089 344.021 L
199.113 341.383 L
199.988 338.709 L
200.709 336.005 L
201.273 333.275 L
201.677 330.527 L
201.921 327.767 L
202.002 325 L
202.002 325 L
200.227 325 L
198.372 325 L
196.432 325 L
194.399 325 L
192.265 325 L
190.023 325 L
187.661 325 L
185.171 325 L
182.538 325 L
179.75 325 L
S
GR
GS
[0.75 0 0 0.75 0 0] CT
0 1 0 RC
1 LJ
0.667 LW
N
194.166 298.334 M
195.61 300.833 L
196.92 303.383 L
198.089 305.979 L
199.113 308.617 L
199.988 311.291 L
200.709 313.995 L
201.273 316.725 L
201.677 319.473 L
201.921 322.233 L
202.002 325 L
202.002 325 L
203.705 325 L
205.34 325 L
206.912 325 L
208.425 325 L
209.885 325 L
211.295 325 L
212.658 325 L
213.978 325 L
215.257 325 L
216.5 325 L
216.5 325 L
216.5 320.1 L
216.5 315.2 L
216.5 310.3 L
216.5 305.4 L
216.5 300.5 L
216.5 295.6 L
216.5 290.7 L
216.5 285.8 L
216.5 280.9 L
216.5 276 L
216.5 276 L
214.072 278.428 L
211.687 280.813 L
209.345 283.155 L
207.046 285.454 L
204.791 287.709 L
202.58 289.92 L
200.411 292.089 L
198.286 294.214 L
196.204 296.296 L
194.166 298.334 L
S
GR
GS
[0.75 0 0 0.75 0 0] CT
0 1 0 RC
1 LJ
0.667 LW
N
202.002 325 M
201.921 327.767 L
201.677 330.527 L
201.273 333.275 L
200.709 336.005 L
199.988 338.709 L
199.113 341.383 L
198.089 344.021 L
196.92 346.617 L
195.61 349.167 L
194.166 351.666 L
194.166 351.666 L
196.204 353.704 L
198.286 355.786 L
200.411 357.911 L
202.58 360.08 L
204.791 362.291 L
207.046 364.546 L
209.345 366.845 L
211.687 369.187 L
214.072 371.572 L
216.5 374 L
216.5 374 L
216.5 369.1 L
216.5 364.2 L
216.5 359.3 L
216.5 354.4 L
216.5 349.5 L
216.5 344.6 L
216.5 339.7 L
216.5 334.8 L
216.5 329.9 L
216.5 325 L
216.5 325 L
215.257 325 L
213.978 325 L
212.658 325 L
211.295 325 L
209.885 325 L
208.425 325 L
206.912 325 L
205.34 325 L
203.705 325 L
202.002 325 L
S
GR
GS
[0.75 0 0 0.75 0 0] CT
0 1 1 RC
1 LJ
0.667 LW
N
176.162 333.662 M
175.519 334.261 L
174.815 334.826 L
174.053 335.35 L
173.235 335.825 L
172.365 336.242 L
171.451 336.595 L
170.498 336.877 L
169.516 337.083 L
168.513 337.208 L
167.5 337.25 L
167.5 337.25 L
167.5 340.038 L
167.5 342.671 L
167.5 345.161 L
167.5 347.523 L
167.5 349.765 L
167.5 351.899 L
167.5 353.932 L
167.5 355.872 L
167.5 357.727 L
167.5 359.502 L
167.5 359.502 L
170.267 359.421 L
173.027 359.177 L
175.775 358.773 L
178.505 358.209 L
181.209 357.488 L
183.883 356.613 L
186.521 355.589 L
189.117 354.42 L
191.667 353.11 L
194.166 351.666 L
194.166 351.666 L
192.17 349.67 L
190.218 347.718 L
188.31 345.81 L
186.444 343.944 L
184.622 342.122 L
182.844 340.344 L
181.108 338.608 L
179.416 336.916 L
177.768 335.267 L
176.162 333.662 L
S
GR
GS
[0.75 0 0 0.75 0 0] CT
0 1 1 RC
1 LJ
0.667 LW
N
167.5 337.25 M
166.487 337.208 L
165.484 337.083 L
164.502 336.877 L
163.549 336.595 L
162.635 336.242 L
161.765 335.825 L
160.947 335.35 L
160.185 334.826 L
159.481 334.261 L
158.838 333.662 L
158.838 333.662 L
157.232 335.267 L
155.584 336.916 L
153.892 338.608 L
152.156 340.344 L
150.378 342.122 L
148.556 343.944 L
146.69 345.81 L
144.782 347.718 L
142.83 349.67 L
140.834 351.666 L
140.834 351.666 L
143.333 353.11 L
145.883 354.42 L
148.479 355.589 L
151.117 356.613 L
153.791 357.488 L
156.495 358.209 L
159.225 358.773 L
161.973 359.177 L
164.733 359.421 L
167.5 359.502 L
167.5 359.502 L
167.5 357.727 L
167.5 355.872 L
167.5 353.932 L
167.5 351.899 L
167.5 349.765 L
167.5 347.523 L
167.5 345.161 L
167.5 342.671 L
167.5 340.038 L
167.5 337.25 L
S
GR
GS
[0.75 0 0 0.75 0 0] CT
0 1 1 RC
1 LJ
0.667 LW
N
194.166 351.666 M
191.667 353.11 L
189.117 354.42 L
186.521 355.589 L
183.883 356.613 L
181.209 357.488 L
178.505 358.209 L
175.775 358.773 L
173.027 359.177 L
170.267 359.421 L
167.5 359.502 L
167.5 359.502 L
167.5 361.205 L
167.5 362.84 L
167.5 364.412 L
167.5 365.925 L
167.5 367.385 L
167.5 368.795 L
167.5 370.158 L
167.5 371.478 L
167.5 372.757 L
167.5 374 L
167.5 374 L
172.4 374 L
177.3 374 L
182.2 374 L
187.1 374 L
192 374 L
196.9 374 L
201.8 374 L
206.7 374 L
211.6 374 L
216.5 374 L
216.5 374 L
214.072 371.572 L
211.687 369.187 L
209.345 366.845 L
207.046 364.546 L
204.791 362.291 L
202.58 360.08 L
200.411 357.911 L
198.286 355.786 L
196.204 353.704 L
194.166 351.666 L
S
GR
GS
[0.75 0 0 0.75 0 0] CT
0 1 1 RC
1 LJ
0.667 LW
N
167.5 359.502 M
164.733 359.421 L
161.973 359.177 L
159.225 358.773 L
156.495 358.209 L
153.791 357.488 L
151.117 356.613 L
148.479 355.589 L
145.883 354.42 L
143.333 353.11 L
140.834 351.666 L
140.834 351.666 L
138.796 353.704 L
136.714 355.786 L
134.589 357.911 L
132.42 360.08 L
130.209 362.291 L
127.954 364.546 L
125.655 366.845 L
123.313 369.187 L
120.928 371.572 L
118.5 374 L
118.5 374 L
123.4 374 L
128.3 374 L
133.2 374 L
138.1 374 L
143 374 L
147.9 374 L
152.8 374 L
157.7 374 L
162.6 374 L
167.5 374 L
167.5 374 L
167.5 372.757 L
167.5 371.478 L
167.5 370.158 L
167.5 368.795 L
167.5 367.385 L
167.5 365.925 L
167.5 364.412 L
167.5 362.84 L
167.5 361.205 L
167.5 359.502 L
S
GR
GS
[0.75 0 0 0.75 0 0] CT
1 0 1 RC
1 LJ
0.667 LW
N
158.838 333.662 M
158.324 333.019 L
157.839 332.315 L
157.39 331.553 L
156.983 330.735 L
156.624 329.865 L
156.322 328.951 L
156.08 327.998 L
155.903 327.016 L
155.796 326.013 L
155.76 325 L
155.76 325 L
152.915 325 L
150.23 325 L
147.69 325 L
145.285 325 L
143.001 325 L
140.831 325 L
138.765 325 L
136.794 325 L
134.911 325 L
133.111 325 L
133.111 325 L
133.191 327.767 L
133.431 330.527 L
133.83 333.275 L
134.386 336.005 L
135.096 338.709 L
135.958 341.383 L
136.967 344.021 L
138.12 346.617 L
139.411 349.167 L
140.834 351.666 L
140.834 351.666 L
142.83 349.67 L
144.782 347.718 L
146.69 345.81 L
148.556 343.944 L
150.378 342.122 L
152.156 340.344 L
153.892 338.608 L
155.584 336.916 L
157.232 335.267 L
158.838 333.662 L
S
GR
GS
[0.75 0 0 0.75 0 0] CT
1 0 1 RC
1 LJ
0.667 LW
N
155.76 325 M
155.796 323.987 L
155.903 322.984 L
156.08 322.002 L
156.322 321.049 L
156.624 320.135 L
156.983 319.265 L
157.39 318.447 L
157.839 317.685 L
158.324 316.981 L
158.838 316.338 L
158.838 316.338 L
157.232 314.733 L
155.584 313.084 L
153.892 311.392 L
152.156 309.656 L
150.378 307.878 L
148.556 306.056 L
146.69 304.19 L
144.782 302.282 L
142.83 300.33 L
140.834 298.334 L
140.834 298.334 L
139.411 300.833 L
138.12 303.383 L
136.967 305.979 L
135.958 308.617 L
135.096 311.291 L
134.386 313.995 L
133.83 316.725 L
133.431 319.473 L
133.191 322.233 L
133.111 325 L
133.111 325 L
134.911 325 L
136.794 325 L
138.765 325 L
140.831 325 L
143.001 325 L
145.285 325 L
147.69 325 L
150.23 325 L
152.915 325 L
155.76 325 L
S
GR
GS
[0.75 0 0 0.75 0 0] CT
1 0 1 RC
1 LJ
0.667 LW
N
140.834 351.666 M
139.411 349.167 L
138.12 346.617 L
136.967 344.021 L
135.958 341.383 L
135.096 338.709 L
134.386 336.005 L
133.83 333.275 L
133.431 330.527 L
133.191 327.767 L
133.111 325 L
133.111 325 L
131.386 325 L
129.732 325 L
128.143 325 L
126.614 325 L
125.142 325 L
123.723 325 L
122.352 325 L
121.027 325 L
119.744 325 L
118.5 325 L
118.5 325 L
118.5 329.9 L
118.5 334.8 L
118.5 339.7 L
118.5 344.6 L
118.5 349.5 L
118.5 354.4 L
118.5 359.3 L
118.5 364.2 L
118.5 369.1 L
118.5 374 L
118.5 374 L
120.928 371.572 L
123.313 369.187 L
125.655 366.845 L
127.954 364.546 L
130.209 362.291 L
132.42 360.08 L
134.589 357.911 L
136.714 355.786 L
138.796 353.704 L
140.834 351.666 L
S
GR
GS
[0.75 0 0 0.75 0 0] CT
1 0 1 RC
1 LJ
0.667 LW
N
133.111 325 M
133.191 322.233 L
133.431 319.473 L
133.83 316.725 L
134.386 313.995 L
135.096 311.291 L
135.958 308.617 L
136.967 305.979 L
138.12 303.383 L
139.411 300.833 L
140.834 298.334 L
140.834 298.334 L
138.796 296.296 L
136.714 294.214 L
134.589 292.089 L
132.42 289.92 L
130.209 287.709 L
127.954 285.454 L
125.655 283.155 L
123.313 280.813 L
120.928 278.428 L
118.5 276 L
118.5 276 L
118.5 280.9 L
118.5 285.8 L
118.5 290.7 L
118.5 295.6 L
118.5 300.5 L
118.5 305.4 L
118.5 310.3 L
118.5 315.2 L
118.5 320.1 L
118.5 325 L
118.5 325 L
119.744 325 L
121.027 325 L
122.352 325 L
123.723 325 L
125.142 325 L
126.614 325 L
128.143 325 L
129.732 325 L
131.386 325 L
133.111 325 L
S
GR
GS
[0.75 0 0 0.75 0 0] CT
1 LJ
0.667 LW
N
158.838 316.338 M
159.481 315.739 L
160.185 315.174 L
160.947 314.65 L
161.765 314.175 L
162.635 313.758 L
163.549 313.405 L
164.502 313.123 L
165.484 312.917 L
166.487 312.792 L
167.5 312.75 L
167.5 312.75 L
167.5 309.962 L
167.5 307.329 L
167.5 304.839 L
167.5 302.477 L
167.5 300.235 L
167.5 298.101 L
167.5 296.068 L
167.5 294.128 L
167.5 292.273 L
167.5 290.498 L
167.5 290.498 L
164.733 290.579 L
161.973 290.823 L
159.225 291.227 L
156.495 291.791 L
153.791 292.512 L
151.117 293.387 L
148.479 294.411 L
145.883 295.58 L
143.333 296.89 L
140.834 298.334 L
140.834 298.334 L
142.83 300.33 L
144.782 302.282 L
146.69 304.19 L
148.556 306.056 L
150.378 307.878 L
152.156 309.656 L
153.892 311.392 L
155.584 313.084 L
157.232 314.733 L
158.838 316.338 L
S
GR
GS
[0.75 0 0 0.75 0 0] CT
1 LJ
0.667 LW
N
167.5 312.75 M
168.513 312.792 L
169.516 312.917 L
170.498 313.123 L
171.451 313.405 L
172.365 313.758 L
173.235 314.175 L
174.053 314.65 L
174.815 315.174 L
175.519 315.739 L
176.162 316.338 L
176.162 316.338 L
177.768 314.733 L
179.416 313.084 L
181.108 311.392 L
182.844 309.656 L
184.622 307.878 L
186.444 306.056 L
188.31 304.19 L
190.218 302.282 L
192.17 300.33 L
194.166 298.334 L
194.166 298.334 L
191.667 296.89 L
189.117 295.58 L
186.521 294.411 L
183.883 293.387 L
181.209 292.512 L
178.505 291.791 L
175.775 291.227 L
173.027 290.823 L
170.267 290.579 L
167.5 290.498 L
167.5 290.498 L
167.5 292.273 L
167.5 294.128 L
167.5 296.068 L
167.5 298.101 L
167.5 300.235 L
167.5 302.477 L
167.5 304.839 L
167.5 307.329 L
167.5 309.962 L
167.5 312.75 L
S
GR
GS
[0.75 0 0 0.75 0 0] CT
1 LJ
0.667 LW
N
140.834 298.334 M
143.333 296.89 L
145.883 295.58 L
148.479 294.411 L
151.117 293.387 L
153.791 292.512 L
156.495 291.791 L
159.225 291.227 L
161.973 290.823 L
164.733 290.579 L
167.5 290.498 L
167.5 290.498 L
167.5 288.795 L
167.5 287.16 L
167.5 285.588 L
167.5 284.075 L
167.5 282.615 L
167.5 281.205 L
167.5 279.842 L
167.5 278.522 L
167.5 277.243 L
167.5 276 L
167.5 276 L
162.6 276 L
157.7 276 L
152.8 276 L
147.9 276 L
143 276 L
138.1 276 L
133.2 276 L
128.3 276 L
123.4 276 L
118.5 276 L
118.5 276 L
120.928 278.428 L
123.313 280.813 L
125.655 283.155 L
127.954 285.454 L
130.209 287.709 L
132.42 289.92 L
134.589 292.089 L
136.714 294.214 L
138.796 296.296 L
140.834 298.334 L
S
GR
GS
[0.75 0 0 0.75 0 0] CT
1 LJ
0.667 LW
N
167.5 290.498 M
170.267 290.579 L
173.027 290.823 L
175.775 291.227 L
178.505 291.791 L
181.209 292.512 L
183.883 293.387 L
186.521 294.411 L
189.117 295.58 L
191.667 296.89 L
194.166 298.334 L
194.166 298.334 L
196.204 296.296 L
198.286 294.214 L
200.411 292.089 L
202.58 289.92 L
204.791 287.709 L
207.046 285.454 L
209.345 283.155 L
211.687 280.813 L
214.072 278.428 L
216.5 276 L
216.5 276 L
211.6 276 L
206.7 276 L
201.8 276 L
196.9 276 L
192 276 L
187.1 276 L
182.2 276 L
177.3 276 L
172.4 276 L
167.5 276 L
167.5 276 L
167.5 277.243 L
167.5 278.522 L
167.5 279.842 L
167.5 281.205 L
167.5 282.615 L
167.5 284.075 L
167.5 285.588 L
167.5 287.16 L
167.5 288.795 L
167.5 290.498 L
S
GR
%%Trailer
%%Pages: 1
%%EOF
